Division,WeightClassKg,Place,Name,Team,BodyweightKg,Best3SquatKg,Best3BenchKg,Best3DeadliftKg,TotalKg,Equipment,Event,Sex
Boys,51.71,1,Brooks Guzman,Weslaco East,49.71,145.15,74.84,165.56,385.55,Single-ply,SBD,M
Boys,55.79,2,Rolando Gonzalez,PSJA Southwest,51.8,147.42,102.06,136.08,385.55,Single-ply,SBD,M
Boys,51.71,3,Anthony Garcia,Weslaco,45.27,90.72,61.23,120.2,272.16,Single-ply,SBD,M
Boys,51.71,DQ,Juan Dominquez,PSJA North,49.26,99.79,,,,Single-ply,SBD,M
Boys,55.79,1,Angel Flores #2,Weslaco East,54.43,151.95,92.99,183.7,428.64,Single-ply,SBD,M
Boys,55.79,2,Carlos Jaimez,PSJA,54.98,129.27,77.11,163.29,369.68,Single-ply,SBD,M
Boys,55.79,3,Kevin Sierra,PSJA Southwest,54.79,115.67,74.84,138.35,328.85,Single-ply,SBD,M
Boys,55.79,DQ,Mauro Vargas,La Joya Juarez-Lincoln,54.7,122.47,,,,Single-ply,SBD,M
Boys,59.87,1,Eric Gaona,PSJA Memorial,58.6,179.17,79.38,170.1,428.64,Single-ply,SBD,M
Boys,59.87,2,Marcus Lopez,La Joya Palmview,58.97,129.27,92.99,165.56,387.82,Single-ply,SBD,M
Boys,59.87,3,Tommy Jasso,Weslaco,59.69,145.15,79.38,163.29,387.82,Single-ply,SBD,M
Boys,59.87,4,Juan Melchor,La Joya Palmview,59.69,142.88,74.84,145.15,362.87,Single-ply,SBD,M
Boys,59.87,5,Jesse Garza,Rio Grande City,59.87,77.11,61.23,129.27,267.62,Single-ply,SBD,M
Boys,67.13,1,Joshua Garcia,Weslaco,65.14,183.7,104.33,208.65,496.68,Single-ply,SBD,M
Boys,67.13,2,Jorge Cantu,PSJA Southwest,63.87,188.24,122.47,176.9,487.61,Single-ply,SBD,M
Boys,67.13,3,Jerry Pena,Rio Grande City,66.68,204.12,99.79,183.7,487.61,Single-ply,SBD,M
Boys,67.13,4,Jose Morales,PSJA Memorial,66.5,154.22,113.4,176.9,444.52,Single-ply,SBD,M
Boys,67.13,5,Marco Chavez,PSJA Memorial,65.41,158.76,97.52,172.37,428.64,Single-ply,SBD,M
Boys,67.13,6,Jorge Ramos,Weslaco,65.77,154.22,102.06,165.56,421.84,Single-ply,SBD,M
Boys,67.13,7,Jesse Rodriguez,PSJA Memorial,64.77,161.03,106.59,140.61,408.23,Single-ply,SBD,M
Boys,67.13,8,Allen Rojas,Rio Grande City Grulla,65.32,145.15,95.25,147.42,387.82,Single-ply,SBD,M
Boys,67.13,9,Javier Ramos,PSJA,63.68,133.81,90.72,158.76,383.29,Single-ply,SBD,M
Boys,67.13,10,Edson Carvajal,La Joya Juarez-Lincoln,65.68,120.2,92.99,140.61,353.8,Single-ply,SBD,M
Boys,74.84,11,Gilbert Rodriguez,PSJA North,67.36,136.08,68.04,149.69,353.8,Single-ply,SBD,M
Boys,67.13,12,Jose Landa,PSJA,60.24,142.88,72.57,124.74,340.19,Single-ply,SBD,M
Boys,67.13,13,Eduardo Gonzalez,La Joya Juarez-Lincoln,65.68,97.52,63.5,106.59,267.62,Single-ply,SBD,M
Boys,74.84,1,Eddie Garza,PSJA Southwest,73.57,192.78,108.86,206.38,508.02,Single-ply,SBD,M
Boys,74.84,2,Felix Tirado,Weslaco,73.12,181.44,120.2,204.12,505.76,Single-ply,SBD,M
Boys,74.84,3,Aaron Estevanes,Weslaco,70.58,190.51,99.79,206.38,496.68,Single-ply,SBD,M
Boys,74.84,4,Mario Silva,PSJA Memorial,73.94,185.97,108.86,195.04,489.88,Single-ply,SBD,M
Boys,74.84,5,Alex Santisesteban,La Joya,69.76,170.1,113.4,195.04,478.54,Single-ply,SBD,M
Boys,74.84,6,Austin Segura,Rio Grande City,74.84,181.44,108.86,181.44,471.74,Single-ply,SBD,M
Boys,74.84,7,Emilio Tamez,Weslaco East,69.13,158.76,102.06,201.85,462.66,Single-ply,SBD,M
Boys,74.84,8,Issac Vela,PSJA,71.76,167.83,122.47,172.37,462.66,Single-ply,SBD,M
Boys,74.84,9,Joe Gonzalez,La Joya Juarez-Lincoln,73.75,167.83,95.25,190.51,453.59,Single-ply,SBD,M
Boys,82.1,10,Jerry Reyna,La Joya Juarez-Lincoln,75.02,165.56,106.59,181.44,453.59,Single-ply,SBD,M
Boys,74.84,11,Isreal Estrada,PSJA North,71.58,149.69,104.33,151.95,405.97,Single-ply,SBD,M
Boys,74.84,12,Damasio Pena,PSJA Memorial,72.03,138.35,97.52,,235.87,Single-ply,SB,M
Boys,74.84,DQ,Sérgio Silva,La Joya Palmview,73.84,,,,,Single-ply,SB,M
Boys,82.1,1,Ram Mendoza,Weslaco East,80.74,226.8,142.88,215.46,585.13,Single-ply,SBD,M
Boys,82.1,2,Bryan Sanchez,Weslaco East,80.2,208.65,147.42,219.99,576.06,Single-ply,SBD,M
Boys,82.1,3,Adan Cantu,Rio Grande City Grulla,79.29,229.06,127.01,208.65,564.72,Single-ply,SBD,M
Boys,82.1,4,Lorenzo Hoerta,PSJA Southwest,79.83,238.14,127.01,199.58,564.72,Single-ply,SBD,M
Boys,82.1,5,Gilbert Trevino,Weslaco,81.37,215.46,129.27,213.19,557.92,Single-ply,SBD,M
Boys,82.1,6,Tony Villarreal,PSJA North,81.1,204.12,115.67,204.12,523.9,Single-ply,SBD,M
Boys,82.1,7,Brandon Garza,Rio Grande City,81.19,190.51,113.4,204.12,508.02,Single-ply,SBD,M
Boys,82.1,8,Omar Lozano,PSJA Memorial,79.38,179.17,115.67,188.24,483.08,Single-ply,SBD,M
Boys,89.81,9,Javier Galvan,Weslaco,82.33,176.9,106.59,195.04,478.54,Single-ply,SBD,M
Boys,82.1,10,Ray Villarreal,Mission Veterans Memorial,79.47,161.03,117.93,185.97,464.93,Single-ply,SBD,M
Boys,82.1,11,Jacob Hernandez,PSJA Memorial,77.02,165.56,120.2,170.1,455.86,Single-ply,SBD,M
Boys,82.1,12,Hugo Cabrera,Mission Veterans Memorial,81.37,151.95,106.59,181.44,439.98,Single-ply,SBD,M
Boys,82.1,13,Robert Hernandez,La Joya Juarez-Lincoln,78.83,145.15,102.06,190.51,437.72,Single-ply,SBD,M
Boys,82.1,DQ,Jose Bernal,La Joya Palmview,78.02,,,,,Single-ply,SBD,M
Boys,89.81,1,Ryan Navarro,Weslaco East,89.45,231.33,129.27,231.33,591.94,Single-ply,SBD,M
Boys,89.81,2,Augustin Morales,Weslaco East,89.81,215.46,129.27,226.8,571.53,Single-ply,SBD,M
Boys,89.81,3,Jonathan Soto,PSJA Southwest,88.27,251.74,127.01,185.97,564.72,Single-ply,SBD,M
Boys,89.81,4,Jesus Reyna,Weslaco,86.27,208.65,127.01,210.92,546.58,Single-ply,SBD,M
Boys,89.81,5,Manny Garza,PSJA Southwest,86.45,231.33,113.4,192.78,537.51,Single-ply,SBD,M
Boys,89.81,6,Eddie Garza,Rio Grande City,89.81,188.24,145.15,183.7,517.1,Single-ply,SBD,M
Boys,89.81,7,Eddie Nunez,La Joya,83.1,161.03,129.27,183.7,474,Single-ply,SBD,M
Boys,99.79,8,Jorge Moreno,La Joya Palmview,89.99,172.37,106.59,185.97,464.93,Single-ply,SBD,M
Boys,89.81,9,Fernando Hernandez,La Joya Juarez-Lincoln,88.27,147.42,97.52,176.9,421.84,Single-ply,SBD,M
Boys,89.81,10,Erik Marroquin,La Joya,83.46,158.76,97.52,149.69,405.97,Single-ply,SBD,M
Boys,89.81,11,Thor Hernandez,PSJA North,83.73,156.49,99.79,142.88,399.16,Single-ply,SBD,M
Boys,99.79,1,Faustino Saldana,PSJA Southwest,97.34,258.55,145.15,210.92,614.62,Single-ply,SBD,M
Boys,99.79,2,Ray Flores,Weslaco East,93.62,222.26,142.88,242.67,607.81,Single-ply,SBD,M
Boys,99.79,3,Jesus Ruiz,Rio Grande City Grulla,97.34,226.8,167.83,201.85,596.47,Single-ply,SBD,M
Boys,99.79,4,Noe Alonzo,PSJA Memorial,99.06,226.8,136.08,226.8,589.67,Single-ply,SBD,M
Boys,99.79,5,Jerry DeCanini,Weslaco East,94.08,217.72,129.27,222.26,569.26,Single-ply,SBD,M
Boys,99.79,6,Joe de la Cruz,Rio Grande City Grulla,99.06,226.8,136.08,195.04,557.92,Single-ply,SBD,M
Boys,99.79,7,Jesús Torres,Weslaco,94.98,199.58,129.27,215.46,544.31,Single-ply,SBD,M
Boys,99.79,8,Victor Tamez,PSJA,95.53,181.44,127.01,158.76,467.2,Single-ply,SBD,M
Boys,99.79,9,Armando Chavero,Rio Grande City,97.98,174.63,117.93,170.1,462.66,Single-ply,SBD,M
Boys,99.79,10,Mattias Bazan,Rio Grande City Grulla,98.7,165.56,124.74,170.1,460.4,Single-ply,SBD,M
Boys,99.79,11,Fren Franco,Mission Veterans Memorial,99.79,158.76,120.2,181.44,460.4,Single-ply,SBD,M
Boys,99.79,12,Jessy Valdez,PSJA,90.63,172.37,106.59,158.76,437.72,Single-ply,SBD,M
Boys,99.79,13,Jose de la Rosa,PSJA North,91.99,158.76,108.86,156.49,424.11,Single-ply,SBD,M
Boys,99.79,14,Danny Munguia,Mission Veterans Memorial,92.26,138.35,129.27,156.49,424.11,Single-ply,SBD,M
Boys,99.79,15,Noey Leal,Rio Grande City,99.79,145.15,92.99,154.22,392.36,Single-ply,SBD,M
Boys,109.77,1,Jesus Martinez,Weslaco East,105.05,226.8,154.22,247.21,628.23,Single-ply,SBD,M
Boys,109.77,2,Orlando Nieto,PSJA Memorial,108.23,222.26,140.61,226.8,589.67,Single-ply,SBD,M
Boys,109.77,3,Augustus Hernandez,PSJA North,107.77,199.58,133.81,217.72,551.11,Single-ply,SBD,M
Boys,109.77,4,Eddie Favata,PSJA North,102.51,197.31,142.88,188.24,528.44,Single-ply,SBD,M
Boys,109.77,5,John Alaniz,La Joya Palmview,100.97,188.24,127.01,183.7,498.95,Single-ply,SBD,M
Boys,109.77,6,Jon Vasquez,PSJA Southwest,105.69,199.58,111.13,183.7,494.42,Single-ply,SBD,M
Boys,109.77,7,Chris Peralez,PSJA Memorial,106.5,185.97,113.4,176.9,476.27,Single-ply,SBD,M
Boys,109.77,8,Christian Ozuna,La Joya Juarez-Lincoln,108.68,181.44,106.59,174.63,462.66,Single-ply,SBD,M
Boys,109.77,DQ,Fernando Gonzalez,La Joya Palmview,105.6,188.24,127.01,,,Single-ply,SBD,M
Boys,109.77,DQ,Kevin Trevino,PSJA North,107.32,,,,,Single-ply,SBD,M
Boys,124.74,1,Nazario Garza,Rio Grande City Grulla,121.11,199.58,142.88,210.92,553.38,Single-ply,SBD,M
Boys,124.74,2,Rene Perez,Weslaco,121.38,208.65,138.35,181.44,528.44,Single-ply,SBD,M
Boys,124.74,3,Edgar Rodriguez,Rio Grande City,122.47,213.19,115.67,183.7,512.56,Single-ply,SBD,M
Boys,124.74,4,Cristian Lopez,PSJA North,114.31,183.7,120.2,161.03,464.93,Single-ply,SBD,M
Boys,124.74,5,Dillion Mcguffin,Rio Grande City,124.74,167.83,113.4,172.37,453.59,Single-ply,SBD,M
Boys,124.74,6,Albert Garcia,Mission Veterans Memorial,114.4,133.81,142.88,165.56,442.25,Single-ply,SBD,M
Boys,124.74+,1,Sergio Morales,Weslaco East,150.55,251.74,174.63,256.28,682.66,Single-ply,SBD,M
Boys,124.74+,2,Rolando Suarez,PSJA,149.05,226.8,151.95,204.12,582.87,Single-ply,SBD,M
Boys,124.74+,3,Ray Guajardo,PSJA,160.39,226.8,158.76,181.44,566.99,Single-ply,SBD,M
Boys,124.74+,4,Daniel Solis,La Joya,135.99,149.69,102.06,176.9,428.64,Single-ply,SBD,M
Boys,124.74+,DQ,Zeke Garza,La Joya,135.99,258.55,156.49,,,Single-ply,SBD,M
Boys,124.74+,DQ,Carlos Alvarez,La Joya Palmview,150.05,183.7,,,,Single-ply,SBD,M
