Division,WeightClassKg,Place,Name,Team,BodyweightKg,Best3SquatKg,Best3BenchKg,Best3DeadliftKg,TotalKg,Equipment,Event,Sex
Girls,44.23,1,Ashley Martinez,Edinburg Idea College Prep,43.82,129.27,52.16,133.81,315.25,Single-ply,SBD,F
Girls,44.23,2,Adriana Villafuerte,Edinburg Idea College Prep,43.54,117.93,43.09,113.4,274.42,Single-ply,SBD,F
Girls,44.23,3,Nadia Rodriguez,Hidalgo Early College,44,92.99,47.63,104.33,244.94,Single-ply,SBD,F
Girls,44.23,4,Jacqueline Pena,Edinburg Idea College Prep,43.54,102.06,34.02,97.52,233.6,Single-ply,SBD,F
Girls,44.23,5,Valery Cano,Edinburg Idea College Prep,42.64,99.79,31.75,97.52,229.06,Single-ply,SBD,F
Girls,44.23,6,Erika Diaz,La Joya Palmview,42.73,86.18,40.82,86.18,213.19,Single-ply,SBD,F
Girls,44.23,7,Alexis Gomez #3,Edinburg Quest College Prep,43.54,56.7,24.95,74.84,156.49,Single-ply,SBD,F
Girls,44.23,8,Jackie Cerda,Rio Grande City Grulla,43.54,61.23,24.95,70.31,156.49,Single-ply,SBD,F
Girls,44.23,DQ,Syann Hernandez,Weslaco East,39.73,79.38,24.95,,,Single-ply,SBD,F
Girls,47.85,1,Dulce Ibanez,Edcouch-Elsa,47.54,113.4,47.63,120.2,281.23,Single-ply,SBD,F
Girls,47.85,2,Mia Munoz,McAllen Memorial,47.17,102.06,65.77,104.33,272.16,Single-ply,SBD,F
Girls,47.85,3,Sabrina Espinoza,McAllen,46.72,106.59,52.16,111.13,269.89,Single-ply,SBD,F
Girls,47.85,4,Michelle Rodriguez,La Joya Palmview,45.63,95.25,54.43,102.06,251.74,Single-ply,SBD,F
Girls,47.85,5,Amaya Rodriguez,Weslaco,45.9,83.91,54.43,111.13,249.48,Single-ply,SBD,F
Girls,47.85,6,Karla Lopez,Sharyland Pioneer,46.27,92.99,49.9,104.33,247.21,Single-ply,SBD,F
Girls,47.85,7,Victoria Plata,McAllen,47.72,97.52,40.82,102.06,240.4,Single-ply,SBD,F
Girls,47.85,8,Baylee Garza,McAllen Rowe,47.63,72.57,38.56,102.06,213.19,Single-ply,SBD,F
Girls,47.85,9,Jaylie Contreras,Edcouch-Elsa,46.72,81.65,36.29,83.91,201.85,Single-ply,SBD,F
Girls,47.85,10,Victoria Carrion,Rio Grande City Grulla,47.63,77.11,29.48,79.38,185.97,Single-ply,SBD,F
Girls,47.85,11,Adriana Garza,Sharyland Pioneer,45.54,70.31,38.56,72.57,181.44,Single-ply,SBD,F
Girls,47.85,12,Yulissa Resendez,Rio Grande City,46.72,70.31,34.02,70.31,174.63,Single-ply,SBD,F
Girls,47.85,13,Jazmin Trevino,Rio Grande City Grulla,46.54,56.7,27.22,74.84,158.76,Single-ply,SBD,F
Girls,47.85,DQ,Ariel Rendon,PSJA,47.63,,,,,Single-ply,SBD,F
Girls,47.85,DQ,Ashley Longoria,PSJA,44.45,68.04,,,,Single-ply,SBD,F
Girls,47.85,DQ,Natalia Villarreal,Edinburg Vela,46.99,74.84,,,,Single-ply,SBD,F
Girls,47.85,DQ,Laisha Lopez,La Joya Palmview,47.63,145.15,74.84,,,Single-ply,SBD,F
Girls,51.94,1,Priscilla Hernandez,La Joya Palmview,51.71,138.35,65.77,140.61,344.73,Single-ply,SBD,F
Girls,51.94,2,Amanda Rodriguez #3,Mission Sharyland,50.35,136.08,56.7,140.61,333.39,Single-ply,SBD,F
Girls,51.94,3,Daisy Hernandez,Weslaco,50.89,117.93,56.7,131.54,306.17,Single-ply,SBD,F
Girls,51.94,4,Katarina Moseley,McAllen,51.26,124.74,56.7,122.47,303.91,Single-ply,SBD,F
Girls,51.94,5,Yanitza Vasquez,La Joya Juarez-Lincoln,49.44,113.4,47.63,129.27,290.3,Single-ply,SBD,F
Girls,51.94,6,Diamond Teran,Hidalgo Early College,48.99,120.2,56.7,111.13,288.03,Single-ply,SBD,F
Girls,51.94,7,Daniela Echavarria,McAllen,51.07,111.13,52.16,124.74,288.03,Single-ply,SBD,F
Girls,51.94,8,Jennifer Prado,McAllen Memorial,51.71,111.13,58.97,102.06,272.16,Single-ply,SBD,F
Girls,51.94,9,Leah Juarez,Edcouch-Elsa,51.26,113.4,47.63,106.59,267.62,Single-ply,SBD,F
Girls,51.94,10,Valerie Romero,Weslaco East,49.44,92.99,47.63,104.33,244.94,Single-ply,SBD,F
Girls,51.94,11,Gianna Rivas,Weslaco,51.71,83.91,56.7,97.52,238.14,Single-ply,SBD,F
Girls,51.94,12,Lyndsey Horta,Weslaco East,49.99,83.91,47.63,90.72,222.26,Single-ply,SBD,F
Girls,51.94,13,DeAndra Canales,Rio Grande City,49.44,65.77,31.75,90.72,188.24,Single-ply,SBD,F
Girls,51.94,DQ,Nataly Navarrete,PSJA,51.26,,,,,Single-ply,SBD,F
Girls,51.94,DQ,Evelyn Hernandez,Weslaco East,50.58,,,,,Single-ply,SBD,F
Girls,51.94,DQ,Ashley Tijerina,Mission Sharyland,51.17,138.35,,,,Single-ply,SBD,F
Girls,51.94,DQ,Camila Veliz,Mission Sharyland,50.35,122.47,,,,Single-ply,SBD,F
Girls,51.94,DQ,Onaitza Moralles,Edinburg Vela,48.99,74.84,,,,Single-ply,SBD,F
Girls,51.94,DQ,Kayla Anya,Edinburg Vela,49.08,79.38,54.43,,,Single-ply,SBD,F
Girls,51.94,DQ,Amber Trevino,Edinburg Quest College Prep,49.9,,,,,Single-ply,SBD,F
Girls,51.94,DQ,Emily Olivarez,Edinburg Quest College Prep,51.71,54.43,,,,Single-ply,SBD,F
Girls,56.02,1,Cristy Gonzalez,Edinburg Idea College Prep,55.34,129.27,70.31,131.54,331.12,Single-ply,SBD,F
Girls,56.02,2,Esmer Cruz,Edcouch-Elsa,55.34,131.54,54.43,122.47,308.44,Single-ply,SBD,F
Girls,56.02,3,AnaLuz Velasquez,Rio Grande City Grulla,54.25,113.4,38.56,122.47,274.42,Single-ply,SBD,F
Girls,56.02,4,Brianna Anzaldua,Sharyland Pioneer,54.88,113.4,38.56,111.13,263.08,Single-ply,SBD,F
Girls,56.02,5,Sheyla Cantu,La Joya Juarez-Lincoln,55.34,90.72,54.43,111.13,256.28,Single-ply,SBD,F
Girls,56.02,6,Alyzza Ortiz,Edinburg Quest College Prep,54.88,81.65,61.23,97.52,240.4,Single-ply,SBD,F
Girls,56.02,7,Kc Aguilera,Mission,52.98,99.79,43.09,95.25,238.14,Single-ply,SBD,F
Girls,56.02,8,Erika Miller,Mission Veterans Memorial,54.7,74.84,45.36,86.18,206.38,Single-ply,SBD,F
Girls,56.02,9,Kaylee Martinez,McAllen Rowe,54.88,74.84,27.22,81.65,183.7,Single-ply,SBD,F
Girls,56.02,DQ,Brianda Resendez,Mission Sharyland,54.88,149.69,74.84,,,Single-ply,SBD,F
Girls,60.1,1,Brianna Flores,Mission Veterans Memorial,60.1,142.88,72.57,147.42,362.87,Single-ply,SBD,F
Girls,60.1,2,Donna Mondragon,La Joya Palmview,56.25,138.35,63.5,133.81,335.66,Single-ply,SBD,F
Girls,60.1,3,Natalie Villalon,La Joya Palmview,56.25,133.81,65.77,133.81,333.39,Single-ply,SBD,F
Girls,60.1,4,Anna Vela,Mission Veterans Memorial,59.33,129.27,61.23,142.88,333.39,Single-ply,SBD,F
Girls,60.1,5,Kimberly Salas,Edinburg Vela,58.51,127.01,63.5,122.47,312.98,Single-ply,SBD,F
Girls,60.1,6,Sofia Longoria,Mission Veterans Memorial,60.06,120.2,47.63,133.81,301.64,Single-ply,SBD,F
Girls,60.1,7,Lorena Celedon,McAllen Rowe,57.15,113.4,65.77,117.93,297.1,Single-ply,SBD,F
Girls,60.1,8,Jasmine Cervantes,Weslaco East,58.06,111.13,47.63,115.67,274.42,Single-ply,SBD,F
Girls,60.1,9,Ruth Avila,Edinburg Quest College Prep,59.87,111.13,45.36,108.86,265.35,Single-ply,SBD,F
Girls,60.1,10,Lilliane Jackson,McAllen,58.33,83.91,58.97,106.59,249.48,Single-ply,SBD,F
Girls,60.1,11,Melanie Cobos,La Joya Palmview,58.88,97.52,43.09,104.33,244.94,Single-ply,SBD,F
Girls,60.1,12,Desirae Ary,Edinburg Vela,57.15,92.99,52.16,97.52,242.67,Single-ply,SBD,F
Girls,60.1,13,Ayisha Recio,PSJA,58.51,90.72,38.56,77.11,206.38,Single-ply,SBD,F
Girls,60.1,14,Aaliyah Aguirre,La Joya Juarez-Lincoln,59.78,70.31,34.02,79.38,183.7,Single-ply,SBD,F
Girls,60.1,15,Alyson Murillo,Mission,58.51,72.57,34.02,72.57,179.17,Single-ply,SBD,F
Girls,60.1,DQ,Valeria Guerra,Mission,59.6,,,,,Single-ply,SBD,F
Girls,60.1,DQ,Wendy Olivarez,Weslaco East,59.6,106.59,,,,Single-ply,SBD,F
Girls,60.1,DQ,Alissa Reyna,La Joya,57.15,117.93,,,,Single-ply,SBD,F
Girls,60.1,DQ,Jazmine Rendon,PSJA,59.87,,,,,Single-ply,SBD,F
Girls,60.1,DQ,Adamari Martinez,PSJA,57.52,,,,,Single-ply,SBD,F
Girls,67.36,1,Christina Ybarra,Sharyland Pioneer,63.73,149.69,72.57,149.69,371.95,Single-ply,SBD,F
Girls,67.36,2,Josie Munoz,Weslaco East,67.13,151.95,70.31,124.74,347,Single-ply,SBD,F
Girls,67.36,3,Martina Garcia,Weslaco,62.96,111.13,63.5,133.81,308.44,Single-ply,SBD,F
Girls,67.36,4,April Arellano,McAllen Memorial,66.77,122.47,56.7,129.27,308.44,Single-ply,SBD,F
Girls,67.36,5,Ennette Diaz,La Joya Palmview,64.05,113.4,58.97,106.59,278.96,Single-ply,SBD,F
Girls,67.36,6,Alyssa de la Garza,McAllen Rowe,60.69,108.86,56.7,108.86,274.42,Single-ply,SBD,F
Girls,67.36,7,Jordyn Torres,Weslaco,65.77,113.4,49.9,104.33,267.62,Single-ply,SBD,F
Girls,67.36,8,Hunter Pena,Rio Grande City,61.23,108.86,49.9,106.59,265.35,Single-ply,SBD,F
Girls,67.36,9,Monett Rodriguez,Sharyland Pioneer,66.68,104.33,52.16,90.72,247.21,Single-ply,SBD,F
Girls,67.36,10,Emma Alvarado,Edinburg Vela,67.13,79.38,61.23,106.59,247.21,Single-ply,SBD,F
Girls,67.36,11,Stephany Montecinos,Edinburg Quest College Prep,63.5,86.18,54.43,83.91,224.53,Single-ply,SBD,F
Girls,67.36,12,Alexia Rosas,La Joya Juarez-Lincoln,64.41,83.91,40.82,90.72,215.46,Single-ply,SBD,F
Girls,67.36,13,Bianca Rosales,Mission,60.6,90.72,29.48,92.99,213.19,Single-ply,SBD,F
Girls,67.36,14,Megan Landeros,McAllen Rowe,62.6,83.91,38.56,88.45,210.92,Single-ply,SBD,F
Girls,67.36,15,Mikayla Trevino,Mission,66.04,92.99,38.56,74.84,206.38,Single-ply,SBD,F
Girls,67.36,16,Victoria Rodriguez,McAllen,63.96,79.38,36.29,81.65,197.31,Single-ply,SBD,F
Girls,67.36,17,Bryanna Lopez,Rio Grande City Grulla,65.32,77.11,31.75,86.18,195.04,Single-ply,SBD,F
Girls,67.36,18,Briana Mireles,Rio Grande City,60.87,68.04,43.09,74.84,185.97,Single-ply,SBD,F
Girls,67.36,19,Anastasia Garcia,La Joya,64.41,58.97,36.29,90.72,185.97,Single-ply,SBD,F
Girls,67.36,20,Zoe Morales,Mission,67.13,61.23,34.02,90.72,185.97,Single-ply,SBD,F
Girls,67.36,21,Evelyn Delgado,PSJA,60.78,70.31,36.29,70.31,176.9,Single-ply,SBD,F
Girls,67.36,22,Destiny Chavez,La Joya,64.41,63.5,40.82,72.57,176.9,Single-ply,SBD,F
Girls,67.36,DQ,Mia Murphy,McAllen Rowe,67.04,113.4,,,,Single-ply,SBD,F
Girls,67.36,DQ,Angela Elvira,PSJA,66.77,,,,,Single-ply,SBD,F
Girls,75.07,1,Nehemiah Coronado,La Joya,73.03,163.29,77.11,147.42,387.82,Single-ply,SBD,F
Girls,75.07,2,Carolina Constantino,Mission Sharyland,68.49,165.56,70.31,127.01,362.87,Single-ply,SBD,F
Girls,75.07,3,Alyssa Moreno,McAllen Memorial,73.39,147.42,72.57,129.27,349.27,Single-ply,SBD,F
Girls,75.07,4,Edie Montalvo,Weslaco,70.94,156.49,58.97,122.47,337.93,Single-ply,SBD,F
Girls,75.07,5,Gabby Mercado,Mission Sharyland,71.21,115.67,68.04,124.74,308.44,Single-ply,SBD,F
Girls,75.07,6,Kayla Leal,La Joya,73.48,117.93,54.43,131.54,303.91,Single-ply,SBD,F
Girls,75.07,7,Valerie Cordova,Mission Veterans Memorial,72.44,115.67,63.5,122.47,301.64,Single-ply,SBD,F
Girls,75.07,8,Araylie Garza,Edcouch-Elsa,74.39,127.01,56.7,113.4,297.1,Single-ply,SBD,F
Girls,75.07,9,Amanda De Luna,Edinburg Vela,74.84,115.67,68.04,111.13,294.84,Single-ply,SBD,F
Girls,75.07,10,Briana Rodriguez,Edinburg Vela,74.66,129.27,56.7,106.59,292.57,Single-ply,SBD,F
Girls,75.07,11,Bianca Cardenas,Weslaco,69.4,108.86,52.16,117.93,278.96,Single-ply,SBD,F
Girls,75.07,12,Destiny Lopez #1,Weslaco East,68.4,108.86,52.16,106.59,267.62,Single-ply,SBD,F
Girls,75.07,13,Sindy Garcia,Edinburg Idea College Prep,72.94,122.47,43.09,97.52,263.08,Single-ply,SBD,F
Girls,75.07,14,Vianca Cruz,Edinburg Vela,72.12,90.72,61.23,102.06,254.01,Single-ply,SBD,F
Girls,75.07,15,Deserey Segovia,La Joya Juarez-Lincoln,69.85,88.45,47.63,102.06,238.14,Single-ply,SBD,F
Girls,75.07,16,Taylor Garcia #1,McAllen,73.39,92.99,38.56,90.72,222.26,Single-ply,SBD,F
Girls,75.07,17,Brenda Morales,McAllen Rowe,69.4,70.31,36.29,74.84,181.44,Single-ply,SBD,F
Girls,75.07,18,Anessa Ledesma,Mission,70.13,52.16,27.22,61.23,140.61,Single-ply,SBD,F
Girls,82.33,1,Brandy Valdez,Weslaco,76.66,170.1,79.38,163.29,412.77,Single-ply,SBD,F
Girls,82.33,2,Alyssa Juarez,Weslaco East,80.56,170.1,79.38,156.49,405.97,Single-ply,SBD,F
Girls,82.33,3,Mack Contreras,Edcouch-Elsa,77.11,156.49,72.57,151.95,381.02,Single-ply,SBD,F
Girls,82.33,4,Keyla Puente,La Joya,79.83,147.42,74.84,138.35,360.61,Single-ply,SBD,F
Girls,82.33,5,Natalie Monjaras,Weslaco,80.29,122.47,95.25,122.47,340.19,Single-ply,SBD,F
Girls,82.33,6,Kathy Bazan,La Joya Palmview,78.93,129.27,79.38,124.74,333.39,Single-ply,SBD,F
Girls,82.33,7,Jeweliana Rosas,La Joya Juarez-Lincoln,75.75,120.2,56.7,129.27,306.17,Single-ply,SBD,F
Girls,82.33,8,Samantha Walter,Mission Veterans Memorial,76.25,108.86,74.84,115.67,299.37,Single-ply,SBD,F
Girls,82.33,9,Monique Garza,McAllen,78.02,129.27,65.77,97.52,292.57,Single-ply,SBD,F
Girls,82.33,10,Paola Ibarra,Rio Grande City Grulla,78.93,117.93,54.43,104.33,276.69,Single-ply,SBD,F
Girls,82.33,11,Wendy Portillo,La Joya Juarez-Lincoln,80.74,113.4,61.23,97.52,272.16,Single-ply,SBD,F
Girls,82.33,12,Mildred Lugo,Edcouch-Elsa,81.65,104.33,54.43,106.59,265.35,Single-ply,SBD,F
Girls,82.33,13,Sydney Reyes,McAllen,81.92,113.4,52.16,95.25,260.82,Single-ply,SBD,F
Girls,82.33,14,Sasha Garcia,Edinburg Quest College Prep,76.66,90.72,47.63,113.4,251.74,Single-ply,SBD,F
Girls,82.33,15,Abigail Garza,Mission,76.48,97.52,38.56,92.99,229.06,Single-ply,SBD,F
Girls,82.33,16,Brianna Lozano,Edinburg Quest College Prep,81.19,83.91,43.09,102.06,229.06,Single-ply,SBD,F
Girls,82.33,DQ,Sophia Handy,McAllen,81.65,,,,,Single-ply,SBD,F
Girls,82.33,DQ,Jessica Ruiz,Edcouch-Elsa,78.02,108.86,,,,Single-ply,SBD,F
Girls,82.33,DQ,Katrina Mendez,Mission Sharyland,79.38,,,,,Single-ply,SBD,F
Girls,82.33,DQ,Larissa Perez,McAllen Rowe,82.33,,,,,Single-ply,SBD,F
Girls,82.33,DQ,Leticia Flores,PSJA,77.56,,,,,Single-ply,SBD,F
Girls,90.04,1,Angela Rendon,Hidalgo Early College,85.28,192.78,74.84,147.42,415.04,Single-ply,SBD,F
Girls,90.04,2,Priscilla Garza,Edinburg Idea College Prep,86.45,167.83,88.45,142.88,399.16,Single-ply,SBD,F
Girls,90.04,3,Alyssa Garza,Mission,88,165.56,68.04,129.27,362.87,Single-ply,SBD,F
Girls,90.04,4,Ashley Garza,Rio Grande City,85.73,140.61,63.5,131.54,335.66,Single-ply,SBD,F
Girls,90.04,5,Alexandra Hall,Edinburg Quest College Prep,89.81,127.01,79.38,113.4,319.78,Single-ply,SBD,F
Girls,90.04,6,Naylie Chavez,La Joya Juarez-Lincoln,87.09,136.08,65.77,102.06,303.91,Single-ply,SBD,F
Girls,90.04,7,Kimberly Guerra,PSJA,89.36,74.84,38.56,99.79,213.19,Single-ply,SBD,F
Girls,100.02,1,Carolina De Leon,Weslaco East,99.79,195.04,88.45,163.29,446.79,Single-ply,SBD,F
Girls,100.02,2,Sydney Sanchez,Weslaco,96.07,158.76,77.11,147.42,383.29,Single-ply,SBD,F
Girls,100.02,3,Victoria Pena,Edcouch-Elsa,92.53,136.08,63.5,113.4,312.98,Single-ply,SBD,F
Girls,100.02,4,Brisa Barrientos,La Joya,95.25,111.13,54.43,120.2,285.76,Single-ply,SBD,F
Girls,100.02,5,Michaela Gomez,McAllen,92.44,113.4,58.97,106.59,278.96,Single-ply,SBD,F
Girls,100.02,6,Xochilth Garza,Mission,100.02,104.33,45.36,120.2,269.89,Single-ply,SBD,F
Girls,100.02,DQ,Maria Bentancourt,Edinburg Quest College Prep,92.53,,,,,Single-ply,SBD,F
Girls,117.71,1,Monika Morales,Edinburg Idea College Prep,115.67,183.7,92.99,158.76,435.45,Single-ply,SBD,F
Girls,117.71,2,Emily Martinez,Hidalgo Early College,102.97,183.7,65.77,138.35,387.82,Single-ply,SBD,F
Girls,117.71,3,Melanie Morales,Edinburg Idea College Prep,107.68,170.1,77.11,129.27,376.48,Single-ply,SBD,F
Girls,117.71,4,Leah Cantu,McAllen Memorial,102.97,127.01,61.23,122.47,310.71,Single-ply,SBD,F
Girls,117.71,5,Nadia Trevino,Mission Veterans Memorial,106.82,92.99,52.16,113.4,258.55,Single-ply,SBD,F
Girls,117.71,6,Briana Gonzalez,Edinburg Vela,105.32,90.72,61.23,104.33,256.28,Single-ply,SBD,F
Girls,117.71,7,Nicole Escatel,PSJA,107.05,88.45,,,88.45,Single-ply,S,F
Girls,117.71,DQ,Emma Leyva,PSJA,117.48,,,,,Single-ply,SBD,F
Girls,117.71,DQ,Jazzmine Barrera,Edcouch-Elsa,113.4,,,,,Single-ply,SBD,F
Girls,117.71,DQ,Justine Guerero,Edcouch-Elsa,102.97,197.31,,,,Single-ply,SBD,F
Girls,117.71,DQ,Sarahi Sanchez,PSJA,115.21,113.4,,,,Single-ply,SBD,F
Girls,117.71+,1,Alyssa Silva,Hidalgo Early College,151.5,190.51,99.79,156.49,446.79,Single-ply,SBD,F
Girls,117.71+,2,Sarah Handy,Weslaco,125.65,95.25,65.77,106.59,267.62,Single-ply,SBD,F
Girls,,NS,Allyson Guiterrez,McAllen Memorial,,,,,,Single-ply,SBD,F
Girls,,NS,Valeria Santiago,McAllen Memorial,,,,,,Single-ply,SBD,F
Girls,,NS,Katelyn Sema,McAllen,,,,,,Single-ply,SBD,F
Girls,,NS,Maria Magana,Mission,,,,,,Single-ply,SBD,F
Girls,,NS,Brandy Ortiz,Mission,,,,,,Single-ply,SBD,F
Girls,,NS,Sitlalik Chapa,La Joya,,,,,,Single-ply,SBD,F
Girls,,NS,Yaritza Lopez,La Joya,,,,,,Single-ply,SBD,F
Girls,,NS,Karla Salinas,Edinburg Vela,,,,,,Single-ply,SBD,F
