Sex,WeightClassKg,EntryDate,Name,BirthDate,Country,Bench1Kg,Bench2Kg,Bench3Kg,Best3BenchKg,Bench4Kg,TotalKg,BodyweightKg,Event,Equipment,Division,Place
M,49,2016-02-15,Nándor Tunkel,1988-04-08,Hungary,145,152,155,155,,155,48.21,B,Raw,Open,2
M,49,2016-02-15,Abdullah Kayapinar,1992-10-02,Turkey,120,125,-130,125,,125,40.48,B,Raw,Open,6
M,49,2016-02-15,Ahmed Alkhayyat,1992-04-27,Bahrain,50,-55,-58,50,,50,32.63,B,Raw,Open,10
M,49,2016-02-15,Farman Basha,1974-03-25,India,-146,-146,-152,,,,46.36,B,Raw,Open,DQ
M,49,2016-02-15,Taha Adel Mohamed Abdelmajid,1987-06-08,Egypt,150,-155,-155,150,,150,48.08,B,Raw,Open,3
M,49,2016-02-15,Maysar Olaymi,1993-01-06,Saudi Arabia,80,-85,85,85,,85,42.52,B,Raw,Open,7
M,49,2016-02-15,Jean Elvis Yapo,1988-12-28,Ivory Coast,-95,-105,-105,,,,47.79,B,Raw,Open,DQ
M,49,2016-02-15,Ivan Arnautov,1986-03-12,Russia,137,140,-144,140,,140,48.67,B,Raw,Open,4
M,49,2016-02-15,Khalid Yaqut,1995-11-25,Saudi Arabia,65,-70,-71,65,,65,45.54,B,Raw,Open,8
M,49,2016-02-15,Omar Sami Hamadeh Qarada,1981-03-01,Jordan,173,176,-179,176,,176,46.7,B,Raw,Open,1
M,49,2016-02-15,Hadj Ahmed Biour,1983-03-09,Algeria,138,-140,-141,138,,138,45.81,B,Raw,Open,5
M,49,2016-02-15,Hamad Alblooshi,1996-06-06,UAE,-50,50,55,55,,55,41.71,B,Raw,Open,9
M,54,2016-02-15,Sergii Khvalinskyi,1986-05-18,Ukraine,142,-150,-150,142,,142,52.78,B,Raw,Open,2
M,54,2016-02-15,Alidou Diamoutene,1977-09-20,Ivory Coast,-163,-165,-165,,,,53.71,B,Raw,Open,DQ
M,54,2016-02-15,Tetsuo Nishizaki,1977-04-26,Japan,128,-134,-134,128,,128,53.68,B,Raw,Open,3
M,54,2016-02-15,Hamad Al Hamamah,1995-04-09,Saudi Arabia,-70,-72,-72,,,,51.8,B,Raw,Open,DQ
M,54,2016-02-15,Esen Kaliev,1983-01-02,Kyrgyzstan,150,-157,-158,150,,150,53.9,B,Raw,Open,1
M,59,2016-02-16,Mohammad Tarbash,1984-06-09,Jordan,165,171,-173,171,,171,58.32,B,Raw,Open,2
M,59,2016-02-16,Nicolae Mironov,1995-12-27,Moldova,90,95,-100,95,,95,57.44,B,Raw,Open,6
M,59,2016-02-16,Narong Kasanun,1977-07-04,Thailand,160,170,-175,170,,170,58.46,B,Raw,Open,3
M,59,2016-02-16,Dylan Keith Sparks,1998-06-02,Canada,75,80,-85,80,,80,56.99,B,Raw,Open,7
M,59,2016-02-16,Juhani Kokko,1986-06-30,Finland,-140,-149,-149,,,,58.55,B,Raw,Open,DQ
M,59,2016-02-16,Mariusz Tomczyk,1971-05-10,Poland,166,170,-175,170,,170,58.88,B,Raw,Open,4
M,59,2016-02-16,Sherif Osman,1982-09-15,Egypt,190,200,210.5,210.5,,210.5,58.55,B,Raw,Open,1
M,59,2016-02-16,Ruslan Korchynskyi,1993-09-05,Ukraine,145,155,-161,155,,155,57.24,B,Raw,Open,5
M,65,2016-02-16,Ahmad Razm Azar,1992-03-02,Georgia,-175,-175,-175,,,,64.46,B,Raw,Open,DQ
M,65,2016-02-16,Ali Jawad,1989-01-12,UK,186,190,-192,190,,190,61.85,B,Raw,Open,4
M,65,2016-02-16,Phongsakon Chumchai,1975-07-14,Thailand,-155,155,160,160,,160,63.16,B,Raw,Open,8
M,65,2016-02-16,Aseel Alhawsawi,1997-05-18,Saudi Arabia,112,115,-117,115,,115,64.2,B,Raw,Open,12
M,65,2016-02-16,Shaban Yehia Ibrahim,1975-09-14,Egypt,187,192,194,194,,194,63.08,B,Raw,Open,1
M,65,2016-02-16,Hasan Al-Tameemi,1977-08-12,Iraq,173,-175,-175,173,,173,63.96,B,Raw,Open,5
M,65,2016-02-16,Adou Herve Ano,1983-05-30,Ivory Coast,153,156,160,160,,160,64.52,B,Raw,Open,9
M,65,2016-02-16,Abdollah Rahimina,1995-03-23,UAE,-56,60,66,66,,66,64.96,B,Raw,Open,13
M,65,2016-02-16,Grzegorz Lanzer,1986-04-27,Poland,-170,-170,-170,,,,60.19,B,Raw,Open,DQ
M,65,2016-02-16,Hocine Bettir,1990-08-02,Algeria,190,192,194,194,,194,64.61,B,Raw,Open,2
M,65,2016-02-16,Aleksandr Diukin,1985-07-12,Russia,165,170,-175,170,,170,61.28,B,Raw,Open,6
M,65,2016-02-16,Younes Herradi,1968-10-30,Morocco,147,152,157,157,,157,63.29,B,Raw,Open,10
M,65,2016-02-16,Mansoor Almansoori,1998-08-19,UAE,60,65,-70,65,,65,64.68,B,Raw,Open,14
M,65,2016-02-16,Marek Trykacz,1985-10-06,Poland,-179,-179,-179,,,,64.09,B,Raw,Open,DQ
M,65,2016-02-16,Hamzeh Mohammadi,1978-04-13,Iran,-187,187,193,193,,193,64.84,B,Raw,Open,3
M,65,2016-02-16,Shadi Issa,1986-06-04,Syria,165,-171,-174,165,,165,64.22,B,Raw,Open,7
M,65,2016-02-16,Takashi Jo,1960-01-27,Japan,125,-132,-139,125,,125,64.37,B,Raw,Open,11
M,72,2016-02-17,Mohamed Sobhy Shaaban Elelfat,1979-06-25,Egypt,210,215,-218,215,,215,71.49,B,Raw,Open,2
M,72,2016-02-17,Thongsa Marasri,1975-01-30,Thailand,180,186,-191,186,,186,71.35,B,Raw,Open,6
M,72,2016-02-17,Abdulaziz Suhlul,1992-05-18,Saudi Arabia,95,100,110,110,,110,69.35,B,Raw,Open,10
M,72,2016-02-17,Abdelkareem Mohmmad Ahmad Khattab,1991-09-04,Jordan,210,-215,-216,210,,210,71.51,B,Raw,Open,3
M,72,2016-02-17,Rakhmetzhan Khamayev,1986-11-25,Kazakhstan,157,-165,-165,157,,157,71.36,B,Raw,Open,7
M,72,2016-02-17,Yoshiki Sano,1968-09-06,Japan,85,101,-125,101,,101,69.58,B,Raw,Open,11
M,72,2016-02-17,Sergey Sychev #1,1978-07-18,Russia,204,-210,-211,204,,204,71.81,B,Raw,Open,4
M,72,2016-02-17,Denis Raiul,1992-01-12,Moldova,125,-132,133,133,,133,71.7,B,Raw,Open,8
M,72,2016-02-17,Rasool Mohsin,1987-11-17,Iraq,-207,207,218,218,-225.5,218,71.65,B,Raw,Open,1
M,72,2016-02-17,Sergey Meladze,1980-04-01,Turkmenistan,186,-191,192,192,,192,71.63,B,Raw,Open,5
M,72,2016-02-17,Hasan Alderazi,1976-11-16,Bahrain,125,-130,-132,125,,125,71.81,B,Raw,Open,9
M,80,2016-02-17,Patrique Dankers,1976-11-06,Netherlands,-181,-181,,,,,79.91,B,Raw,Open,DQ
M,80,2016-02-17,Michael Yule,1978-12-24,UK,185,-190,-190,185,,185,72.07,B,Raw,Open,4
M,80,2016-02-17,Karen Abramyants,1977-08-09,Russia,-184,184,-187,184,,184,79.44,B,Raw,Open,8
M,80,2016-02-17,Salam Al-Shakkakee,1980-08-04,Iraq,170,-174,174,174,,174,77.14,B,Raw,Open,12
M,80,2016-02-17,Adel Shanbih,1989-12-13,UAE,156,-160,160,160,,160,78.14,B,Raw,Open,16
M,80,2016-02-17,Jack Peter Colbert,1997-07-28,Ireland,106,-108,108,108,,108,77.82,B,Raw,Open,20
M,80,2016-02-17,Majid Farzin,1984-04-29,Iran,225,231,236.5,236.5,,236.5,77.18,B,Raw,Open,1
M,80,2016-02-17,Akhror Bozorov,1994-08-07,Uzbekistan,185,-194,-194,185,,185,77.03,B,Raw,Open,5
M,80,2016-02-17,Piotr Stanislaw Szymeczek,1974-05-08,Poland,183,-188,-188,183,,183,77.86,B,Raw,Open,9
M,80,2016-02-17,Harri Kauppila,1979-03-31,Finland,157,167,-172,167,,167,79.54,B,Raw,Open,13
M,80,2016-02-17,Khalid Gul Al Bulushi,1974-11-06,Oman,148,-154,154,154,,154,79.12,B,Raw,Open,17
M,80,2016-02-17,Khalil Ibrahim Ali Salem,1980-12-30,UAE,97,-103,-104,97,,97,75.92,B,Raw,Open,21
M,80,2016-02-17,Julien Avom Mbume,1995-08-02,France,-165,-165,-165,,,,77.15,B,Raw,Open,DQ
M,80,2016-02-17,Jainer Rafael Cantillo Guette,1975-01-29,Colombia,200,-206,-206,200,,200,72.71,B,Raw,Open,2
M,80,2016-02-17,Stefan Rosca,1990-08-06,Moldova,180,185,-190,185,,185,79.3,B,Raw,Open,6
M,80,2016-02-17,Kampa Pongtao,1977-11-02,Thailand,170,176,181,181,,181,72.56,B,Raw,Open,10
M,80,2016-02-17,Nodarzhan Khamrullayev,1970-10-18,Kazakhstan,-162,162,166,166,,166,79.23,B,Raw,Open,14
M,80,2016-02-17,Christopher O'Connor,1977-11-17,Ireland,-125,125,-128,125,,125,79.44,B,Raw,Open,18
M,80,2016-02-17,Wawrzyniec Piotr Latus,1981-09-10,Poland,-187,-187,-187,,,,79.53,B,Raw,Open,DQ
M,80,2016-02-17,Izzettin Kanat,1975-03-03,Turkey,190,193,-200,193,,193,72.01,B,Raw,Open,3
M,80,2016-02-17,Hajime Ujiro,1973-01-28,Japan,184,-189,-189,184,,184,79.31,B,Raw,Open,7
M,80,2016-02-17,Alexander Belov,1991-05-17,Russia,180,-186,-186,180,,180,76.89,B,Raw,Open,11
M,80,2016-02-17,Charles Narh Teye,1977-06-15,Ghana,155,-160,161,161,,161,78.78,B,Raw,Open,15
M,80,2016-02-17,Davit Kobalia,1989-10-05,Georgia,125,-128,-128,125,,125,79.85,B,Raw,Open,19
M,80,2016-02-17,Metwaly Ibrahim Mathna,1974-11-30,Egypt,,,,,,,,B,Raw,Open,DQ
M,80,2016-02-17,Ricardo Roberto Fitzpatrick,1980-11-30,South Africa,,,,,,,,B,Raw,Open,DQ
M,88,2016-02-18,Seyed Hamed Solhipour Avanji,1989-05-22,Iran,224,228,232,232,-233.5,232,85.5,B,Raw,Open,1
M,88,2016-02-18,Magomed Dzhamalov,1994-10-10,Russia,183,192,-197,192,,192,86.5,B,Raw,Open,5
M,88,2016-02-18,Hideki Odo,1974-10-17,Japan,164,,,164,,164,82.18,B,Raw,Open,9
M,88,2016-02-18,Abdul Latif Abdul Majeed Abdul Al Zadjali,1980-02-22,Oman,-107,107,-112,107,,107,87.08,B,Raw,Open,13
M,88,2016-02-18,Hany Abdelhady,1980-05-19,Egypt,222,227,231,231,233,231,87.26,B,Raw,Open,2
M,88,2016-02-18,Yurii Kupriianov,1982-08-28,Ukraine,-190,190,-195,190,,190,87.05,B,Raw,Open,6
M,88,2016-02-18,Janet Zhakiyen,1967-07-26,Kazakhstan,160,-165,-165,160,,160,85.25,B,Raw,Open,10
M,88,2016-02-18,Abdulla Alshawi,1993-11-01,Bahrain,50,55,-62,55,,55,82.9,B,Raw,Open,14
M,88,2016-02-18,Sodnompiljee Enkhbayar,1985-08-24,Mongolia,-210,-210,-223,,,,87.77,B,Raw,Open,DQ
M,88,2016-02-18,Mohammed Khamis Khalaf,1969-02-23,UAE,215,222,227,227,,227,86.19,B,Raw,Open,3
M,88,2016-02-18,Igor Shmorgun,1983-01-12,Russia,-186,-186,186,186,,186,86.64,B,Raw,Open,7
M,88,2016-02-18,Mu'taz Zakaria Daoud Al Juneidi,1976-04-02,Jordan,150,-160,,150,,150,87.29,B,Raw,Open,11
M,88,2016-02-18,Gunduz Ismayilov,1972-12-18,Azerbaijan,-201,-201,-201,,,,87.31,B,Raw,Open,DQ
M,88,2016-02-18,Francisco Tulio Palomeque Palacios,1967-10-19,Colombia,-193,197,-204,197,,197,80.56,B,Raw,Open,4
M,88,2016-02-18,Rafik Arabat,1990-12-04,France,-185,185,-191,185,,185,86.89,B,Raw,Open,8
M,88,2016-02-18,Badar Salim Saif Al Tamtami,1980-12-31,Oman,117,-122,-122,117,,117,84.41,B,Raw,Open,12
M,97,2016-02-18,Saman Razi,1986-03-24,Iran,-222,222,-224,222,,222,95.04,B,Raw,Open,2
M,97,2016-02-18,Mateusz Woroszyl,1982-03-05,Poland,195,205,-213,205,,205,94.12,B,Raw,Open,6
M,97,2016-02-18,Saleh Alqahtani,1999-01-14,Saudi Arabia,55,60,65,65,,65,93.04,B,Raw,Open,10
M,97,2016-02-18,Anton Kryukov,1988-07-25,Ukraine,205,217,221,221,,221,96.51,B,Raw,Open,3
M,97,2016-02-18,Bayramgeldi Saparov,1972-11-18,Turkmenistan,180,185,190,190,,190,95.42,B,Raw,Open,7
M,97,2016-02-18,Sergey Romanov,1963-01-15,Kazakhstan,-160,,,,,,93.65,B,Raw,Open,DQ
M,97,2016-02-18,Petar Milenković,1984-10-25,Serbia,200,217,-222,217,,217,92.77,B,Raw,Open,4
M,97,2016-02-18,Akaki Jintcharadze,1987-07-19,Georgia,-150,150,-155,150,,150,95.46,B,Raw,Open,8
M,97,2016-02-18,Mohamed Mamdouh Aly Eldib,1979-01-07,Egypt,235,240,243,243,-251,243,95.4,B,Raw,Open,1
M,97,2016-02-18,Fabio Torres Silva,1976-05-07,Colombia,212,-217,-225,212,,212,95.71,B,Raw,Open,5
M,97,2016-02-18,Saeed Hawsawi,1991-02-21,Saudi Arabia,70,80,90,90,,90,90.34,B,Raw,Open,9
M,107,2016-02-19,Ali Sadeghzadeh Salmani,1978-11-30,Iran,215,226,-230,226,,226,104.78,B,Raw,Open,2
M,107,2016-02-19,Aleksei Golovan,1978-07-31,Russia,188,197,-201,197,,197,103.83,B,Raw,Open,6
M,107,2016-02-19,Zhyrgalbek Orosbaev,1993-07-19,Kyrgyzstan,197,201,202,202,,202,105.88,B,Raw,Open,3
M,107,2016-02-19,Abdalla Alnaqbi,1991-07-01,UAE,180,-186,-187,180,,180,101.8,B,Raw,Open,7
M,107,2016-02-19,Elshan Huseynov,1977-11-21,Azerbaijan,,,,,,,104.38,B,Raw,Open,DQ
M,107,2016-02-19,Haidarah Abdallah Hasan Alkawamleh,1979-08-16,Jordan,200,-207,-207,200,,200,105.19,B,Raw,Open,4
M,107,2016-02-19,Mohamed Elsayed Mohamed Ahmed,1982-01-18,Egypt,220,227,-235,227,,227,100.06,B,Raw,Open,1
M,107,2016-02-19,Mansour Pourmirzaei,1980-09-21,Iran,190,198,-202,198,,198,106.99,B,Raw,Open,5
M,107,2016-02-19,Davlatov Nuriddin,1989-02-19,Uzbekistan,-197,-197,-197,,,,104.97,B,Raw,Open,DQ
M,107,2016-02-19,Igor Smirnov,1989-07-24,Russia,,,,,,,,B,Raw,Open,DQ
M,107,2016-02-19,Mikhailo Melnykov,1978-03-03,Ukraine,,,,,,,,B,Raw,Open,DQ
M,107+,2016-02-19,Amr Mosaad,1992-04-22,Egypt,217,-224,226,226,,226,129.26,B,Raw,Open,2
M,107+,2016-02-19,Sandor Sas,1981-02-09,Hungary,-200,200,-221,200,,200,114.94,B,Raw,Open,6
M,107+,2016-02-19,Jamil Saleh Elshebli,1979-04-09,Jordan,220,-225,-225,220,,220,114,B,Raw,Open,3
M,107+,2016-02-19,Mashal Alkhazai,1979-11-30,Saudi Arabia,-175,-180,180,180,,180,132.05,B,Raw,Open,7
M,107+,2016-02-19,Hazar Ahmed,1991-09-23,Iraq,-205,-208,-208,,,,147.84,B,Raw,Open,DQ
M,107+,2016-02-19,Maharram Aliyev,1964-01-15,Azerbaijan,-207,-207,207,207,,207,150.62,B,Raw,Open,4
M,107+,2016-02-19,Marek Kamzik,1974-09-13,Slovakia,170,-180,-180,170,,170,118.95,B,Raw,Open,8
M,107+,2016-02-19,Siamand Rahman,1988-03-21,Iran,275,286,296,296,,296,187.87,B,Raw,Open,1
M,107+,2016-02-19,Ahmed Khamis Albaloushi,1974-12-01,UAE,202,-206,206,206,,206,116.95,B,Raw,Open,5
M,107+,2016-02-19,Csaba Szavai,1957-12-21,Hungary,-155,-155,155,155,,155,119.52,B,Raw,Open,9
M,107+,2016-02-19,Mohammed Alduwayh,1984-07-23,Kazakhstan,,,,,,,,B,Raw,Open,DQ
F,41,2016-02-15,Nawal Ramadan,1992-04-08,Egypt,90,95,-98,95,,95,40.02,B,Raw,Open,1
F,41,2016-02-15,Tatiana Rudyak,1989-12-03,Russia,68,71,-74,71,,71,40.71,B,Raw,Open,5
F,41,2016-02-15,Maryna Kopiika,1991-01-12,Ukraine,83,86,88,88,,88,40.53,B,Raw,Open,2
F,41,2016-02-15,Roza Matyakubova,1993-09-04,Turkmenistan,65,70,-73,70,,70,39.17,B,Raw,Open,6
F,41,2016-02-15,Yulia Vorontsova,1996-05-28,Russia,76,-81,81,81,,81,38.35,B,Raw,Open,3
F,41,2016-02-15,Noura Baddour,1984-11-13,Syria,81,-86,-86,81,,81,38.91,B,Raw,Open,4
F,45,2016-02-15,Rayisa Toporkova,1986-02-18,Ukraine,87,90,91,91,,91,44.51,B,Raw,Open,2
F,45,2016-02-15,Sakina Khatun,1989-06-20,India,84,-88,-88,84,,84,44.33,B,Raw,Open,6
F,45,2016-02-15,Akissi Michelle Kouadio,1979-08-01,Ivory Coast,-70,72,-75,72,,72,44.34,B,Raw,Open,10
F,45,2016-02-15,Marina Beketova,1985-01-31,Russia,85,88,90,90,,90,44.12,B,Raw,Open,3
F,45,2016-02-15,Zeinab Oteify,1978-08-08,Egypt,80,,,80,,80,44.16,B,Raw,Open,7
F,45,2016-02-15,Kabira Askarova,1976-09-29,Kazakhstan,-75,-75,-77,,,,44.94,B,Raw,Open,DQ
F,45,2016-02-15,Besra Duman,2001-01-10,Turkey,90,-93,-93,90,,90,45,B,Raw,Open,4
F,45,2016-02-15,Larisa Berieva,1982-10-18,Russia,77,-81,-81,77,,77,44.04,B,Raw,Open,8
F,45,2016-02-15,Justyna Kozdryk,1980-03-04,Poland,92,96,-97,96,,96,44.01,B,Raw,Open,1
F,45,2016-02-15,Samira Guerioua,1984-03-13,Algeria,87,-89,-89,87,,87,43.9,B,Raw,Open,5
F,45,2016-02-15,Achelle Guion,1971-12-29,Philippines,65,72,75,75,,75,43.34,B,Raw,Open,9
F,50,2016-02-16,Ruza Kuzieva,1994-03-12,Uzbekistan,91,-95,95,95,,95,49.65,B,Raw,Open,3
F,50,2016-02-16,Natela Gamidova,1977-09-02,Georgia,-40,-42,-42,,,,48.06,B,Raw,Open,DQ
F,50,2016-02-16,Wandi Kongmuang,1967-05-05,Thailand,91,92,-96,92,,92,49.73,B,Raw,Open,4
F,50,2016-02-16,Rehab Ahmed,1991-03-02,Egypt,100,-105,107,107,,107,48.88,B,Raw,Open,1
F,50,2016-02-16,Gulbanu Abdykhalykova,1972-09-15,Kazakhstan,-80,-85,85,85,,85,49.14,B,Raw,Open,5
F,50,2016-02-16,Lidiya Solovyova,1978-01-21,Ukraine,100,105,-107,105,,105,48.72,B,Raw,Open,2
F,50,2016-02-16,Anastasiia Mamadamirova,1993-08-02,Russia,80,85,-92,85,,85,49.3,B,Raw,Open,6
F,50,2016-02-16,Katalin Mezei,1979-09-28,Hungary,,,,,,,,B,Raw,Open,DQ
F,55,2016-02-16,Mariana Shevchuk,1996-05-22,Ukraine,104,109,-112,109,-112,109,53.36,B,Raw,Open,1
F,55,2016-02-16,Sibel Cam,1990-07-04,Turkey,93,-96,-96,93,,93,53.34,B,Raw,Open,5
F,55,2016-02-16,Hyun Suk Kim,1996-02-29,South Korea,45,50,-52,50,,50,53.76,B,Raw,Open,9
F,55,2016-02-16,Hoang Tuyet Loan Chau,1975-02-08,Vietnam,95,99,102,102,,102,50.59,B,Raw,Open,2
F,55,2016-02-16,Fatema Alhasan,1977-10-10,Syria,87,-90,-90,87,,87,55,B,Raw,Open,6
F,55,2016-02-16,Gihan Abdelaziz,1974-10-29,Egypt,96,99,-103,99,,99,54.86,B,Raw,Open,3
F,55,2016-02-16,Hat Motnok,1977-02-03,Thailand,70,-75,-75,70,,70,54.51,B,Raw,Open,7
F,55,2016-02-16,Natalie Blake,1982-12-04,UK,92,96,97,97,,97,53.52,B,Raw,Open,4
F,55,2016-02-16,Nicola Dore,1988-06-17,Ireland,52,-55,55,55,,55,54.18,B,Raw,Open,8
F,55,2016-02-16,Valiyeva Bikakhanim,1987-07-16,Azerbaijan,,,,,,,,B,Raw,Open,DQ
F,61,2016-02-17,Hafize Sahin,1992-10-02,Turkey,96,-99,-101,96,,96,60.19,B,Raw,Open,4
F,61,2016-02-17,Tetyana Shyrokolava,1979-08-11,Ukraine,-95,95,104,104,,104,60.41,B,Raw,Open,1
F,61,2016-02-17,Mozah Alzeyoudi,1992-10-18,UAE,60,-63,-64,60,,60,56.36,B,Raw,Open,5
F,61,2016-02-17,Malgorzata Kamila Halas-Koralewska,1987-06-10,Poland,96,100,-104,100,,100,60.07,B,Raw,Open,2
F,61,2016-02-17,Fatima Bahji,1971-02-19,Morocco,-97,97,-100,97,,97,59.21,B,Raw,Open,3
F,67,2016-02-17,Kheda Berieva,1992-02-28,Russia,103,108,112,112,,112,65.09,B,Raw,Open,2
F,67,2016-02-17,Asma Issa,1991-09-25,Jordan,88,-92,92,92,,92,66.01,B,Raw,Open,6
F,67,2016-02-17,Raushan Koishibayeva,1966-03-07,Kazakhstan,100,105,-112,105,,105,66.13,B,Raw,Open,3
F,67,2016-02-17,Natali Elias,1980-05-25,Syria,90,-95,-95,90,,90,65.02,B,Raw,Open,7
F,67,2016-02-17,Gharam Alosmanee,1995-04-01,Iraq,-10,-90,-90,,,,65.94,B,Raw,Open,DQ
F,67,2016-02-17,Dilfiroz Kuzdagi,1982-01-01,Turkey,-97,-97,97,97,,97,65.65,B,Raw,Open,4
F,67,2016-02-17,Naima Saidi,1980-09-21,Algeria,-80,-80,80,80,,80,61.06,B,Raw,Open,8
F,67,2016-02-17,Amal Mahmoud Hanafy Mahmoud,1978-10-21,Egypt,105,111,113,113,,113,65.22,B,Raw,Open,1
F,67,2016-02-17,Paulina Teresa Przywecka-Puziak,1991-10-05,Poland,-93,-93,93,93,,93,63.57,B,Raw,Open,5
F,67,2016-02-17,Maryam Alzeyoudi,1996-01-20,UAE,50,-52,52,52,,52,65.5,B,Raw,Open,9
F,67,2016-02-17,Naima El Yousri,1981-09-28,,,,,,,,,B,Raw,Open,DQ
F,73,2016-02-18,Mayagozel Ekeyeva,1986-05-05,Turkmenistan,-104,-104,-104,,,,72.45,B,Raw,Open,DQ
F,73,2016-02-18,Alina Kumeyko,1997-07-27,Ukraine,98,-101,-101,98,,98,72.49,B,Raw,Open,3
F,73,2016-02-18,Hanan Majid Jumaah Al-Majidi,1990-12-07,Iraq,-100,-100,-100,,,,72.33,B,Raw,Open,DQ
F,73,2016-02-18,Nadezhda Sycheva,1988-05-12,Russia,90,96,-98,96,,96,70.41,B,Raw,Open,4
F,73,2016-02-18,Amany Ali,1976-03-02,Egypt,110,-115,115,115,,115,72.65,B,Raw,Open,1
F,73,2016-02-18,Sanae Soubane,1978-05-20,Morocco,-95,95,-100,95,,95,69.28,B,Raw,Open,5
F,73,2016-02-18,Arawan Bootpo,1984-10-10,Thailand,103,106,110,110,,110,71.94,B,Raw,Open,2
F,73,2016-02-18,Larisa Marinenkova,1969-03-07,Moldova,88,-92,-92,88,,88,71.31,B,Raw,Open,6
F,79,2016-02-18,Vera Muratova,1980-07-03,Russia,-123,123,126,126,,126,77.19,B,Raw,Open,1
F,79,2016-02-18,Gehan Hassan,1972-06-13,Egypt,115,-120,120,120,,120,78.54,B,Raw,Open,2
F,79,2016-02-18,Lyubov Semenyuk,1959-05-01,Ukraine,98,102,-107,102,,102,77.89,B,Raw,Open,3
F,86,2016-02-18,Haifa Naqbi,1981-08-12,UAE,-112,-112,,,,,85.55,B,Raw,Open,DQ
F,86,2016-02-18,Randa Mahmoud,1987-08-20,Egypt,-130,130,140,140,-144.5,140,85.99,B,Raw,Open,1
F,86,2016-02-18,Tharwh Tayseer Hamdan Alhajaj,1973-01-01,Jordan,115,119,-123,119,,119,83.12,B,Raw,Open,2
F,86,2016-02-18,Malika Mastour,1973-01-01,Morocco,-103,-103,-105,,,,79.34,B,Raw,Open,DQ
F,86,2016-02-18,Olga Kazankevich,1974-06-26,Russia,116,119,-123,119,,119,85.44,B,Raw,Open,3
F,86+,2016-02-19,Svetlana Khairtdinova,1975-12-01,Russia,118,121,-124,121,,121,99.25,B,Raw,Open,5
F,86+,2016-02-19,Nadia Ali,1974-07-27,Egypt,135,141,-147,141,,141,108.83,B,Raw,Open,1
F,86+,2016-02-19,Vasilina Shestakova,1983-06-28,Russia,119,-123,-125,119,,119,103.15,B,Raw,Open,6
F,86+,2016-02-19,Marzena Zieba,1990-03-27,Poland,124,-130,130,130,,130,115.72,B,Raw,Open,2
F,86+,2016-02-19,Adeline Ancheta,1973-12-13,Philippines,100,-111,115,115,,115,113.11,B,Raw,Open,7
F,86+,2016-02-19,Huda Ali,1977-03-03,Iraq,118,122,127,127,,127,105.29,B,Raw,Open,3
F,86+,2016-02-19,Melaica Tuinfort,1990-03-11,Netherlands,120,124,-126,124,,124,98.72,B,Raw,Open,4
F,86+,2016-02-19,Ansaf Alnuaimi,1980-02-06,UAE,-70,70,75,75,,75,92.58,B,Raw,Open,8
