Division,WeightClassKg,Place,Name,Team,BodyweightKg,Best3SquatKg,Best3BenchKg,Best3DeadliftKg,TotalKg,Equipment,Event,Sex
Boys,51.71,1,Miguel Contreras,Robinson,51.17,136.08,61.23,129.27,326.59,Single-ply,SBD,M
Boys,51.71,2,Cody Villa,Crawford,50.44,104.33,70.31,127.01,301.64,Single-ply,SBD,M
Boys,55.79,3,Sam Brock,China Spring,51.89,92.99,61.23,108.86,263.08,Single-ply,SBD,M
Boys,51.71,4,Colton Niemeir,Crawford,42.18,102.06,47.63,102.06,251.74,Single-ply,SBD,M
Boys,51.71,5,Justin Klaus,West,48.26,92.99,47.63,90.72,231.33,Single-ply,SBD,M
Boys,51.71,6,Cody Clarkin,Whitney,45.72,79.38,38.56,77.11,195.04,Single-ply,SBD,M
Boys,51.71,7,Tyler Dews,Gatesville,41.82,63.5,24.95,74.84,163.29,Single-ply,SBD,M
Boys,51.71,8,Isaac Villafano,McGregor,36.02,45.36,31.75,24.95,102.06,Single-ply,SBD,M
Boys,51.71,DQ,Jake Roberston,Clifton,49.99,129.27,,,,Single-ply,SBD,M
Boys,55.79,1,Tanner Blackwell,Gatesville,55.7,147.42,68.04,142.88,358.34,Single-ply,SBD,M
Boys,55.79,2,Grady Rhoden,Alvarado,55.43,136.08,65.77,145.15,347,Single-ply,SBD,M
Boys,55.79,3,Billy Nabors,Waco La Vega,52.07,102.06,58.97,133.81,294.84,Single-ply,SBD,M
Boys,59.87,4,Dylan Greene,Whitney,55.88,90.72,56.7,90.72,238.14,Single-ply,SBD,M
Boys,55.79,DQ,Colton Russell,Bosqueville,55.52,176.9,,,,Single-ply,SBD,M
Boys,55.79,DQ,Travis Lacina,Crawford,52.25,127.01,,,,Single-ply,SBD,M
Boys,59.87,1,Josh McCraw,Gatesville,58.79,213.19,95.25,183.7,492.15,Single-ply,SBD,M
Boys,59.87,2,Manuel Rodriguez #4,Robinson,58.51,154.22,74.84,154.22,383.29,Single-ply,SBD,M
Boys,67.13,3,Austin Gilbert,Whitney,60.06,133.81,77.11,161.03,371.95,Single-ply,SBD,M
Boys,59.87,4,Chip Espin,Axtell,59.78,117.93,77.11,140.61,335.66,Single-ply,SBD,M
Boys,67.13,DQ,Luis Juarez,Bosqueville,59.96,176.9,,,,Single-ply,SBD,M
Boys,59.87,DQ,Garrett Mowles,Venus,56.06,97.52,,,,Single-ply,SBD,M
Boys,59.87,DQ,Kyle Jacobs,McGregor,58.15,,,,,Single-ply,SBD,M
Boys,67.13,1,Alex Leos,Robinson,66.95,226.8,122.47,217.72,566.99,Single-ply,SBD,M
Boys,67.13,2,Rene Rivas,Venus,66.68,192.78,111.13,217.72,521.63,Single-ply,SBD,M
Boys,74.84,3,Chase McGhee,Gatesville,67.31,199.58,124.74,181.44,505.76,Single-ply,SBD,M
Boys,67.13,4,Zac Beyer,Bosqueville,67.13,181.44,102.06,181.44,464.93,Single-ply,SBD,M
Boys,67.13,5,Hunter Work,Robinson,60.69,176.9,113.4,172.37,462.66,Single-ply,SBD,M
Boys,67.13,6,Dylan Haralson,Axtell,66.32,185.97,90.72,181.44,458.13,Single-ply,SBD,M
Boys,67.13,7,Jesse Berry #1,Crawford,62.14,181.44,97.52,172.37,451.32,Single-ply,SBD,M
Boys,67.13,8,Sean Gibson,Whitney,63.05,158.76,99.79,192.78,451.32,Single-ply,SBD,M
Boys,67.13,9,Jordan Wright,Meridian,65.32,183.7,83.91,179.17,446.79,Single-ply,SBD,M
Boys,67.13,10,Joel Benavides,Venus,65.59,172.37,92.99,176.9,442.25,Single-ply,SBD,M
Boys,67.13,11,Seth Varga,West,63.96,163.29,83.91,154.22,401.43,Single-ply,SBD,M
Boys,67.13,12,Mario Quintero,Clifton,62.05,165.56,86.18,147.42,399.16,Single-ply,SBD,M
Boys,67.13,13,Zach Rankin,West,63.14,154.22,86.18,142.88,383.29,Single-ply,SBD,M
Boys,67.13,14,Dokata Hollingsworth,Moody,66.86,115.67,65.77,142.88,324.32,Single-ply,SBD,M
Boys,67.13,15,Lucas Ramsey,Meridian,65.14,120.2,70.31,131.54,322.05,Single-ply,SBD,M
Boys,67.13,16,Brandon Pelton,Waco La Vega,64.77,115.67,74.84,124.74,315.25,Single-ply,SBD,M
Boys,67.13,DQ,Justin Farmer,Moody,61.96,131.54,,,,Single-ply,SBD,M
Boys,74.84,DQ,Dakotta Thomas,Clifton,67.22,174.63,,,,Single-ply,SBD,M
Boys,67.13,DQ,Cj Doan,Bosqueville,60.33,127.01,,,,Single-ply,SBD,M
Boys,74.84,DQ,Ryan Hedges,Bosqueville,67.31,99.79,,,,Single-ply,SBD,M
Boys,74.84,1,Travis Cooke,China Spring,74.66,235.87,149.69,219.99,605.55,Single-ply,SBD,M
Boys,74.84,2,Chris Sosebee,Whitney,68.67,204.12,124.74,181.44,510.29,Single-ply,SBD,M
Boys,74.84,3,Brandon Fortune,Alvarado,74.21,176.9,106.59,208.65,492.15,Single-ply,SBD,M
Boys,74.84,4,Layne Crosthwaite,Clifton,71.67,195.04,108.86,185.97,489.88,Single-ply,SBD,M
Boys,74.84,5,Joel Bennett,Lake Worth,70.4,179.17,102.06,204.12,485.34,Single-ply,SBD,M
Boys,74.84,6,Brett Boles,McGregor,71.85,192.78,99.79,190.51,483.08,Single-ply,SBD,M
Boys,74.84,7,Jaen Lopez,Clifton,73.03,170.1,115.67,192.78,478.54,Single-ply,SBD,M
Boys,74.84,8,Ramiro Fraire,West,70.22,188.24,106.59,181.44,476.27,Single-ply,SBD,M
Boys,74.84,9,Stephen Mitchell,Robinson,67.95,179.17,99.79,192.78,471.74,Single-ply,SBD,M
Boys,74.84,10,Braxton Stefka,Axtell,73.51,192.78,86.18,190.51,469.47,Single-ply,SBD,M
Boys,74.84,11,Dustin Murphy,Clifton,73.75,183.7,97.52,183.7,464.93,Single-ply,SBD,M
Boys,74.84,12,Lane Fikes,Robinson,68.13,163.29,95.25,192.78,451.32,Single-ply,SBD,M
Boys,74.84,13,Brandon Berry,Gatesville,73.94,167.83,102.06,181.44,451.32,Single-ply,SBD,M
Boys,74.84,14,Garett Salas,McGregor,71.67,172.37,92.99,176.9,442.25,Single-ply,SBD,M
Boys,74.84,15,Rody Wiley,Axtell,74.48,176.9,104.33,147.42,428.64,Single-ply,SBD,M
Boys,74.84,16,Greg Roberts,Lake Worth,72.76,167.83,88.45,167.83,424.11,Single-ply,SBD,M
Boys,74.84,17,Edmond Marton,Axtell,70.76,154.22,83.91,174.63,412.77,Single-ply,SBD,M
Boys,74.84,18,Ty Mooney,McGregor,72.03,192.78,74.84,136.08,403.7,Single-ply,SBD,M
Boys,74.84,19,Dillon McBride,Axtell,67.49,136.08,95.25,147.42,378.75,Single-ply,SBD,M
Boys,74.84,20,Jonah Burkett,Crawford,70.94,127.01,92.99,151.95,371.95,Single-ply,SBD,M
Boys,74.84,21,Justin Dixon,Whitney,68.95,129.27,83.91,131.54,344.73,Single-ply,SBD,M
Boys,74.84,22,Zachary Butler,Bosqueville,71.76,136.08,49.9,136.08,322.05,Single-ply,SBD,M
Boys,74.84,23,Skylar Payne,McGregor,69.67,124.74,72.57,104.33,301.64,Single-ply,SBD,M
Boys,74.84,DQ,Jose Jimenez #11,Venus,69.58,136.08,63.5,,,Single-ply,SBD,M
Boys,82.1,1,Nathan Cornett,Alvarado,79.56,208.65,136.08,213.19,557.92,Single-ply,SBD,M
Boys,82.1,2,Jeremy Seay,Meridian,76.48,204.12,129.27,204.12,537.51,Single-ply,SBD,M
Boys,89.81,3,Randy Gober,Waco La Vega,82.28,192.78,138.35,183.7,514.83,Single-ply,SBD,M
Boys,82.1,4,Matt Stephenson,China Spring,79.56,183.7,127.01,190.51,501.22,Single-ply,SBD,M
Boys,82.1,5,Dustin McLearen,Gatesville,81.47,185.97,115.67,199.58,501.22,Single-ply,SBD,M
Boys,89.81,6,Isaiah Gardea,Clifton,82.28,183.7,115.67,174.63,474,Single-ply,SBD,M
Boys,89.81,7,Tyler Fox,McGregor,82.28,181.44,120.2,170.1,471.74,Single-ply,SBD,M
Boys,82.1,8,Dylan Connell,China Spring,80.38,149.69,99.79,192.78,442.25,Single-ply,SBD,M
Boys,82.1,9,Chris Dingrando,Whitney,78.38,147.42,102.06,163.29,412.77,Single-ply,SBD,M
Boys,82.1,10,Tanner Coone,Axtell,77.75,149.69,92.99,149.69,392.36,Single-ply,SBD,M
Boys,82.1,11,Matthew Wiethorn,Crawford,79.29,151.95,83.91,149.69,385.55,Single-ply,SBD,M
Boys,82.1,12,Cody Hubbard,Moody,79.02,124.74,58.97,108.86,292.57,Single-ply,SBD,M
Boys,82.1,DQ,Ricky Thompson,Robinson,77.11,,,,,Single-ply,SBD,M
Boys,82.1,DQ,Maverick Chitty,Lake Worth,80.1,172.37,102.06,,,Single-ply,SBD,M
Boys,89.81,1,Brody Jones,Crawford,88.54,260.82,147.42,217.72,625.96,Single-ply,SBD,M
Boys,89.81,2,Gerald Horne II,Waco La Vega,87.82,215.46,142.88,231.33,589.67,Single-ply,SBD,M
Boys,89.81,3,Rashaad Miller,China Spring,83.82,188.24,129.27,226.8,544.31,Single-ply,SBD,M
Boys,89.81,4,Chris Olsen,Crawford,83.28,197.31,117.93,208.65,523.9,Single-ply,SBD,M
Boys,89.81,5,Robert Munoz,Lake Worth,84.37,224.53,120.2,176.9,521.63,Single-ply,SBD,M
Boys,89.81,6,Tyler Martinez,Axtell,87.27,210.92,106.59,201.85,519.36,Single-ply,SBD,M
Boys,89.81,7,Zach Koenig,China Spring,87.45,204.12,127.01,185.97,517.1,Single-ply,SBD,M
Boys,89.81,8,Jarred Goedeke,Robinson,82.37,176.9,111.13,204.12,492.15,Single-ply,SBD,M
Boys,89.81,9,Aaron Ewing,Lake Worth,86.73,170.1,102.06,185.97,458.13,Single-ply,SBD,M
Boys,89.81,10,Jacob Trevino,Moody,87.91,183.7,95.25,163.29,442.25,Single-ply,SBD,M
Boys,89.81,11,Marshall Weatherby,Alvarado,88.18,158.76,95.25,158.76,412.77,Single-ply,SBD,M
Boys,89.81,12,Undra Smith,West,88.72,140.61,97.52,158.76,396.89,Single-ply,SBD,M
Boys,89.81,DQ,Brannan Love,Meridian,83.01,133.81,,,,Single-ply,SBD,M
Boys,89.81,DQ,Nick Doughty,Meridian,89.36,140.61,95.25,,,Single-ply,SBD,M
Boys,89.81,DQ,Rowdy Goff,Alvarado,83.19,,,,,Single-ply,SBD,M
Boys,99.79,1,Shaq Walker,Waco La Vega,99.16,278.96,129.27,249.48,657.71,Single-ply,SBD,M
Boys,99.79,2,Aj Castillo,Alvarado,97.61,235.87,145.15,226.8,607.81,Single-ply,SBD,M
Boys,99.79,3,Austin Brewer,Clifton,94.08,217.72,127.01,229.06,573.79,Single-ply,SBD,M
Boys,99.79,4,Dalton Symm,China Spring,97.7,213.19,136.08,197.31,546.58,Single-ply,SBD,M
Boys,109.77,5,Guadalupe Munoz,Waco La Vega,99.97,215.46,142.88,183.7,542.04,Single-ply,SBD,M
Boys,99.79,6,Matt Gerik,West,92.44,215.46,117.93,204.12,537.51,Single-ply,SBD,M
Boys,99.79,7,John Almanza,Bosqueville,95.53,208.65,127.01,188.24,523.9,Single-ply,SBD,M
Boys,99.79,8,Andrew Sevener,Alvarado,96.25,217.72,102.06,195.04,514.83,Single-ply,SBD,M
Boys,99.79,9,Jacob Skains,Axtell,94.62,185.97,104.33,192.78,483.08,Single-ply,SBD,M
Boys,99.79,10,Tim Woods,Lake Worth,99.06,183.7,99.79,199.58,483.08,Single-ply,SBD,M
Boys,99.79,11,Michael Clift,Venus,91.72,176.9,106.59,181.44,464.93,Single-ply,SBD,M
Boys,99.79,12,Jacob Kevil,Crawford,93.08,176.9,111.13,176.9,464.93,Single-ply,SBD,M
Boys,99.79,13,Tanner Nors,West,93.17,181.44,102.06,170.1,453.59,Single-ply,SBD,M
Boys,99.79,14,Dylan McDonald #2,Whitney,93.98,167.83,92.99,172.37,433.18,Single-ply,SBD,M
Boys,99.79,15,Cody Davis,Moody,95.71,151.95,90.72,142.88,385.55,Single-ply,SBD,M
Boys,99.79,16,Sean Hargrove,Venus,97.98,165.56,81.65,129.27,376.48,Single-ply,SBD,M
Boys,99.79,17,Jd King,Axtell,97.16,124.74,74.84,140.61,340.19,Single-ply,SBD,M
Boys,99.79,DQ,Caleb Armstrong,Grandview,93.26,158.76,,,,Single-ply,SBD,M
Boys,99.79,DQ,Ace Rurak,Grandview,97.16,181.44,97.52,,,Single-ply,SBD,M
Boys,109.77,1,Riley Hubert,McGregor,104.69,276.69,136.08,231.33,644.1,Single-ply,SBD,M
Boys,109.77,2,D'Andra Minnitt,Waco La Vega,103.78,267.62,138.35,213.19,619.15,Single-ply,SBD,M
Boys,109.77,3,Josh Carroll,Waco La Vega,105.32,235.87,140.61,240.4,616.89,Single-ply,SBD,M
Boys,109.77,4,Seth White,Alvarado,104.96,254.01,136.08,215.46,605.55,Single-ply,SBD,M
Boys,109.77,5,Peter Wimberly,China Spring,108.32,235.87,142.88,210.92,589.67,Single-ply,SBD,M
Boys,109.77,6,Shane Sibila,Clifton,100.88,219.99,136.08,208.65,564.72,Single-ply,SBD,M
Boys,109.77,7,Eleazar Diaz,Lake Worth,105.69,219.99,108.86,165.56,494.42,Single-ply,SBD,M
Boys,109.77,8,Justin Rhyne,Gatesville,100.61,183.7,138.35,163.29,485.34,Single-ply,SBD,M
Boys,109.77,9,Logan Willenborg,West,108.41,204.12,99.79,181.44,485.34,Single-ply,SBD,M
Boys,109.77,10,Colby Gohlke,Crawford,109.04,174.63,99.79,181.44,455.86,Single-ply,SBD,M
Boys,109.77,11,Brazos Fuller,Alvarado,105.41,181.44,104.33,158.76,444.52,Single-ply,SBD,M
Boys,109.77,12,Bobby Davis,Bosqueville,108.5,158.76,92.99,174.63,426.38,Single-ply,SBD,M
Boys,109.77,13,Taylor Hooten,Robinson,108.23,158.76,90.72,163.29,412.77,Single-ply,SBD,M
Boys,109.77,DQ,Jason Harris,West,100.79,158.76,,,,Single-ply,SBD,M
Boys,124.74,1,Hayden Houpt,Whitney,110.59,256.28,170.1,254.01,680.39,Single-ply,SBD,M
Boys,124.74,2,Brian Pullen,China Spring,118.75,276.69,163.29,240.4,680.39,Single-ply,SBD,M
Boys,124.74,3,Dwight Holder,Waco La Vega,121.29,281.23,136.08,229.06,646.37,Single-ply,SBD,M
Boys,124.74,4,Colton Ridley,Gatesville,119.57,254.01,163.29,204.12,621.42,Single-ply,SBD,M
Boys,124.74,5,Garrett Evans,Clifton,114.94,235.87,147.42,224.53,607.81,Single-ply,SBD,M
Boys,124.74,6,Alexix Olvera,McGregor,118.48,238.14,124.74,208.65,571.53,Single-ply,SBD,M
Boys,124.74,7,Zak Hudspeth,Gatesville,110.68,204.12,113.4,195.04,512.56,Single-ply,SBD,M
Boys,124.74,8,William Willis,Grandview,122.2,201.85,131.54,174.63,508.02,Single-ply,SBD,M
Boys,124.74,9,Adam Chavez,Robinson,114.94,195.04,97.52,181.44,474,Single-ply,SBD,M
Boys,124.74,10,Blake Kasparian,Crawford,110.31,183.7,111.13,176.9,471.74,Single-ply,SBD,M
Boys,124.74,DQ,Jimmy Thomas,Alvarado,120.66,219.99,102.06,,,Single-ply,SBD,M
Boys,124.74,DQ,Cyle Johnson #2,Alvarado,117.3,183.7,97.52,,,Single-ply,SBD,M
Boys,124.74+,1,Shane Murphy,Robinson,159.66,263.08,201.85,226.8,691.73,Single-ply,SBD,M
Boys,124.74+,2,Trent Andrews,Bosqueville,125.83,254.01,127.01,240.4,621.42,Single-ply,SBD,M
Boys,124.74+,3,Tyler Swenson,Clifton,133.63,260.82,142.88,206.38,610.08,Single-ply,SBD,M
Boys,124.74+,4,Marcelo Ramirez,Waco La Vega,137.53,242.67,117.93,238.14,598.74,Single-ply,SBD,M
