Division,WeightClassKg,Place,Name,Team,BodyweightKg,Best3SquatKg,Best3BenchKg,Best3DeadliftKg,TotalKg,Equipment,Event,Sex
Boys,51.71,1,Joey Rodriguez,Edinburg Idea College Prep,51.71,179.17,90.72,176.9,446.79,Single-ply,SBD,M
Boys,51.71,2,Fabian Garcia,Edinburg Idea College Prep,51.71,158.76,95.25,161.03,415.04,Single-ply,SBD,M
Boys,51.71,3,Jaden Lopez,Port Isabel,51.71,140.61,74.84,149.69,365.14,Single-ply,SBD,M
Boys,51.71,4,Hisaac Guerrero,Rio Hondo,49.62,127.01,83.91,136.08,347,Single-ply,SBD,M
Boys,51.71,5,Uziel Vasquez,Edinburg Idea College Prep,51.71,133.81,61.23,124.74,319.78,Single-ply,SBD,M
Boys,51.71,6,Chris Ortiz,Brownsville Porter,51.71,102.06,72.57,124.74,299.37,Single-ply,SBD,M
Boys,51.71,DQ,Brandon Minez,Brownsville Porter,51.71,,,,,Single-ply,SBD,M
Boys,51.71,DQ,Harley Rios,Weslaco,51.71,,,,,Single-ply,SBD,M
Boys,55.79,1,Bryan Loera,Brownsville Pace,55.79,165.56,106.59,183.7,455.86,Single-ply,SBD,M
Boys,55.79,2,David Hernandez,Port Isabel,55.79,149.69,79.38,142.88,371.95,Single-ply,SBD,M
Boys,55.79,3,Samuel Gracia,Weslaco,55.79,129.27,88.45,138.35,356.07,Single-ply,SBD,M
Boys,55.79,4,Israel Ramos,Brownsville Porter,55.79,129.27,74.84,142.88,347,Single-ply,SBD,M
Boys,55.79,5,Juan Galvan,Brownsville Porter,55.79,92.99,65.77,122.47,281.23,Single-ply,SBD,M
Boys,55.79,6,Gabriel Chavez,Lyford,55.79,102.06,52.16,117.93,272.16,Single-ply,SBD,M
Boys,55.79,7,Ramiro Yanez,PSJA,55.79,102.06,52.16,113.4,267.62,Single-ply,SBD,M
Boys,55.79,DQ,Zach Dennis,Brownsville St. Joseph Academy,55.79,,,,,Single-ply,SBD,M
Boys,55.79,DQ,Aldo Salazar,Santa Rosa,55.79,,,,,Single-ply,SBD,M
Boys,55.79,DQ,Francisco Banda,McAllen IDEA College Prep,54.34,,,,,Single-ply,SBD,M
Boys,59.87,1,Marcus Capetillo,Raymondville,59.87,224.53,111.13,208.65,544.31,Single-ply,SBD,M
Boys,59.87,2,Elijah Wheeler,Edinburg Quest College Prep,59.87,197.31,102.06,199.58,498.95,Single-ply,SBD,M
Boys,59.87,3,Fernando Martinez #2,Weslaco,59.87,195.04,111.13,174.63,480.81,Single-ply,SBD,M
Boys,59.87,4,Mario Perez,Weslaco,57.06,172.37,99.79,154.22,426.38,Single-ply,SBD,M
Boys,59.87,5,Maxx Padron,Brownsville Pace,59.87,136.08,72.57,154.22,362.87,Single-ply,SBD,M
Boys,59.87,6,Darren Valdez,Port Isabel,59.87,133.81,81.65,138.35,353.8,Single-ply,SBD,M
Boys,59.87,7,Robert Quintanilla,PSJA,59.87,145.15,74.84,127.01,347,Single-ply,SBD,M
Boys,59.87,8,Elijah Zamora,Lyford,59.87,124.74,68.04,136.08,328.85,Single-ply,SBD,M
Boys,59.87,9,Ramses Vasquez,Edinburg Idea College Prep,59.87,129.27,68.04,120.2,317.51,Single-ply,SBD,M
Boys,59.87,DQ,Zuriel Garica,Pharr Valley View,59.87,,,,,Single-ply,SBD,M
Boys,59.87,DQ,Carlos Ramos #1,Brownsville Porter,59.87,,,,,Single-ply,SBD,M
Boys,59.87,DQ,Jonah Ortega,Rio Hondo,59.87,,,,,Single-ply,SBD,M
Boys,59.87,DQ,Abraham Rivero,McAllen IDEA College Prep,57.61,,,,,Single-ply,SBD,M
Boys,59.87,DQ,Joey Mirelez,Edinburg Quest College Prep,59.87,113.4,,,,Single-ply,SBD,M
Boys,67.13,1,Jose Salinas,Brownsville Pace,67.13,219.99,117.93,213.19,551.11,Single-ply,SBD,M
Boys,67.13,2,Leo Daniel Lozano,Weslaco,67.13,197.31,145.15,190.51,532.97,Single-ply,SBD,M
Boys,67.13,3,Aaron Lozano,Edinburg Quest College Prep,67.13,181.44,99.79,217.72,498.95,Single-ply,SBD,M
Boys,67.13,4,Daniel Wolfe,Brownsville St. Joseph Academy,67.13,154.22,90.72,188.24,433.18,Single-ply,SBD,M
Boys,67.13,5,Sebastian Casares,Edinburg Quest College Prep,67.13,142.88,104.33,183.7,430.91,Single-ply,SBD,M
Boys,67.13,6,Robert Rivera,La Villa,67.13,183.7,92.99,154.22,430.91,Single-ply,SBD,M
Boys,67.13,7,Nelson Garcia,Brownsville Pace,65.77,167.83,90.72,167.83,426.38,Single-ply,SBD,M
Boys,67.13,8,Antonio Vasquez,Edinburg Quest College Prep,67.13,149.69,88.45,176.9,415.04,Single-ply,SBD,M
Boys,67.13,9,Tyler McClauraty,Lyford,62.51,183.7,83.91,136.08,403.7,Single-ply,SBD,M
Boys,67.13,10,Erasmo Jarillo,Brownsville Porter,67.13,147.42,97.52,151.95,396.89,Single-ply,SBD,M
Boys,67.13,11,Omar Salinas,Port Isabel,60.33,138.35,90.72,151.95,381.02,Single-ply,SBD,M
Boys,67.13,12,Joseph Cano,Monte Alto,65.86,142.88,83.91,147.42,374.21,Single-ply,SBD,M
Boys,67.13,13,Dante de la Garza,Port Isabel,67.13,129.27,83.91,161.03,374.21,Single-ply,SBD,M
Boys,67.13,14,Jerry Reyes,La Villa,65.14,142.88,92.99,124.74,360.61,Single-ply,SBD,M
Boys,67.13,15,Samuel Villareal,Port Isabel,66.32,122.47,58.97,122.47,303.91,Single-ply,SBD,M
Boys,67.13,16,Michael Gore,Brownsville Jubilee,66.86,104.33,49.9,142.88,297.1,Single-ply,SBD,M
Boys,67.13,17,Nathan Swanson,McAllen IDEA College Prep,63.5,52.16,43.09,102.06,197.31,Single-ply,SBD,M
Boys,67.13,DQ,Aaron Gonzalez,Lyford,67.13,,,,,Single-ply,SBD,M
Boys,67.13,DQ,Valente Rosas,Lyford,67.13,,,,,Single-ply,SBD,M
Boys,67.13,DQ,Randall de Leon,Lyford,67.13,,,,,Single-ply,SBD,M
Boys,67.13,DQ,Nicolas Carpio,PSJA,67.13,,,,,Single-ply,SBD,M
Boys,67.13,DQ,Carl Bridges,Santa Rosa,67.13,,,,,Single-ply,SBD,M
Boys,74.84,1,Andrew Nevarez,Edinburg Idea College Prep,74.84,249.48,129.27,235.87,614.62,Single-ply,SBD,M
Boys,74.84,2,Matthew Alvarado,Weslaco,74.84,222.26,138.35,222.26,582.87,Single-ply,SBD,M
Boys,74.84,3,Javier Pichardo,PSJA,74.84,217.72,120.2,226.8,564.72,Single-ply,SBD,M
Boys,74.84,4,Joel Hernandez #1,Brownsville Pace,74.84,174.63,102.06,183.7,460.4,Single-ply,SBD,M
Boys,74.84,5,Catorino Tijerina,Raymondville,71.21,156.49,102.06,174.63,433.18,Single-ply,SBD,M
Boys,74.84,6,Emiliano Sanchez,Edinburg Idea College Prep,74.84,147.42,86.18,149.69,383.29,Single-ply,SBD,M
Boys,74.84,7,Jesus Mendoza,Santa Rosa,74.39,122.47,79.38,142.88,344.73,Single-ply,SBD,M
Boys,74.84,8,Ryan Mesa,Raymondville,70.4,124.74,63.5,142.88,331.12,Single-ply,SBD,M
Boys,74.84,9,Danial Villareal,Port Isabel,74.84,102.06,88.45,140.61,331.12,Single-ply,SBD,M
Boys,74.84,10,Brave Munoz,Santa Rosa,74.57,108.86,63.5,127.01,299.37,Single-ply,SBD,M
Boys,74.84,DQ,Lupe Pecina,Santa Rosa,74.84,,,,,Single-ply,SBD,M
Boys,74.84,DQ,Skyler Alaniz,Santa Rosa,74.84,,,,,Single-ply,SBD,M
Boys,74.84,DQ,Anthony Villareal,Pharr Valley View,74.84,,,,,Single-ply,SBD,M
Boys,74.84,DQ,Jorge Aban,Port Isabel,74.84,,,,,Single-ply,SBD,M
Boys,74.84,DQ,John Carlo Cruz,Edinburg Quest College Prep,74.84,,,,,Single-ply,SBD,M
Boys,74.84,DQ,Leo Cuellar,Pharr Valley View,74.84,,,,,Single-ply,SBD,M
Boys,74.84,DQ,David Rodriguez,Brownsville St. Joseph Academy,74.84,188.24,102.06,204.12,,Single-ply,SBD,M
Boys,82.1,1,Juan Torres,Raymondville,79.11,208.65,111.13,247.21,566.99,Single-ply,SBD,M
Boys,82.1,2,Charles Juarez,Weslaco,82.1,195.04,131.54,215.46,542.04,Single-ply,SBD,M
Boys,82.1,3,Gerardo Garza,Brownsville Pace,82.1,210.92,131.54,190.51,532.97,Single-ply,SBD,M
Boys,82.1,4,Felipe Ortega,La Villa,82.1,208.65,111.13,183.7,503.49,Single-ply,SBD,M
Boys,82.1,5,Christian Garza,Rio Hondo,82.1,176.9,133.81,192.78,503.49,Single-ply,SBD,M
Boys,82.1,6,Daniel Garza,Brownsville St. Joseph Academy,82.1,145.15,92.99,183.7,421.84,Single-ply,SBD,M
Boys,82.1,7,Humberto Barrera,Rio Hondo,82.1,165.56,92.99,158.76,417.3,Single-ply,SBD,M
Boys,82.1,8,Alex Mendoza #2,Edinburg Idea College Prep,81.65,158.76,92.99,151.95,403.7,Single-ply,SBD,M
Boys,82.1,9,Leonardo Salazar,Monte Alto,79.2,138.35,97.52,149.69,385.55,Single-ply,SBD,M
Boys,82.1,10,Caleb Garza,Santa Rosa,82.1,142.88,81.65,145.15,369.68,Single-ply,SBD,M
Boys,82.1,11,Emiliano Soliz,McAllen IDEA College Prep,80.29,111.13,61.23,151.95,324.32,Single-ply,SBD,M
Boys,82.1,12,Chris Floriano,Brownsville Porter,82.1,120.2,74.84,129.27,324.32,Single-ply,SBD,M
Boys,82.1,13,Luis Lerma,McAllen IDEA College Prep,80.56,61.23,61.23,102.06,224.53,Single-ply,SBD,M
Boys,82.1,DQ,Abran Ruiz,Edinburg Quest College Prep,82.1,,,,,Single-ply,SBD,M
Boys,82.1,DQ,Eleazar Rivas,Brownsville Porter,82.1,,,,,Single-ply,SBD,M
Boys,82.1,DQ,Mario Sigala,PSJA,82.1,,,,,Single-ply,SBD,M
Boys,82.1,DQ,Caleb Martinez,La Feria,82.1,,,,,Single-ply,SBD,M
Boys,82.1,DQ,Micheal Zamora,Pharr Valley View,82.1,,,,,Single-ply,SBD,M
Boys,82.1,DQ,Enrique Garica,Pharr Valley View,82.1,,,,,Single-ply,SBD,M
Boys,82.1,DQ,Roman Alfaro,Brownsville Pace,82.1,,,,,Single-ply,SBD,M
Boys,82.1,DQ,Christopher Espinoza,Brownsville Pace,82.1,233.6,122.47,,,Single-ply,SBD,M
Boys,82.1,DQ,Giovanny Ahumade,Brownsville Porter,78.11,185.97,,,,Single-ply,SBD,M
Boys,89.81,1,Larry Strickland,Weslaco,89.81,249.48,113.4,231.33,594.21,Single-ply,SBD,M
Boys,89.81,2,Anthony Finona,Port Isabel,89.81,176.9,97.52,192.78,467.2,Single-ply,SBD,M
Boys,89.81,3,Martin Rabanales,Edinburg Quest College Prep,89.81,192.78,106.59,163.29,462.66,Single-ply,SBD,M
Boys,89.81,4,Martin Vargas,Brownsville Porter,89.81,183.7,113.4,142.88,439.98,Single-ply,SBD,M
Boys,89.81,5,Ricardo Alanis,Brownsville St. Joseph Academy,89.81,188.24,97.52,154.22,439.98,Single-ply,SBD,M
Boys,89.81,6,Ethan de la Garza,Santa Rosa,89.81,181.44,86.18,170.1,437.72,Single-ply,SBD,M
Boys,89.81,7,Jose Hinojosa,Raymondville,87.82,174.63,90.72,158.76,424.11,Single-ply,SBD,M
Boys,89.81,8,Miguel Martinez,Port Isabel,83.37,149.69,83.91,167.83,401.43,Single-ply,SBD,M
Boys,89.81,9,Ismael Melendez,McAllen IDEA College Prep,85.73,106.59,92.99,142.88,342.46,Single-ply,SBD,M
Boys,89.81,10,Roel Salinas,McAllen IDEA College Prep,88.81,92.99,79.38,108.86,281.23,Single-ply,SBD,M
Boys,89.81,DQ,Jorge Terrazas,Santa Rosa,89.81,,,,,Single-ply,SBD,M
Boys,89.81,DQ,Mark Anaya,Brownsville St. Joseph Academy,89.81,,,,,Single-ply,SBD,M
Boys,89.81,DQ,Simon Fernandez,Pharr Valley View,89.81,,,,,Single-ply,SBD,M
Boys,89.81,DQ,Jose Flores #5,Pharr Valley View,89.81,,,,,Single-ply,SBD,M
Boys,99.79,1,Juan Flores,PSJA,99.79,272.16,181.44,260.82,714.41,Single-ply,SBD,M
Boys,99.79,2,Rudy Tijerina,Raymondville,95.53,240.4,149.69,244.94,635.03,Single-ply,SBD,M
Boys,99.79,3,Emmanuel Cepeda,Lyford,97.89,249.48,145.15,226.8,621.42,Single-ply,SBD,M
Boys,99.79,4,Anthony Torres,Raymondville,99.79,219.99,127.01,247.21,594.21,Single-ply,SBD,M
Boys,99.79,5,Rodrigo Miner,Brownsville St. Joseph Academy,99.79,197.31,131.54,217.72,546.58,Single-ply,SBD,M
Boys,99.79,6,Alex Yerena,La Feria,99.79,210.92,122.47,204.12,537.51,Single-ply,SBD,M
Boys,99.79,7,Erasmo Garces,Weslaco,99.79,204.12,117.93,215.46,537.51,Single-ply,SBD,M
Boys,99.79,8,Jeffrey Burton,Brownsville Pace,99.79,183.7,142.88,204.12,530.7,Single-ply,SBD,M
Boys,99.79,9,Robert Grimaldo,PSJA,91.44,215.46,124.74,183.7,523.9,Single-ply,SBD,M
Boys,99.79,10,George Garcia,La Feria,99.79,210.92,106.59,183.7,501.22,Single-ply,SBD,M
Boys,99.79,11,Aja Hernandez,La Feria,99.79,170.1,117.93,210.92,498.95,Single-ply,SBD,M
Boys,99.79,12,Rudy De Leon,La Feria,99.79,188.24,113.4,163.29,464.93,Single-ply,SBD,M
Boys,99.79,13,Gonzalo Zedillo,Brownsville Porter,99.79,136.08,106.59,161.03,403.7,Single-ply,SBD,M
Boys,99.79,14,Christopher Cruz,Brownsville Porter,99.79,113.4,88.45,133.81,335.66,Single-ply,SBD,M
Boys,99.79,15,Gael Garcia,McAllen IDEA College Prep,92.99,102.06,70.31,142.88,315.25,Single-ply,SBD,M
Boys,99.79,16,Federico Rendon,Brownsville St. Joseph Academy,99.79,120.2,61.23,133.81,315.25,Single-ply,SBD,M
Boys,99.79,17,Alejando Mustafat,McAllen IDEA College Prep,94.8,83.91,61.23,124.74,269.89,Single-ply,SBD,M
Boys,99.79,DQ,Moises Pedraza,PSJA,99.79,,,,,Single-ply,SBD,M
Boys,99.79,DQ,John Hernandez,Lyford,99.79,,,,,Single-ply,SBD,M
Boys,99.79,DQ,Ricardo Barreto,McAllen IDEA College Prep,97.07,,,,,Single-ply,SBD,M
Boys,109.77,1,Joey Ramirez,La Villa,109.77,306.17,190.51,210.92,707.6,Single-ply,SBD,M
Boys,109.77,2,Neyfis Castellanos,Port Isabel,105.51,272.16,147.42,206.38,625.96,Single-ply,SBD,M
Boys,109.77,3,Ramon Cuellar,Pharr Valley View,109.77,272.16,161.03,188.24,621.42,Single-ply,SBD,M
Boys,109.77,4,Angel Gutierrez,Pharr Valley View,109.77,249.48,147.42,219.99,616.89,Single-ply,SBD,M
Boys,109.77,5,Blake Fowkes,Brownsville St. Joseph Academy,109.77,226.8,142.88,219.99,589.67,Single-ply,SBD,M
Boys,109.77,6,Roland Morales,Weslaco,109.77,226.8,149.69,208.65,585.13,Single-ply,SBD,M
Boys,109.77,7,Manuel Garcia,Brownsville Porter,109.77,226.8,147.42,188.24,562.45,Single-ply,SBD,M
Boys,109.77,8,Arturo Garcia,Brownsville Pace,109.77,231.33,145.15,158.76,535.24,Single-ply,SBD,M
Boys,109.77,9,Manny Castillo,PSJA,109.77,215.46,124.74,192.78,532.97,Single-ply,SBD,M
Boys,109.77,10,Tomas Garcia,Rio Hondo,109.77,206.38,140.61,181.44,528.44,Single-ply,SBD,M
Boys,109.77,11,Tony Marroquin,La Feria,109.77,208.65,117.93,197.31,523.9,Single-ply,SBD,M
Boys,124.74,1,Adrian Fuentes,Weslaco,124.74,276.69,158.76,260.82,696.26,Single-ply,SBD,M
Boys,124.74,2,Enrique Guajardo,Pharr Valley View,113.76,267.62,142.88,235.87,646.37,Single-ply,SBD,M
Boys,124.74,3,Joshua Sanchez,PSJA,124.74,240.4,149.69,206.38,596.47,Single-ply,SBD,M
Boys,124.74,4,Esia Reyes,La Feria,124.74,219.99,120.2,195.04,535.24,Single-ply,SBD,M
Boys,124.74,DQ,Raul Martinez,Weslaco,124.74,,,,,Single-ply,SBD,M
Boys,124.74,DQ,Matthew Lopez #1,Rio Hondo,124.74,,,,,Single-ply,SBD,M
Boys,124.74,DQ,Brandon Sandoval,Rio Hondo,124.74,,,,,Single-ply,SBD,M
Boys,124.74,DQ,Carlos Lozano,McAllen IDEA College Prep,112.04,,,,,Single-ply,SBD,M
Boys,124.74,DQ,DeMarco Wolf,Edinburg Quest College Prep,124.74,,,,,Single-ply,SBD,M
Boys,124.74,DQ,Ryan Garcia,Edinburg Idea College Prep,124.74,185.97,,,,Single-ply,SBD,M
Boys,124.74,DQ,Aaron Noriega,PSJA,124.74,,,,,Single-ply,SBD,M
Boys,124.74+,1,Julio Hernandez,Brownsville Pace,125.19,331.12,192.78,272.16,796.05,Single-ply,SBD,M
Boys,124.74+,2,Sam Perez,Weslaco,127.28,317.51,183.7,235.87,737.09,Single-ply,SBD,M
Boys,124.74+,3,Jaden Brooks,Raymondville,159.66,219.99,129.27,233.6,582.87,Single-ply,SBD,M
Boys,124.74+,4,Gabriel Caram,Brownsville St. Joseph Academy,127.01,183.7,151.95,199.58,535.24,Single-ply,SBD,M
Boys,124.74+,DQ,Austin Contreras,Lyford,126.55,,,,,Single-ply,SBD,M
Boys,124.74+,DQ,Chris Rojas,Santa Rosa,125.19,,,,,Single-ply,SBD,M
Boys,124.74+,DQ,Rolando Zuniga,Rio Hondo,127.01,179.17,,,,Single-ply,SBD,M
Boys,,NS,Dominik Tamez,Raymondville,,,,,,Single-ply,SBD,M
Boys,,NS,Leo Garza #1,Raymondville,,,,,,Single-ply,SBD,M
Boys,,NS,Derrick Oltiveros,Raymondville,,,,,,Single-ply,SBD,M
