Division,WeightClassKg,Place,Name,Team,BodyweightKg,Best3SquatKg,Best3BenchKg,Best3DeadliftKg,TotalKg,Equipment,Event,Sex,BirthDate
Boys,51.71,1,Dustin Bland,Orange Little Cypress-Mauriceville,50.35,102.06,95.25,151.95,349.27,Single-ply,SBD,M,
Boys,51.71,2,Kenson Dubois,Orangefield,47.17,68.04,43.09,77.11,188.24,Single-ply,SBD,M,
Boys,55.79,1,Craig Moffett,Silsbee,54.88,156.49,88.45,156.49,401.43,Single-ply,SBD,M,
Boys,55.79,2,Landen Talley,Silsbee,55.79,136.08,83.91,138.35,358.34,Single-ply,SBD,M,
Boys,59.87,1,Blaine Lenard,Orangefield,58.51,113.4,61.23,115.67,290.3,Single-ply,SBD,M,
Boys,59.87,2,Major Copeland,Orangefield,58.97,68.04,54.43,102.06,224.53,Single-ply,SBD,M,
Boys,67.13,1,Kevin Luong,Orangefield,62.6,183.7,83.91,181.44,449.06,Single-ply,SBD,M,
Boys,67.13,2,Garrison Hughes,Orangefield,66.22,179.17,88.45,179.17,446.79,Single-ply,SBD,M,
Boys,67.13,3,Hayden Dwyer,Orangefield,66.22,154.22,90.72,158.76,403.7,Single-ply,SBD,M,
Boys,67.13,4,Airik Cast,Orange Little Cypress-Mauriceville,61.96,142.88,77.11,,219.99,Single-ply,SB,M,
Boys,74.84,1,Austin Taylor #5,Orangefield,72.12,183.7,113.4,208.65,505.76,Single-ply,SBD,M,
Boys,74.84,2,Kaden Baugh,Orange Little Cypress-Mauriceville,73.48,199.58,102.06,197.31,498.95,Single-ply,SBD,M,
Boys,74.84,3,Gunner Grimes,Orangefield,73.03,174.63,99.79,215.46,489.88,Single-ply,SBD,M,
Boys,74.84,4,Beau Elkins,Orangefield,73.48,183.7,111.13,183.7,478.54,Single-ply,SBD,M,
Boys,74.84,5,Dakota Williford,Orangefield,71.21,170.1,106.59,185.97,462.66,Single-ply,SBD,M,
Boys,74.84,6,Dustin Helm,West Orange-Stark,68.95,133.81,92.99,158.76,385.55,Single-ply,SBD,M,
Boys,74.84,7,Trevor Williams,Silsbee,68.95,142.88,72.57,151.95,367.41,Single-ply,SBD,M,
Boys,74.84,8,Kolby Arceneaux,Silsbee,71.67,124.74,74.84,136.08,335.66,Single-ply,SBD,M,
Boys,74.84,9,William Rodgers,Orange Little Cypress-Mauriceville,72.03,113.4,61.23,129.27,303.91,Single-ply,SBD,M,
Boys,82.1,1,Grant Metts,Orangefield,81.65,235.87,142.88,238.14,616.89,Single-ply,SBD,M,
Boys,82.1,2,Clint Williams,West Orange-Stark,82.1,219.99,115.67,222.26,557.92,Single-ply,SBD,M,
Boys,82.1,3,Jayden Smart,Silsbee,78.02,158.76,97.52,176.9,433.18,Single-ply,SBD,M,
Boys,82.1,4,Peyton Welch,Orange Little Cypress-Mauriceville,78.47,151.95,95.25,185.97,433.18,Single-ply,SBD,M,
Boys,82.1,5,Demarcus Warren,West Orange-Stark,79.38,151.95,83.91,151.95,387.82,Single-ply,SBD,M,
Boys,82.1,6,Jacob Higginbotham,Orangefield,75.3,124.74,65.77,138.35,328.85,Single-ply,SBD,M,
Boys,89.81,1,Diego Garcia,Orangefield,88.9,170.1,117.93,213.19,501.22,Single-ply,SBD,M,
Boys,89.81,2,Akilles Garcia,Orangefield,84.82,165.56,104.33,176.9,446.79,Single-ply,SBD,M,
Boys,89.81,3,Ethan Blackburn,Orangefield,84.37,142.88,83.91,163.29,390.09,Single-ply,SBD,M,
Boys,99.79,1,Dylan Whitman,Orangefield,99.34,240.4,142.88,226.8,610.08,Single-ply,SBD,M,
Boys,99.79,2,Cutler Hubbard,Orangefield,95.25,249.48,129.27,197.31,576.06,Single-ply,SBD,M,
Boys,99.79,3,Antonio Bolton,Silsbee,94.8,213.19,133.81,213.19,560.19,Single-ply,SBD,M,
Boys,99.79,4,Issac Morris,West Orange-Stark,91.17,183.7,106.59,208.65,498.95,Single-ply,SBD,M,
Boys,99.79,5,Joshua Sterling,West Orange-Stark,95.25,158.76,83.91,167.83,410.5,Single-ply,SBD,M,
Boys,99.79,6,Benjamin Luna,West Orange-Stark,92.99,142.88,88.45,149.69,381.02,Single-ply,SBD,M,
Boys,99.79,7,Josh Miller,West Orange-Stark,92.99,136.08,83.91,147.42,367.41,Single-ply,SBD,M,
Boys,99.79,8,Chris Probst,Silsbee,98.88,145.15,86.18,136.08,367.41,Single-ply,SBD,M,
Boys,109.77,1,Hunter Ashworth,Orangefield,106.14,283.5,147.42,235.87,666.78,Single-ply,SBD,M,
Boys,109.77,2,Ethan Meads,Orangefield,107.5,263.08,151.95,215.46,630.49,Single-ply,SBD,M,
Boys,109.77,3,Ja'Kalen Jenins,West Orange-Stark,107.5,142.88,88.45,161.03,392.36,Single-ply,SBD,M,
Boys,124.74,1,Hunter Norwood,Orangefield,116.12,294.84,183.7,251.74,730.28,Single-ply,SBD,M,
Boys,124.74,2,Ayden Bell,Silsbee,119.29,260.82,167.83,251.74,680.39,Single-ply,SBD,M,
Boys,124.74,3,Judah Huerta,West Orange-Stark,113.85,147.42,88.45,167.83,403.7,Single-ply,SBD,M,
Boys,124.74,4,Drayden Jagneaux,Silsbee,124.74,142.88,95.25,165.56,403.7,Single-ply,SBD,M,
Boys,139.71,1,Zach Tillman,Silsbee,127.91,267.62,185.97,226.8,680.39,Single-ply,SBD,M,
Boys,139.71,2,Davin Heard,West Orange-Stark,129.27,172.37,111.13,176.9,460.4,Single-ply,SBD,M,
Boys,139.71,3,Makellon Sells,West Orange-Stark,131.54,192.78,95.25,172.37,460.4,Single-ply,SBD,M,
Boys,139.71,4,Evan Gray,West Orange-Stark,135.62,170.1,97.52,161.03,428.64,Single-ply,SBD,M,
Boys,139.71+,1,Corbin McKinney,Silsbee,150.14,217.72,102.06,183.7,503.49,Single-ply,SBD,M,
