Division,WeightClassKg,Place,Name,Team,BodyweightKg,Best3SquatKg,Best3BenchKg,Best3DeadliftKg,TotalKg,Equipment,Event,Sex
Boys,51.71,1,Zachary Tucker,Perrin-Whitt,51.12,95.25,52.16,99.79,247.21,Single-ply,SBD,M
Boys,51.71,2,Jake Morris,Bowie,51.62,79.38,54.43,102.06,235.87,Single-ply,SBD,M
Boys,59.87,1,Jordan Whiteside,Peaster,56.02,138.35,102.06,158.76,399.16,Single-ply,SBD,M
Boys,55.79,2,Daniel Pafford,Godley,53.84,142.88,65.77,145.15,353.8,Single-ply,SBD,M
Boys,55.79,3,Grayson Parker,Godley,53.93,124.74,74.84,127.01,326.59,Single-ply,SBD,M
Boys,55.79,4,Josh Vandygrift,Godley,55.11,124.74,68.04,127.01,319.78,Single-ply,SBD,M
Boys,55.79,5,Juan Mares,Bowie,53.84,117.93,72.57,122.47,312.98,Single-ply,SBD,M
Boys,55.79,DQ,Angel Garza,Decatur,54.7,111.13,,124.74,,Single-ply,SBD,M
Boys,59.87,1,Cristian Martinez,Bowie,59.78,172.37,95.25,197.31,464.93,Single-ply,SBD,M
Boys,59.87,2,Jared Holmes #2,Perrin-Whitt,58.56,124.74,77.11,165.56,367.41,Single-ply,SBD,M
Boys,67.13,3,Kade Weldon,Jacksboro,60.1,131.54,79.38,147.42,358.34,Single-ply,SBD,M
Boys,59.87,4,Marc Lara,Decatur,58.79,127.01,63.5,138.35,328.85,Single-ply,SBD,M
Boys,59.87,5,Zack Allen #1,Ponder,56.79,120.2,65.77,133.81,319.78,Single-ply,SBD,M
Boys,59.87,6,Colton Box,Burkburnett,57.52,102.06,86.18,131.54,319.78,Single-ply,SBD,M
Boys,59.87,7,Dawson Thompson,Decatur,57.24,104.33,65.77,133.81,303.91,Single-ply,SBD,M
Boys,59.87,8,Seth Flusche,Muenster,56.88,102.06,61.23,108.86,272.16,Single-ply,SBD,M
Boys,59.87,9,Devin Brinkley,Muenster,58.24,106.59,54.43,111.13,272.16,Single-ply,SBD,M
Boys,67.13,1,Brandon Garza,Decatur,66.32,179.17,102.06,181.44,462.66,Single-ply,SBD,M
Boys,67.13,2,Marcos Morales,Decatur,63.68,161.03,104.33,181.44,446.79,Single-ply,SBD,M
Boys,67.13,3,Tinnin Smith,Jacksboro,65.68,163.29,104.33,163.29,430.91,Single-ply,SBD,M
Boys,67.13,4,J. Paul Axtell,Olney,62.91,158.76,92.99,163.29,415.04,Single-ply,SBD,M
Boys,67.13,5,Wyat Burrows,Olney,63.82,145.15,79.38,172.37,396.89,Single-ply,SBD,M
Boys,67.13,6,Jesus Gam,Decatur,62.87,147.42,83.91,151.95,383.29,Single-ply,SBD,M
Boys,67.13,7,Noah Ballard,Olney,63.23,136.08,77.11,163.29,376.48,Single-ply,SBD,M
Boys,67.13,8,Josh Wells,Jacksboro,66.41,131.54,72.57,167.83,371.95,Single-ply,SBD,M
Boys,67.13,9,Kalyb Conner,Paradise,61.64,140.61,74.84,138.35,353.8,Single-ply,SBD,M
Boys,67.13,10,Gage Williams,Petrolia,64.64,124.74,68.04,149.69,342.46,Single-ply,SBD,M
Boys,67.13,11,Casey Riggs,Bridgeport,62.28,129.27,70.31,136.08,335.66,Single-ply,SBD,M
Boys,67.13,12,Ryan Dunn,Bridgeport,65.05,122.47,74.84,136.08,333.39,Single-ply,SBD,M
Boys,67.13,13,Chase Deeken,Muenster,66.9,117.93,77.11,124.74,319.78,Single-ply,SBD,M
Boys,74.84,14,Nakoda Mastin,Bridgeport,67.27,104.33,72.57,136.08,312.98,Single-ply,SBD,M
Boys,67.13,15,Derek Thacker,Valley View,60.51,127.01,61.23,115.67,303.91,Single-ply,SBD,M
Boys,67.13,16,Sawyer Przilas,Bowie,64.09,108.86,65.77,129.27,303.91,Single-ply,SBD,M
Boys,67.13,17,Brayden Kennington,Peaster,62.23,102.06,79.38,113.4,294.84,Single-ply,SBD,M
Boys,67.13,18,Landon Washburn,Petrolia,63.91,111.13,68.04,115.67,294.84,Single-ply,SBD,M
Boys,67.13,19,Brian Munn,Bridgeport,61.51,90.72,65.77,131.54,288.03,Single-ply,SBD,M
Boys,67.13,20,Regi Lane,Bridgeport,66.9,108.86,52.16,120.2,281.23,Single-ply,SBD,M
Boys,67.13,21,Sammy Saucer,Muenster,61.46,104.33,52.16,102.06,258.55,Single-ply,SBD,M
Boys,67.13,22,Carson Cheaney,Muenster,65.82,104.33,52.16,102.06,258.55,Single-ply,SBD,M
Boys,67.13,23,Ethan Flamming,Muenster,65.95,99.79,54.43,102.06,256.28,Single-ply,SBD,M
Boys,67.13,DQ,Kellen McCauley,Bridgeport,62.19,68.04,40.82,97.52,,Single-ply,SBD,M
Boys,67.13,DQ,Jett Reynolds,Bridgeport,61.33,92.99,,111.13,,Single-ply,SBD,M
Boys,74.84,1,Abraham Landaverde,Bowie,68.67,188.24,108.86,183.7,480.81,Single-ply,SBD,M
Boys,74.84,2,Roger Mastin,Bridgeport,72.94,154.22,95.25,199.58,449.06,Single-ply,SBD,M
Boys,74.84,3,Dillon McAlister,Bridgeport,72.44,154.22,92.99,199.58,446.79,Single-ply,SBD,M
Boys,74.84,4,Crese Redman,Chico,69.17,181.44,79.38,181.44,442.25,Single-ply,SBD,M
Boys,74.84,5,Grayson Cobb,Paradise,70.49,181.44,88.45,172.37,442.25,Single-ply,SBD,M
Boys,74.84,6,Parker Marshall,Nocona,74.75,149.69,97.52,156.49,403.7,Single-ply,SBD,M
Boys,74.84,7,Alex Cordova,Bridgeport,72.39,131.54,104.33,131.54,367.41,Single-ply,SBD,M
Boys,74.84,8,Jacob Hull,Jacksboro,73.89,131.54,77.11,156.49,365.14,Single-ply,SBD,M
Boys,74.84,9,Lane Morrow,Bridgeport,71.67,138.35,72.57,145.15,356.07,Single-ply,SBD,M
Boys,74.84,10,Jonathan McCombs,Lake Worth,70.99,133.81,81.65,136.08,351.53,Single-ply,SBD,M
Boys,74.84,11,Jacob Stacy,Petrolia,71.99,111.13,70.31,124.74,306.17,Single-ply,SBD,M
Boys,74.84,12,Jack Fulcher,Godley,72.03,104.33,77.11,108.86,290.3,Single-ply,SBD,M
Boys,74.84,13,Caden Fields,Muenster,68.67,102.06,58.97,99.79,260.82,Single-ply,SBD,M
Boys,74.84,DQ,Nick Anderson,Bridgeport,74.39,117.93,61.23,122.47,,Single-ply,SBD,M
Boys,74.84,DQ,Andrew Tovar,Bridgeport,69.58,97.52,61.23,124.74,,Single-ply,SBD,M
Boys,74.84,DQ,Colton McCarroll,Ponder,72.94,154.22,,154.22,,Single-ply,SBD,M
Boys,74.84,DQ,Hunter Abston,Olney,71.85,,,,,Single-ply,SBD,M
Boys,74.84,DQ,Davion Davis,Burkburnett,70.9,,,,,Single-ply,SBD,M
Boys,89.81,1,Austin Bennett,Ponder,82.15,201.85,113.4,195.04,510.29,Single-ply,SBD,M
Boys,82.1,2,Kolby Youngblood,Burkburnett,80.78,188.24,120.2,163.29,471.74,Single-ply,SBD,M
Boys,82.1,3,Magnum Sampson,Ponder,77.38,199.58,102.06,165.56,467.2,Single-ply,SBD,M
Boys,82.1,4,Manuel Fierro,Lake Worth,78.93,165.56,113.4,161.03,439.98,Single-ply,SBD,M
Boys,82.1,5,Cole Gardner,Ponder,80.51,170.1,88.45,170.1,428.64,Single-ply,SBD,M
Boys,82.1,6,Tyler Martin,Perrin-Whitt,78.47,145.15,81.65,172.37,399.16,Single-ply,SBD,M
Boys,82.1,7,Juan Mancilla,Nocona,75.75,133.81,70.31,158.76,362.87,Single-ply,SBD,M
Boys,82.1,8,Jonathan Green,Jacksboro,78.11,129.27,81.65,131.54,342.46,Single-ply,SBD,M
Boys,82.1,9,Miguel Bravo,Valley View,80.69,124.74,74.84,124.74,324.32,Single-ply,SBD,M
Boys,82.1,10,Brandon Guilkey,Peaster,77.25,95.25,79.38,117.93,292.57,Single-ply,SBD,M
Boys,82.1,DQ,Landon Bale,Burkburnett,81.6,,106.59,,,Single-ply,SBD,M
Boys,99.79,1,Ben Dankesreiter,Ponder,89.99,226.8,104.33,170.1,501.22,Single-ply,SBD,M
Boys,89.81,2,Adrian Cantu,Decatur,85.46,174.63,92.99,176.9,444.52,Single-ply,SBD,M
Boys,89.81,3,Jason Escobedo,Lake Worth,88.13,172.37,102.06,170.1,444.52,Single-ply,SBD,M
Boys,89.81,4,Dalton Hess,Muenster,88.41,163.29,88.45,158.76,410.5,Single-ply,SBD,M
Boys,89.81,5,Lucas Ramsey,Perrin-Whitt,88.68,151.95,92.99,158.76,403.7,Single-ply,SBD,M
Boys,89.81,6,Logan Ramsey,Perrin-Whitt,87.68,147.42,99.79,145.15,392.36,Single-ply,SBD,M
Boys,89.81,7,Brandon Clowers,Decatur,87.95,138.35,74.84,138.35,351.53,Single-ply,SBD,M
Boys,89.81,8,Devin Lummus,Godley,88.95,138.35,88.45,122.47,349.27,Single-ply,SBD,M
Boys,89.81,9,Tristan Barbare,Perrin-Whitt,88.27,122.47,74.84,136.08,333.39,Single-ply,SBD,M
Boys,89.81,10,Chance Arendt,Burkburnett,84.14,106.59,77.11,142.88,326.59,Single-ply,SBD,M
Boys,89.81,11,Taylor Colley,Petrolia,88.13,117.93,79.38,127.01,324.32,Single-ply,SBD,M
Boys,89.81,DQ,Cole Hall,Perrin-Whitt,83.87,136.08,,,,Single-ply,SBD,M
Boys,89.81,DQ,Phillip Bennett,Ponder,84.19,154.22,,138.35,,Single-ply,SBD,M
Boys,99.79,1,Dakota Williams #1,Decatur,98.29,242.67,129.27,256.28,628.23,Single-ply,SBD,M
Boys,99.79,2,Drew McVicker,Olney,96.93,256.28,158.76,210.92,625.96,Single-ply,SBD,M
Boys,99.79,3,Jon Guerra,Olney,98.16,235.87,131.54,210.92,578.33,Single-ply,SBD,M
Boys,99.79,4,Cameron Starnes,Chico,91.44,238.14,113.4,188.24,539.77,Single-ply,SBD,M
Boys,99.79,5,Rey Lomas,Valley View,99.02,210.92,129.27,174.63,514.83,Single-ply,SBD,M
Boys,99.79,6,Danny Wood,Burkburnett,94.35,185.97,102.06,204.12,492.15,Single-ply,SBD,M
Boys,109.77,7,Tyler Alexander,Chico,99.84,181.44,102.06,204.12,487.61,Single-ply,SBD,M
Boys,99.79,8,Keston Wood,Petrolia,93.85,161.03,120.2,163.29,444.52,Single-ply,SBD,M
Boys,99.79,9,Dylan Hudson,Olney,95.39,158.76,106.59,176.9,442.25,Single-ply,SBD,M
Boys,99.79,10,Cody Armstrong,Chico,94.39,181.44,86.18,163.29,430.91,Single-ply,SBD,M
Boys,109.77,11,Demetri Hendrick,Bridgeport,99.97,170.1,65.77,183.7,419.57,Single-ply,SBD,M
Boys,99.79,12,Brendan Fruth,Ponder,93.12,161.03,90.72,145.15,396.89,Single-ply,SBD,M
Boys,99.79,13,Channing Hamilton,Paradise,94.3,156.49,104.33,136.08,396.89,Single-ply,SBD,M
Boys,99.79,14,Jeremy Ansley,Lake Worth,90.58,124.74,83.91,138.35,347,Single-ply,SBD,M
Boys,99.79,15,Jake Kemp,Decatur,92.9,120.2,83.91,142.88,347,Single-ply,SBD,M
Boys,99.79,16,Tyler Jones #3,Petrolia,98.61,102.06,52.16,131.54,285.76,Single-ply,SBD,M
Boys,99.79,DQ,Mitch Fruth,Ponder,97.43,192.78,,,,Single-ply,SBD,M
Boys,99.79,DQ,Alex Winter,Bridgeport,92.17,124.74,,,,Single-ply,SBD,M
Boys,109.77,1,Allen Mullis,Ponder,108.73,226.8,165.56,192.78,585.13,Single-ply,SBD,M
Boys,109.77,2,Graham Cowdrey,Decatur,108.86,229.06,149.69,199.58,578.33,Single-ply,SBD,M
Boys,109.77,3,Tyler Jennings,Bridgeport,105.73,188.24,151.95,192.78,532.97,Single-ply,SBD,M
Boys,109.77,4,Terry Lee Hogan,Decatur,108.86,197.31,113.4,206.38,517.1,Single-ply,SBD,M
Boys,109.77,5,Chance Pierce,Bridgeport,104.55,163.29,131.54,215.46,510.29,Single-ply,SBD,M
Boys,109.77,6,Deric Conner,Paradise,108.41,172.37,106.59,142.88,421.84,Single-ply,SBD,M
Boys,109.77,7,Haden Snodgrass,Bridgeport,106.91,129.27,88.45,181.44,399.16,Single-ply,SBD,M
Boys,109.77,8,Kolton Trevino,Lake Worth,109.32,113.4,92.99,147.42,353.8,Single-ply,SBD,M
Boys,109.77,DQ,Hunter Coleman,Bridgeport,108.09,,79.38,147.42,,Single-ply,SBD,M
Boys,124.74,1,Rickey Roberts,Decatur,117.66,238.14,142.88,249.48,630.49,Single-ply,SBD,M
Boys,124.74,2,Bronson Burks,Bridgeport,121.88,249.48,136.08,244.94,630.49,Single-ply,SBD,M
Boys,124.74,3,David Correa,Bowie,118.25,231.33,131.54,215.46,578.33,Single-ply,SBD,M
Boys,124.74,4,Diamond Cardona,Godley,111.4,219.99,124.74,231.33,576.06,Single-ply,SBD,M
Boys,124.74,5,Saul Landaverde,Bowie,111.99,238.14,124.74,206.38,569.26,Single-ply,SBD,M
Boys,124.74,6,Nate Ramirez,Bridgeport,111.45,142.88,92.99,147.42,383.29,Single-ply,SBD,M
Boys,124.74,7,Eric Stonecheck,Bridgeport,123.1,117.93,72.57,170.1,360.61,Single-ply,SBD,M
Boys,124.74,8,Samuel Davidson,Lake Worth,122.02,102.06,70.31,104.33,276.69,Single-ply,SBD,M
Boys,124.74,DQ,Max Driscoll,Godley,123.79,226.8,174.63,,,Single-ply,SBD,M
Boys,124.74,DQ,Jacob Boswell,Burkburnett,117.34,204.12,127.01,,,Single-ply,SBD,M
Boys,124.74,DQ,Ty White,Valley View,112.99,,,,,Single-ply,SBD,M
Boys,124.74+,1,Jacob Hartsell,Decatur,144.38,235.87,188.24,247.21,671.32,Single-ply,SBD,M
Boys,124.74+,2,Thomas Waite,Ponder,125.06,283.5,165.56,181.44,630.49,Single-ply,SBD,M
Boys,124.74+,3,Anthony Ortiz,Bridgeport,132.77,190.51,124.74,197.31,512.56,Single-ply,SBD,M
Boys,124.74+,4,Keaton Vawter,Bridgeport,129.55,142.88,113.4,181.44,437.72,Single-ply,SBD,M
Boys,124.74+,5,Caleb Jennings,Bridgeport,138.53,117.93,81.65,127.01,326.59,Single-ply,SBD,M
Boys,,NS,Billy Brown,Bowie,,,,,,Single-ply,SBD,M
Boys,,NS,Dillion Grider,Burkburnett,,,,,,Single-ply,SBD,M
Boys,,NS,Gabino Ramos,Jacksboro,,,,,,Single-ply,SBD,M
Boys,,NS,Javier Venegas,Valley View,,,,,,Single-ply,SBD,M
Boys,,NS,Jack Walker,Valley View,,,,,,Single-ply,SBD,M
Boys,,NS,Zach Cardenas,Olney,,,,,,Single-ply,SBD,M
Boys,,NS,Derek Uselton,Paradise,,,,,,Single-ply,SBD,M
Boys,,NS,Abraham Marftinez,Lake Worth,,,,,,Single-ply,SBD,M
Boys,,NS,Jesus Morales #2,Lake Worth,,,,,,Single-ply,SBD,M
Boys,,NS,Javier Canales,Lake Worth,,,,,,Single-ply,SBD,M
Boys,,NS,Baily Robertson,Lake Worth,,,,,,Single-ply,SBD,M
Boys,,NS,Dallas Salinas,Jacksboro,,,,,,Single-ply,SBD,M
Boys,,NS,Zane Kemp,Muenster,,,,,,Single-ply,SBD,M
Boys,,NS,Kyle Klement,Muenster,,,,,,Single-ply,SBD,M
Boys,,NS,Baily McCoy,Muenster,,,,,,Single-ply,SBD,M
Boys,,NS,Alex Anchondo,Lake Worth,,,,,,Single-ply,SBD,M
