Name,Sex,Event,Equipment,BirthDate,BodyweightKg,Age,Division,WeightClassKg,Squat1Kg,Squat2Kg,Squat3Kg,Best3SquatKg,Bench1Kg,Bench2Kg,Bench3Kg,Best3BenchKg,Deadlift1Kg,Deadlift2Kg,Deadlift3Kg,Best3DeadliftKg,TotalKg,Place
Carolina González De León,F,SBD,Wraps,1985-05-08,46.9,33,Open,48,75,82.5,-87.5,82.5,35,37.5,40,40,85,95,100,100,222.5,1
Solana Chasampi,F,SBD,Wraps,1998-02-28,56.8,20,Jun,60,120,130,-135,130,52.5,60,-62.5,60,140,-150,-150,140,330,1
Mariana Vieytes,F,SBD,Wraps,1987-03-24,56.95,31,Open,60,-120,120,130,130,50,60,65,65,120,130,140,140,335,1
Lorena Rojas,F,SBD,Wraps,1979-03-06,61.7,39,Open,67.5,130,-142.5,142.5,142.5,50,62.5,-65,62.5,130,150,162.5,162.5,367.5,1
Aixa Tebaldi,F,SBD,Wraps,1993-10-28,71.8,25,Open,75,160,170,180,180,80,90,92.5,92.5,150,165,-177.5,165,437.5,1
Nicolas Soria,M,SBD,Wraps,1997-07-18,64.2,21,Jun,67.5,115,122.5,-132.5,122.5,72.5,77.5,-80,77.5,120,127.5,135,135,335,1
Leonardo Moreno,M,SBD,Wraps,1988-07-31,67.3,30,Open,67.5,180,195,-210,195,110,120,-130,120,180,200,-210,200,515,1
Ezequiel Mosquera,M,SBD,Wraps,1994-10-05,66.7,24,Open,67.5,165,175,-182.5,175,80,87.5,92.5,92.5,150,165,180,180,447.5,2
Roberto Poblete,M,SBD,Wraps,1981-06-19,65.8,37,Open,67.5,90,100,110,110,50,60,-65,60,110,125,137.5,137.5,307.5,3
Agustin Ercolano,M,SBD,Wraps,2001-05-28,82.45,17,Tn 16-17,82.5,130,140,150,150,65,75,80,80,130,140,150,150,380,3
Gianfranco Slepetis,M,SBD,Wraps,2001-05-02,79.9,17,Tn 16-17,82.5,175,-190,-200,175,100,115,125,125,190,205,215,215,515,1
Marco Percivaldi,M,SBD,Wraps,2001-04-16,80.5,17,Tn 16-17,82.5,150,170,180,180,85,90,95,95,155,175,-190,175,450,2
Agustin Garcia,M,SBD,Wraps,1995-06-17,77.1,23,Jun,82.5,135,140,152.5,152.5,95,100,-105,100,155,160,170,170,422.5,1
Fabio Golfarb,M,SBD,Wraps,1986-03-23,73.5,32,Open,75,-220,-220,-220,,,,,,,,,,,DQ
Leandro Albornoz,M,SBD,Wraps,1992-09-15,74.8,26,Open,75,-240,240,-257.5,240,130,140,,140,245,-260,-260,245,625,1
Maximiliano Brito,M,SBD,Wraps,1993-11-01,82.45,25,Open,82.5,120,135,145,145,100,110,120,120,140,160,182.5,182.5,447.5,4
Jose Maria Acevedo,M,SBD,Wraps,1984-01-18,81.35,34,Open,82.5,212.5,-237.5,-237.5,212.5,130,145,152.5,152.5,247.5,275,-290,275,640,1
Eduardo Pereyra,M,SBD,Wraps,,79.8,,Open,82.5,140,160,170,170,85,95,102.5,102.5,190,205,215,215,487.5,1
Oscar Rosales,M,SBD,Wraps,1991-07-07,81.25,27,Open,82.5,205,215,222.5,222.5,130,145,-150,145,230,240,-250,240,607.5,2
Juan Taborda,M,SBD,Wraps,1991-10-26,81.2,27,Open,82.5,-195,195,210,210,100,110,-120,110,210,225,240,240,560,3
Federico Quiñonez,M,SBD,Wraps,2000-04-10,85.3,18,Tn 18-19,90,220,-235,235,235,117.5,125,132.5,132.5,210,225,240,240,607.5,1
Guido Gola,M,SBD,Wraps,1996-11-05,90,22,Jun,90,245,-260,-265,245,155,165,172.5,172.5,240,255,265,265,682.5,1
Juan Manavella,M,SBD,Wraps,1977-12-15,105.3,40,M 40-49,110,260,280,,280,150,-160,,150,260,275,-290,275,705,1
Enrique Barrionuevo,M,SBD,Wraps,1968-11-01,118.2,50,M 50-59,125,220,240,,240,140,160,170,170,180,200,220,220,630,1
Eduardo Peloso,M,SBD,Wraps,1956-10-20,93.5,62,M 60-69,100,-140,140,-150,140,95,100,102.5,102.5,145,155,165,165,407.5,1
Sergio Kimmel,M,SBD,Wraps,1979-01-02,88.25,39,Open,90,190,-210,-220,190,100,120,-125,120,200,220,240,240,550,3
Julio Travaglia,M,SBD,Wraps,1980-09-21,89.95,38,Open,90,205,220,-232.5,220,135,145,150,150,215,-230,230,230,600,2
Jose Salgado,M,SBD,Wraps,1993-08-10,87,25,Open,90,-310,310,330,330,175,185,,185,285,305,315,315,830,1
Joel Leguizamon,M,SBD,Wraps,1994-07-24,87.6,24,Open,90,-170,-170,175,175,-100,105,112.5,112.5,170,185,-190,185,472.5,7
Sergio Iglesias,M,SBD,Wraps,1986-05-22,85.3,32,Open,90,190,-210,-210,190,110,120,-130,120,195,210,220,220,530,4
Adolfo Cima,M,SBD,Wraps,1986-05-05,86.6,32,Open,90,180,-190,190,190,95,100,110,110,-180,200,210,210,510,6
Ezequiel del Rio,M,SBD,Wraps,1987-11-21,88.9,31,Open,90,150,165,180,180,120,130,140,140,180,200,-220,200,520,5
Alejo Phillip,M,SBD,Wraps,1994-12-18,96.75,23,Jun,100,250,270,-280,270,152.5,162.5,-167.5,162.5,245,260,265,265,697.5,2
Francisco Varela,M,SBD,Wraps,1995-01-14,99.6,23,Jun,100,280,300,-315,300,170,172.5,190,190,-280,300,315,315,805,1
Roberto Gunsett,M,SBD,Wraps,1993-07-03,98,25,Open,100,250,270,-290,270,130,-140,-140,130,215,230,-240,230,630,3
Emiliano Barrionuevo,M,SBD,Wraps,1991-12-24,99.45,26,Open,100,250,270,-280,270,160,172.5,,172.5,280,300,-305,300,742.5,1
Leonel Ortiz,M,SBD,Wraps,1985-06-16,94.5,33,Open,100,230,240,-250,240,130,140,-150,140,240,250,270,270,650,2
Leonardo Tejada,M,SBD,Wraps,1997-12-25,108.9,20,Jun,110,-270,270,-290,270,165,175,180,180,245,260,280,280,730,1
Martin Fraguas,M,SBD,Wraps,1981-09-15,103.5,37,Open,110,190,200,-210,200,100,107.5,115,115,180,190,200,200,515,2
Andres Hugo,M,SBD,Wraps,1979-12-29,109.75,38,Open,110,320,-345,-345,320,165,-172.5,,165,240,250,260,260,745,1
Soledad Gambarte,F,B,Raw,1997-01-15,51.8,21,Jun,52,,,,,40,45,-50,45,,,,,45,2
Mariana Amarilla,F,B,Raw,1996-12-11,50.7,21,Jun,52,,,,,40,45,47.5,47.5,,,,,47.5,1
Ulises Mendez,M,B,Raw,1998-01-08,66.3,20,Jun,67.5,,,,,100,110,-117.5,110,,,,,110,2
Francisco Rumi,M,B,Raw,1996-05-16,66,22,Jun,67.5,,,,,115,120,125,125,,,,,125,1
Pablo Alvarez,M,B,Raw,1981-02-25,59.45,37,Open,60,,,,,-80,80,87.5,87.5,,,,,87.5,1
Julian Lusa,M,B,Raw,2001-04-27,73.2,17,Tn 16-17,75,,,,,102.5,110,-112.5,110,,,,,110,1
Leandro Filippini,M,B,Raw,1998-02-23,68.7,20,Jun,75,,,,,100,110,-115,110,,,,,110,1
Cristian Muñoz,M,B,Raw,1984-05-14,74.7,34,Open,75,,,,,130,135,,135,,,,,135,1
Pablo Silva,M,B,Raw,1990-08-30,77.4,28,Open,82.5,,,,,100,110,117.5,117.5,,,,,117.5,1
Maximiliano Odino,M,B,Raw,1977-01-13,88.6,41,M 40-49,90,,,,,160,172.5,-180,172.5,,,,,172.5,1
Lucas Basualdo,M,B,Raw,1981-02-20,90,37,Open,90,,,,,110,112.5,115,115,,,,,115,1
Sergio Tomassoni,M,B,Raw,1969-12-27,89.6,48,M 40-49,90,,,,,150,165,170,170,,,,,170,2
Carlos Porta,M,B,Raw,1933-02-03,89.3,85,M 80+,90,,,,,75,80,85,85,,,,,85,1
Franco Elizaran,M,B,Raw,1996-10-07,103.4,22,Jun,110,,,,,125,135,145,145,,,,,145,1
Joaquin Sendro,M,B,Raw,1998-11-15,97,20,Jun,100,,,,,125,135,140,140,,,,,140,1
Lisandro Pascuale,M,B,Raw,1968-01-07,98.7,50,M 50-59,100,,,,,120,135,140,140,,,,,140,1
Erik Flores Ansaldo,M,B,Raw,,108.3,,Open,110,,,,,160,170,180,180,,,,,180,1
Nicolas Pato,M,B,Raw,1984-04-16,113.1,34,Open,125,,,,,210,217.5,222.5,222.5,,,,,222.5,1
Cristian Ferrarotti,M,B,Raw,1978-11-13,113.1,40,M 40-49,125,,,,,130,142.5,147.5,147.5,,,,,147.5,1
Gabriel Lopez,M,B,Raw,1977-03-06,129.5,41,M 40-49,140,,,,,150,165,170,170,,,,,170,1
Jesica Jara,F,D,Raw,1986-05-30,54,32,Open,56,,,,,,,,,95,105,115,115,115,1
Maria Fernanda Godoy Cruz,F,D,Raw,1979-12-11,76.4,38,Open,82.5,,,,,,,,,120,130,140,140,140,1
Francisco Rumi,M,D,Raw,1996-05-16,66,22,Jun,67.5,,,,,,,,,145,162.5,-180,162.5,162.5,2
Martin Galvan,M,D,Raw,1993-11-09,62.9,25,Open,67.5,,,,,,,,,160,175,185,185,185,1
Emiliano Lopez,M,D,Raw,1996-03-18,65.6,22,Jun,67.5,,,,,,,,,210,220,230,230,230,1
Leandro Filippini,M,D,Raw,1998-02-23,68.75,20,Jun,75,,,,,,,,,140,155,165,165,165,1
Massimiliano Sannipoli,M,D,Raw,1969-08-18,76,49,M 40-49,82.5,,,,,,,,,140,150,160,160,160,1
Nicolas Giglio,M,D,Raw,1997-05-21,80.3,21,Jun,82.5,,,,,,,,,200,-220,230,230,230,1
Rodrigo Montes,M,D,Raw,1995-12-14,88.2,22,Jun,90,,,,,,,,,205,217.5,-225,217.5,217.5,1
Facundo Perez,M,D,Raw,1995-03-29,81.9,23,Jun,82.5,,,,,,,,,180,195,200,200,200,2
Marcos Velazquez,M,D,Raw,,77.6,,Open,82.5,,,,,,,,,190,-200,200,200,200,1
Júlio Chavez #1,M,D,Raw,1952-08-19,88.5,66,M 60-69,90,,,,,,,,,160,-180,-200,160,160,1
Franco Elizaran,M,D,Raw,1996-10-07,103.4,22,Jun,110,,,,,,,,,215,230,245,245,245,1
Lisandro Pascuale,M,D,Raw,1968-01-07,98.7,50,M 50-59,100,,,,,,,,,180,200,,200,200,1
