Division,WeightClassKg,Place,Name,Team,BodyweightKg,Best3SquatKg,Best3BenchKg,Best3DeadliftKg,TotalKg,Equipment,Event,Sex
Girls,44.23,1,Emily Cartwright,San Antonio East Central,44.23,72.57,34.02,86.18,192.78,Single-ply,SBD,F
Girls,44.23,2,Kelsey White,Georgetown East View,43.82,63.5,36.29,83.91,183.7,Single-ply,SBD,F
Girls,47.85,1,LeUyen Do,Georgetown East View,46.99,111.13,52.16,115.67,278.96,Single-ply,SBD,F
Girls,47.85,2,Victoria Schupp,Dripping Springs,47.45,65.77,43.09,86.18,195.04,Single-ply,SBD,F
Girls,47.85,3,Julissa Gonzalez,Kyle Lehman,45.9,72.57,40.82,79.38,192.78,Single-ply,SBD,F
Girls,51.94,1,Victoria Smith,Kyle Lehman,50.53,86.18,31.75,86.18,204.12,Single-ply,SBD,F
Girls,51.94,2,Devyn De La Torre,San Antonio East Central,50.71,70.31,29.48,83.91,183.7,Single-ply,SBD,F
Girls,51.94,3,Joslyn Daniel,San Antonio East Central,51.35,47.63,31.75,61.23,140.61,Single-ply,SBD,F
Girls,51.94,4,Dixi Cordell,Georgetown East View,51.35,49.9,22.68,34.02,106.59,Single-ply,SBD,F
Girls,56.02,1,Victoria Kortz,Geronimo Navarro,55.79,83.91,40.82,95.25,219.99,Single-ply,SBD,F
Girls,56.02,2,Mariah Guajardo,Kyle Lehman,56.02,88.45,34.02,88.45,210.92,Single-ply,SBD,F
Girls,60.1,1,Aileen Andrew,Georgetown East View,58.15,117.93,65.77,127.01,310.71,Single-ply,SBD,F
Girls,60.1,2,Gloria Horton,Lockhart,58.97,117.93,43.09,131.54,292.57,Single-ply,SBD,F
Girls,60.1,3,Ileana Gonzales,Lockhart,57.24,104.33,52.16,124.74,281.23,Single-ply,SBD,F
Girls,60.1,4,Jules Peterson,Dripping Springs,58.33,108.86,49.9,117.93,276.69,Single-ply,SBD,F
Girls,60.1,5,Laurel Eeds,Lockhart,59.6,104.33,40.82,127.01,272.16,Single-ply,SBD,F
Girls,60.1,6,Savanna Russell,Geronimo Navarro,59.87,97.52,49.9,102.06,249.48,Single-ply,SBD,F
Girls,60.1,7,Cassidy Arriaga,Seguin,58.24,79.38,45.36,83.91,208.65,Single-ply,SBD,F
Girls,60.1,8,Sarai Saldana,Seguin,57.42,74.84,34.02,88.45,197.31,Single-ply,SBD,F
Girls,60.1,DQ,Gillian Giddings,San Antonio East Central,56.15,79.38,,,,Single-ply,SBD,F
Girls,67.36,1,Katie Smith #4,Georgetown East View,64.95,120.2,63.5,124.74,308.44,Single-ply,SBD,F
Girls,67.36,2,Olivia Perry,Dripping Springs,64.5,111.13,56.7,136.08,303.91,Single-ply,SBD,F
Girls,67.36,3,Stephanie Jiminez,Georgetown East View,61.6,115.67,45.36,120.2,281.23,Single-ply,SBD,F
Girls,67.36,4,Alyssa Buehler,Dripping Springs,66.04,106.59,56.7,117.93,281.23,Single-ply,SBD,F
Girls,67.36,5,Lauren Yanez,Lockhart,66.04,111.13,47.63,115.67,274.42,Single-ply,SBD,F
Girls,67.36,6,Sara Urbanski,Lockhart,63.59,104.33,45.36,106.59,256.28,Single-ply,SBD,F
Girls,67.36,7,Rashida Rosalez,Seguin,67.13,102.06,43.09,111.13,256.28,Single-ply,SBD,F
Girls,67.36,8,Caitlin Innes,Geronimo Navarro,66.68,95.25,45.36,97.52,238.14,Single-ply,SBD,F
Girls,67.36,9,Maddie Bowen,Kyle Lehman,66.86,88.45,43.09,95.25,226.8,Single-ply,SBD,F
Girls,67.36,10,Emily Dasher,Seguin,66.41,83.91,34.02,95.25,213.19,Single-ply,SBD,F
Girls,67.36,11,Holly Clarke #3,Dripping Springs,64.68,72.57,34.02,90.72,197.31,Single-ply,SBD,F
Girls,67.36,12,Natalie Ruiz,San Antonio East Central,64.41,49.9,27.22,70.31,147.42,Single-ply,SBD,F
Girls,75.07,1,Audrey Gonzales,Geronimo Navarro,71.4,124.74,56.7,133.81,315.25,Single-ply,SBD,F
Girls,75.07,2,Makenzie Quiros,Geronimo Navarro,72.94,111.13,56.7,122.47,290.3,Single-ply,SBD,F
Girls,75.07,3,Mia Palomarez,Kyle Lehman,68.04,117.93,54.43,99.79,272.16,Single-ply,SBD,F
Girls,75.07,4,Erendida Arzola,Kyle Lehman,70.03,102.06,47.63,111.13,260.82,Single-ply,SBD,F
Girls,75.07,5,Savannah McDougall,Kyle Lehman,73.12,95.25,52.16,99.79,247.21,Single-ply,SBD,F
Girls,75.07,6,Regan Person,Geronimo Navarro,69.4,92.99,40.82,108.86,242.67,Single-ply,SBD,F
Girls,75.07,7,Anais Flores,Seguin,68.76,74.84,43.09,99.79,217.72,Single-ply,SBD,F
Girls,75.07,8,Tierra Green,Seguin,71.67,77.11,38.56,99.79,215.46,Single-ply,SBD,F
Girls,75.07,DQ,Abigail Turrubiartes,Kyle Lehman,68.76,92.99,43.09,,,Single-ply,SBD,F
Girls,82.33,1,Robyn Young,Marion,78.74,145.15,56.7,156.49,358.34,Single-ply,SBD,F
Girls,82.33,2,Megan Salmon,Georgetown East View,80.92,129.27,68.04,138.35,335.66,Single-ply,SBD,F
Girls,82.33,3,Annalyssa Salinas,Lockhart,78.11,120.2,54.43,120.2,294.84,Single-ply,SBD,F
Girls,82.33,4,Celeste Bustamante,San Antonio East Central,80.65,106.59,63.5,108.86,278.96,Single-ply,SBD,F
Girls,82.33,5,Madelyn Cruz,Kyle Lehman,79.74,95.25,61.23,106.59,263.08,Single-ply,SBD,F
Girls,82.33,6,Kelsay Underwood,Seguin,77.47,95.25,45.36,111.13,251.74,Single-ply,SBD,F
Girls,82.33,DQ,Theresa Friedman,San Antonio East Central,75.39,52.16,,,,Single-ply,SBD,F
Girls,90.04,1,Mariah Castillo,Lockhart,83.46,149.69,56.7,147.42,353.8,Single-ply,SBD,F
Girls,90.04,2,Gabby Martinez,Kyle Lehman,86.91,127.01,70.31,127.01,324.32,Single-ply,SBD,F
Girls,90.04,3,Nijah Jackson,Kyle Lehman,85,106.59,43.09,108.86,258.55,Single-ply,SBD,F
Girls,90.04,4,Vivian Covarrubias,Kyle Lehman,82.55,79.38,45.36,86.18,210.92,Single-ply,SBD,F
Girls,90.04,5,Shelby Lowe,Lockhart,85,74.84,36.29,92.99,204.12,Single-ply,SBD,F
Girls,100.02,1,Kessiah Woodland,Georgetown East View,92.26,149.69,88.45,124.74,362.87,Single-ply,SBD,F
Girls,100.02,2,Raven Ortega,Lockhart,91.26,136.08,43.09,129.27,308.44,Single-ply,SBD,F
Girls,100.02,3,Nahiley Santana,Georgetown East View,92.62,122.47,52.16,106.59,281.23,Single-ply,SBD,F
Girls,100.02,4,Olivia Salinas,Lockhart,95.71,56.7,38.56,92.99,188.24,Single-ply,SBD,F
Girls,100.02,DQ,Kasandra Huerta,San Antonio East Central,94.35,92.99,,,,Single-ply,SBD,F
Girls,100.02+,1,Seauanna Watson,Kyle Lehman,100.61,147.42,65.77,131.54,344.73,Single-ply,SBD,F
Girls,100.02+,2,Karla Anguiano,Seguin,124.65,127.01,52.16,124.74,303.91,Single-ply,SBD,F
Girls,100.02+,3,Crystal Reyes,Lockhart,112.04,113.4,54.43,124.74,292.57,Single-ply,SBD,F
