Division,WeightClassKg,Place,Name,Team,BodyweightKg,Best3SquatKg,Best3BenchKg,Best3DeadliftKg,TotalKg,Equipment,Event,Sex,BirthDate
Boys,51.71,1,Heath Schlottman,Mount Vernon,51.71,147.42,95.25,156.49,399.16,Single-ply,SBD,M,
Boys,51.71,2,Kirkland Cobb,White Oak,51.26,140.61,88.45,138.35,367.41,Single-ply,SBD,M,
Boys,51.71,3,Ethan Reynolds,Quitman,51.53,127.01,92.99,142.88,362.87,Single-ply,SBD,M,
Boys,51.71,4,Carlos Flores,Quitman,50.26,129.27,88.45,136.08,353.8,Single-ply,SBD,M,
Boys,51.71,5,Jose Ruiz,Diboll,49.35,140.61,65.77,140.61,347,Single-ply,SBD,M,
Boys,51.71,6,Alex Stepp,Hemphill,51.71,111.13,70.31,142.88,324.32,Single-ply,SBD,M,
Boys,51.71,7,Sebastian Urteaga,Eustace,50.98,131.54,68.04,120.2,319.78,Single-ply,SBD,M,
Boys,51.71,8,Robert Crawford #4,Brownsboro,48.17,120.2,68.04,120.2,308.44,Single-ply,SBD,M,
Boys,51.71,9,Avery Roberts,Brownsboro,51.35,111.13,58.97,117.93,288.03,Single-ply,SBD,M,
Boys,51.71,10,Dalton Hamlin,Mineola,49.17,79.38,47.63,108.86,235.87,Single-ply,SBD,M,
Boys,55.79,1,Jakovi Dabbs,Paris,55.16,167.83,106.59,210.92,485.34,Single-ply,SBD,M,
Boys,55.79,2,Steven Cantu,Brownsboro,54.79,163.29,115.67,154.22,433.18,Single-ply,SBD,M,
Boys,55.79,3,Tucker Sanders,Brownsboro,54.7,167.83,111.13,147.42,426.38,Single-ply,SBD,M,
Boys,55.79,4,Col Stevens,Big Sandy Harmony,54.61,158.76,88.45,151.95,399.16,Single-ply,SBD,M,
Boys,55.79,5,Mariano Lara-Manriquez,Quitman,54.07,147.42,90.72,151.95,390.09,Single-ply,SBD,M,
Boys,55.79,6,Kenneth Schmidt,Mount Vernon,55.7,124.74,97.52,147.42,369.68,Single-ply,SBD,M,
Boys,55.79,7,Hugo Sanchez,Pattonville Prairiland,52.25,133.81,88.45,133.81,356.07,Single-ply,SBD,M,
Boys,55.79,8,Avery Whitlow,Atlanta,54.16,133.81,74.84,147.42,356.07,Single-ply,SBD,M,
Boys,55.79,9,Jayden Williams,Tatum,55.25,131.54,72.57,147.42,351.53,Single-ply,SBD,M,
Boys,55.79,DQ,Josiah Hunt,Atlanta,54.34,,,,,Single-ply,SBD,M,
Boys,55.79,DQ,Quentin Harmon,Tatum,55.79,142.88,88.45,,,Single-ply,SBD,M,
Boys,59.87,1,Anthony Cuellar,Brownsboro,58.79,192.78,133.81,181.44,508.02,Single-ply,SBD,M,
Boys,59.87,2,Kyle Crawford,Brownsboro,58.97,210.92,102.06,192.78,505.76,Single-ply,SBD,M,
Boys,59.87,3,Omar Saenz,Winona,57.33,170.1,92.99,170.1,433.18,Single-ply,SBD,M,
Boys,59.87,4,Luke Elrod,Paris North Lamar,58.6,161.03,92.99,176.9,430.91,Single-ply,SBD,M,
Boys,59.87,5,Jackson Braken,Bullard,59.42,174.63,97.52,154.22,426.38,Single-ply,SBD,M,
Boys,59.87,6,Mateo Renard,Mineola,59.06,156.49,95.25,172.37,424.11,Single-ply,SBD,M,
Boys,59.87,7,Nathan Hall,Athens,59.42,147.42,102.06,156.49,405.97,Single-ply,SBD,M,
Boys,59.87,8,Quintin Taylor,Troup,58.44,151.95,92.99,156.49,401.43,Single-ply,SBD,M,
Boys,59.87,9,Caiden Lee,Bullard,59.42,142.88,104.33,147.42,394.63,Single-ply,SBD,M,
Boys,59.87,10,Brandon Moree,Canton,59.6,138.35,88.45,136.08,362.87,Single-ply,SBD,M,
Boys,59.87,11,Mason Circle,Rusk,58.79,129.27,79.38,147.42,356.07,Single-ply,SBD,M,
Boys,59.87,DQ,Jabier Bocanegra,Gilmer,59.24,188.24,117.93,,,Single-ply,SBD,M,
Boys,67.13,1,Jesus Barrientos,Brownsboro,66.59,215.46,145.15,213.19,573.79,Single-ply,SBD,M,
Boys,67.13,2,D'Cameron Walker,Henderson,66.77,226.8,149.69,197.31,573.79,Single-ply,SBD,M,
Boys,67.13,3,Kile Stripland,Gladewater Sabine,66.86,190.51,127.01,188.24,505.76,Single-ply,SBD,M,
Boys,67.13,4,Tyler Hunt,Palestine,66.95,183.7,138.35,183.7,505.76,Single-ply,SBD,M,
Boys,67.13,5,Landon Fretwell,Brownsboro,67.13,192.78,122.47,188.24,503.49,Single-ply,SBD,M,
Boys,67.13,6,Cain Foster,Elkhart,67.13,201.85,122.47,176.9,501.22,Single-ply,SBD,M,
Boys,67.13,7,Bryan Morris,Quitman,67.04,197.31,102.06,179.17,478.54,Single-ply,SBD,M,
Boys,67.13,8,Kaden Mahoney,Troup,66.32,185.97,104.33,185.97,476.27,Single-ply,SBD,M,
Boys,67.13,9,Eric Allen,Center,66.5,170.1,102.06,204.12,476.27,Single-ply,SBD,M,
Boys,67.13,10,Zane Smith #3,Gladewater Sabine,66.86,170.1,140.61,163.29,474,Single-ply,SBD,M,
Boys,67.13,DQ,Luis Williams,Harleton,66.86,,,,,Single-ply,SBD,M,
Boys,67.13,DQ,Hayden Justice,Paris North Lamar,67.13,,,,,Single-ply,SBD,M,
Boys,74.84,1,Harley Sanders,Brownsboro,72.48,297.1,181.44,238.14,716.68,Single-ply,SBD,M,
Boys,74.84,2,Ya'Corus Porter,Henderson,74.39,240.4,154.22,258.55,653.17,Single-ply,SBD,M,
Boys,74.84,3,Alex Cuellar,Brownsboro,74.48,233.6,151.95,235.87,621.42,Single-ply,SBD,M,
Boys,74.84,4,Trey Goodman,Trinity,70.08,219.99,131.54,204.12,555.65,Single-ply,SBD,M,
Boys,74.84,5,Camden Ward,Gladewater Sabine,72.85,201.85,127.01,217.72,546.58,Single-ply,SBD,M,
Boys,74.84,6,Lyric Tredwell,Paris,74.21,206.38,113.4,215.46,535.24,Single-ply,SBD,M,
Boys,74.84,7,Logan McCurley,Brownsboro,73.03,201.85,127.01,204.12,532.97,Single-ply,SBD,M,
Boys,74.84,8,Corbin Martin,Paris,73.57,181.44,117.93,217.72,517.1,Single-ply,SBD,M,
Boys,74.84,9,Cruz Hernandez,De Kalb,71.85,206.38,115.67,192.78,514.83,Single-ply,SBD,M,
Boys,74.84,10,Max Lara,Elkhart,74.12,206.38,108.86,195.04,510.29,Single-ply,SBD,M,
Boys,74.84,11,Aiden Alexander,Texarkana Liberty-Eylau,73.75,174.63,,,174.63,Single-ply,S,M,
Boys,74.84,DQ,Roman Roberts,Redwater,73.12,,,,,Single-ply,SBD,M,
Boys,82.1,1,Marcos Molina,Brownsboro,78.93,260.82,176.9,238.14,675.85,Single-ply,SBD,M,
Boys,82.1,2,Jesus Portillo,Kemp,80.38,249.48,158.76,217.72,625.96,Single-ply,SBD,M,
Boys,82.1,3,Jordan Nguyen #1,Mabank,81.01,247.21,136.08,229.06,612.35,Single-ply,SBD,M,
Boys,82.1,4,John Engle,Bullard,81.92,226.8,158.76,226.8,612.35,Single-ply,SBD,M,
Boys,82.1,5,Dalton Daniels,New Boston,81.28,254.01,115.67,213.19,582.87,Single-ply,SBD,M,
Boys,82.1,6,Jose Villanueva,Kemp,78.65,222.26,142.88,199.58,564.72,Single-ply,SBD,M,
Boys,82.1,7,Jaylin Wood,Ore City,75.66,195.04,104.33,251.74,551.11,Single-ply,SBD,M,
Boys,82.1,8,Dreyven Emerson,Center,81.92,233.6,102.06,208.65,544.31,Single-ply,SBD,M,
Boys,82.1,9,Dekorian Parker,Atlanta,81.19,181.44,151.95,204.12,537.51,Single-ply,SBD,M,
Boys,82.1,10,Dylan Brown,New Boston,79.56,190.51,124.74,210.92,526.17,Single-ply,SBD,M,
Boys,82.1,11,Joel Martinez,Mount Vernon,81.28,167.83,149.69,199.58,517.1,Single-ply,SBD,M,
Boys,82.1,12,Keanu Wolfe,Elkhart,79.11,219.99,113.4,176.9,510.29,Single-ply,SBD,M,
Boys,82.1,DQ,Kaden Richard,Gladewater Sabine,80.83,,,,,Single-ply,SBD,M,
Boys,89.81,1,Keshawn Wallace,Paris,87.36,258.55,156.49,244.94,659.98,Single-ply,SBD,M,
Boys,89.81,2,Amar Love,De Kalb,87.91,249.48,136.08,249.48,635.03,Single-ply,SBD,M,
Boys,89.81,3,K'Vionne Davis,Malakoff,89.81,274.42,131.54,208.65,614.62,Single-ply,SBD,M,
Boys,89.81,4,Blake Hollingsworth,Mount Vernon,88.36,226.8,151.95,226.8,605.55,Single-ply,SBD,M,
Boys,89.81,5,Luis Lozano,Big Sandy Harmony,89.45,258.55,120.2,215.46,594.21,Single-ply,SBD,M,
Boys,89.81,6,Daylon Branham,Gladewater Sabine,88.54,213.19,149.69,213.19,576.06,Single-ply,SBD,M,
Boys,89.81,7,Kaleb Hernandez,Brownsboro,84.91,231.33,131.54,208.65,571.53,Single-ply,SBD,M,
Boys,89.81,8,Kaleb Barton,Mineola,85.73,231.33,124.74,213.19,569.26,Single-ply,SBD,M,
Boys,89.81,9,Cole Edwards,Hughes Springs,88,213.19,129.27,208.65,551.11,Single-ply,SBD,M,
Boys,89.81,10,Patrick Roland,Paris,87,192.78,120.2,192.78,505.76,Single-ply,SBD,M,
Boys,89.81,DQ,Esteban Munoz,Winona,87.63,235.87,129.27,,,Single-ply,SBD,M,
Boys,89.81,DQ,Christian Tristan,Brownsboro,88.99,265.35,,,,Single-ply,SBD,M,
Boys,99.79,1,Dre'Lyn Washington,Hemphill,98.97,249.48,161.03,260.82,671.32,Single-ply,SBD,M,
Boys,99.79,2,Carlos Rojas,Redwater,98.07,278.96,149.69,229.06,657.71,Single-ply,SBD,M,
Boys,99.79,3,Ryan Magrill,Brownsboro,96.98,272.16,163.29,204.12,639.57,Single-ply,SBD,M,
Boys,99.79,4,Jailen Franklin,Paris,97.52,222.26,136.08,240.4,598.74,Single-ply,SBD,M,
Boys,99.79,5,Ishmael Allen,Daingerfield,92.9,231.33,111.13,247.21,589.67,Single-ply,SBD,M,
Boys,99.79,6,Jordan Jenkins,Lindale,93.53,213.19,124.74,249.48,587.4,Single-ply,SBD,M,
Boys,99.79,7,Trent Tennon,Paris,98.25,217.72,113.4,254.01,585.13,Single-ply,SBD,M,
Boys,99.79,8,Chandler Sikes,Paris,93.98,231.33,127.01,217.72,576.06,Single-ply,SBD,M,
Boys,99.79,9,Easton Minter,Redwater,90.99,231.33,145.15,195.04,571.53,Single-ply,SBD,M,
Boys,99.79,10,Ty Blizzard,Atlanta,96.43,210.92,149.69,204.12,564.72,Single-ply,SBD,M,
Boys,99.79,11,Payton Yandle,De Kalb,91.99,219.99,131.54,204.12,555.65,Single-ply,SBD,M,
Boys,99.79,12,Jordan Montalvo,Emory Rains,98.43,235.87,,,235.87,Single-ply,S,M,
Boys,99.79,13,Trey Adams,Atlanta,95.07,226.8,,,226.8,Single-ply,S,M,
Boys,99.79,DQ,Caleb Goforth,Mabank,90.9,,,,,Single-ply,SBD,M,
Boys,109.77,1,John Collier,Redwater,104.42,294.84,167.83,272.16,734.82,Single-ply,SBD,M,
Boys,109.77,2,Tarik Hussien,Redwater,106.78,260.82,176.9,217.72,655.44,Single-ply,SBD,M,
Boys,109.77,3,Clay Fant,Atlanta,101.6,235.87,145.15,210.92,591.94,Single-ply,SBD,M,
Boys,109.77,4,Jawad Hussien,Redwater,107.5,226.8,136.08,217.72,580.6,Single-ply,SBD,M,
Boys,109.77,5,Isaiah Harrison,Atlanta,106.41,208.65,120.2,197.31,526.17,Single-ply,SBD,M,
Boys,109.77,DQ,Wyatt Aylor,Bullard,99.88,,,,,Single-ply,SBD,M,
Boys,109.77,DQ,Austin Cummins,Trinity,107.68,229.06,151.95,,,Single-ply,SBD,M,
Boys,109.77,DQ,Jd Reazin,Tyler Chapel Hill,108.77,,,,,Single-ply,SBD,M,
Boys,109.77,DQ,Hayden Taylor #3,Wills Point,105.23,233.6,,,,Single-ply,SBD,M,
Boys,109.77,DQ,Rylie Redden,White Oak,104.6,226.8,142.88,,,Single-ply,SBD,M,
Boys,109.77,DQ,Brendan Miller,Gladewater Sabine,99.88,199.58,142.88,,,Single-ply,SBD,M,
Boys,109.77,DQ,Carter Renfro,Paris North Lamar,107.5,226.8,145.15,,,Single-ply,SBD,M,
Boys,124.74,1,Eujayvion McAlister,Henderson,112.31,292.57,172.37,233.6,698.53,Single-ply,SBD,M,
Boys,124.74,2,Jacob Gonzales,Wills Point,124.01,269.89,161.03,258.55,689.46,Single-ply,SBD,M,
Boys,124.74,3,Trey Hudson,Tyler Chapel Hill,121.74,265.35,188.24,233.6,687.19,Single-ply,SBD,M,
Boys,124.74,4,Devin Moten,Paris,124.74,251.74,156.49,260.82,669.05,Single-ply,SBD,M,
Boys,124.74,5,Raul Carrasco,Mabank,122.56,283.5,149.69,233.6,666.78,Single-ply,SBD,M,
Boys,124.74,6,Johnata Jones,Quitman,113.31,267.62,151.95,231.33,650.91,Single-ply,SBD,M,
Boys,124.74,7,Jaden Wells,Atlanta,117.48,226.8,149.69,244.94,621.42,Single-ply,SBD,M,
Boys,124.74,8,Jacob Kimbrough,Longview Spring Hill,120.38,238.14,136.08,204.12,578.33,Single-ply,SBD,M,
Boys,124.74,9,Aiden Simmons,Troup,113.4,226.8,136.08,204.12,566.99,Single-ply,SBD,M,
Boys,124.74,DQ,Bryce Hollenshead,Paris North Lamar,121.93,,,,,Single-ply,SBD,M,
Boys,124.74,DQ,Lance Robertson,Malakoff,115.12,,,,,Single-ply,SBD,M,
Boys,124.74,DQ,Eric Lopez,Center,116.21,,,,,Single-ply,SBD,M,
Boys,139.71,1,Tyrell King,Atlanta,131.54,317.51,204.12,260.82,782.45,Single-ply,SBD,M,
Boys,139.71,2,Quinton Johnson,Mount Vernon,135.44,310.71,158.76,272.16,741.62,Single-ply,SBD,M,
Boys,139.71,3,Devin Fields,Henderson,126.73,278.96,174.63,272.16,725.75,Single-ply,SBD,M,
Boys,139.71,4,Satchel Swain,Paris,131,274.42,156.49,233.6,664.51,Single-ply,SBD,M,
Boys,139.71,5,Donavan Barrett,Palestine Westwood,127.64,272.16,147.42,233.6,653.17,Single-ply,SBD,M,
Boys,139.71,6,Luke Sandifer,Lindale,127.1,231.33,151.95,233.6,616.89,Single-ply,SBD,M,
Boys,139.71,7,Andrew Parker,Gilmer,128.55,226.8,163.29,226.8,616.89,Single-ply,SBD,M,
Boys,139.71,8,Samuel Quintanilla,Henderson,129.36,249.48,138.35,204.12,591.94,Single-ply,SBD,M,
Boys,139.71,9,Laynce Welch,Waskom,133.63,238.14,127.01,210.92,576.06,Single-ply,SBD,M,
Boys,139.71,10,Hayden Batchdor,Quitman,126.1,233.6,129.27,199.58,562.45,Single-ply,SBD,M,
Boys,139.71,11,Caden Walker,Atlanta,127.1,210.92,122.47,217.72,551.11,Single-ply,SBD,M,
Boys,139.71,12,Jemaryian Black,Palestine,134.17,242.67,147.42,,390.09,Single-ply,SB,M,
Boys,139.71,DQ,Ty Jacobs,Emory Rains,125.46,,,,,Single-ply,SBD,M,
Boys,139.71+,1,Cj Cofer,Brownsboro,146.6,328.85,197.31,256.28,782.45,Single-ply,SBD,M,
Boys,139.71+,2,KeJuan Fite,Mineola,144.24,299.37,192.78,204.12,696.26,Single-ply,SBD,M,
Boys,139.71+,3,Jon Tatum,Ore City,146.24,272.16,147.42,222.26,641.83,Single-ply,SBD,M,
Boys,139.71+,4,Jason Murphy,Texarkana Liberty-Eylau,150.23,235.87,149.69,240.4,625.96,Single-ply,SBD,M,
Boys,139.71+,5,La'Corey Buckley,Center,162.66,217.72,188.24,210.92,616.89,Single-ply,SBD,M,
Boys,139.71+,6,Josh Lambert #5,Canton,146.33,215.46,147.42,213.19,576.06,Single-ply,SBD,M,
Boys,139.71+,7,Jalan Lofters,Tyler Chapel Hill,184.16,256.28,115.67,199.58,571.53,Single-ply,SBD,M,
Boys,139.71+,8,Josh Wright #4,Texarkana Liberty-Eylau,159.03,185.97,149.69,226.8,562.45,Single-ply,SBD,M,
Boys,139.71+,9,Kris Mayes,Wills Point,168.19,226.8,108.86,197.31,532.97,Single-ply,SBD,M,
Boys,139.71+,DQ,Cedric Davis,Queen City,182.62,,,,,Single-ply,SBD,M,
