Division,WeightClassKg,Place,Name,Team,BodyweightKg,Best3SquatKg,Best3BenchKg,Best3DeadliftKg,TotalKg,Equipment,Event,Sex,BirthDate
Boys,51.71,1,Mark Valdez,Brady,51.53,129.27,86.18,165.56,381.02,Single-ply,SBD,M,
Boys,51.71,2,Roberto Ortiz,Alvarado,50.89,145.15,86.18,136.08,367.41,Single-ply,SBD,M,
Boys,51.71,3,Carlos Bolivar,Cameron Yoe,46.08,115.67,72.57,154.22,342.46,Single-ply,SBD,M,
Boys,51.71,4,Keegan Mantanona,Salado,50.62,133.81,72.57,136.08,342.46,Single-ply,SBD,M,
Boys,51.71,5,Cooper Schiller,Rogers,49.26,131.54,65.77,136.08,333.39,Single-ply,SBD,M,
Boys,51.71,6,Chance Paschal,Blooming Grove,49.53,117.93,74.84,136.08,328.85,Single-ply,SBD,M,
Boys,51.71,7,Anthony Gonzales,Luling,47.9,120.2,63.5,131.54,315.25,Single-ply,SBD,M,
Boys,51.71,8,David Zamora,Luling,48.9,117.93,63.5,117.93,299.37,Single-ply,SBD,M,
Boys,51.71,9,Caden Brister,Gatesville,49.71,127.01,52.16,120.2,299.37,Single-ply,SBD,M,
Boys,51.71,10,Amos Sizer,Lago Vista,50.98,129.27,68.04,102.06,299.37,Single-ply,SBD,M,
Boys,51.71,11,Tracy Johnson #7,Fairfield,51.07,113.4,49.9,124.74,288.03,Single-ply,SBD,M,
Boys,51.71,12,David Hernandez,Smithville,50.35,108.86,54.43,111.13,274.42,Single-ply,SBD,M,
Boys,51.71,13,Kevin Ibanez,Troy,49.44,99.79,54.43,117.93,272.16,Single-ply,SBD,M,
Boys,55.79,1,Jake Bartnick,Little River Academy,54.7,145.15,90.72,149.69,385.55,Single-ply,SBD,M,
Boys,55.79,2,Braden Watson,Comfort,54.61,147.42,79.38,154.22,381.02,Single-ply,SBD,M,
Boys,55.79,3,Nicholas Thompson,West,54.16,136.08,88.45,154.22,378.75,Single-ply,SBD,M,
Boys,55.79,4,Eli Castillo,Fairfield,55.79,140.61,88.45,142.88,371.95,Single-ply,SBD,M,
Boys,55.79,5,Jonathan Strickland,Lampasas,54.98,138.35,72.57,142.88,353.8,Single-ply,SBD,M,
Boys,55.79,6,Andrew Santoyo,Rice,54.88,136.08,68.04,145.15,349.27,Single-ply,SBD,M,
Boys,55.79,7,Justin Abbott,Comal Canyon Lake,54.98,131.54,83.91,127.01,342.46,Single-ply,SBD,M,
Boys,55.79,NS,Rowdy Hand,Fairfield,,,,,,Single-ply,SBD,M,
Boys,55.79,NS,Croix McBean,Fairfield,,,,,,Single-ply,SBD,M,
Boys,55.79,NS,Jake White,Fairfield,,,,,,Single-ply,SBD,M,
Boys,55.79,NS,Johnathan Graves,Godley,,,,,,Single-ply,SBD,M,
Boys,55.79,DQ,Michael Martinez,Brady,52.07,,,,,Single-ply,SBD,M,
Boys,59.87,1,Brady Bearden,Troy,59.87,190.51,127.01,190.51,508.02,Single-ply,SBD,M,
Boys,59.87,2,Caidn Kocian,West,57.97,185.97,99.79,199.58,485.34,Single-ply,SBD,M,
Boys,59.87,3,Leonardo Lopez,Hillsboro,58.6,167.83,90.72,172.37,430.91,Single-ply,SBD,M,
Boys,59.87,4,Thomas Dorman,Comal Canyon Lake,58.97,163.29,92.99,163.29,419.57,Single-ply,SBD,M,
Boys,59.87,5,Luke Keller,Llano,58.69,161.03,90.72,161.03,412.77,Single-ply,SBD,M,
Boys,59.87,6,Jose Rodriguez,Burnet,59.06,142.88,83.91,174.63,401.43,Single-ply,SBD,M,
Boys,59.87,7,Alex Vargas,Rogers,58.42,158.76,95.25,142.88,396.89,Single-ply,SBD,M,
Boys,59.87,8,Luke Rizzo,Fredericksburg,59.51,131.54,90.72,154.22,376.48,Single-ply,SBD,M,
Boys,59.87,9,Garett Buster,Burnet,59.87,138.35,65.77,136.08,340.19,Single-ply,SBD,M,
Boys,59.87,10,Gabe Pineda,Hillsboro,58.88,124.74,70.31,138.35,333.39,Single-ply,SBD,M,
Boys,59.87,DQ,Noah Hutchison,Blooming Grove,59.87,156.49,102.06,,,Single-ply,SBD,M,
Boys,59.87,DQ,Tanner Tucker,Luling,58.24,133.81,,,,Single-ply,SBD,M,
Boys,67.13,1,Sergio Watkins,China Spring,65.59,226.8,138.35,215.46,580.6,Single-ply,SBD,M,
Boys,67.13,2,Khyran Jones,McGregor,65.41,190.51,124.74,217.72,532.97,Single-ply,SBD,M,
Boys,67.13,3,Jair Perez,Little River Academy,64.32,192.78,111.13,183.7,487.61,Single-ply,SBD,M,
Boys,67.13,4,Deago Pena,Troy,66.41,174.63,108.86,185.97,469.47,Single-ply,SBD,M,
Boys,67.13,5,Manny Gomez,Maypearl,65.41,158.76,111.13,183.7,453.59,Single-ply,SBD,M,
Boys,67.13,6,Anthony Lopez,Ferris,65.23,170.1,106.59,174.63,451.32,Single-ply,SBD,M,
Boys,67.13,7,Jacob Caldwell,Lorena,66.77,154.22,120.2,158.76,433.18,Single-ply,SBD,M,
Boys,67.13,8,Bryan Thuy,Rogers,65.41,158.76,97.52,170.1,426.38,Single-ply,SBD,M,
Boys,67.13,9,Kason Raub,Lampasas,65.41,147.42,113.4,161.03,421.84,Single-ply,SBD,M,
Boys,67.13,DQ,Nicky Nieves,McGregor,64.95,,,,,Single-ply,SBD,M,
Boys,67.13,DQ,Bryce Flowers,Rockdale,65.95,,,,,Single-ply,SBD,M,
Boys,67.13,DQ,Dalton Wooten,Whitney,65.68,158.76,106.59,,,Single-ply,SBD,M,
Boys,74.84,1,Billy Gann,West,71.12,229.06,140.61,219.99,589.67,Single-ply,SBD,M,
Boys,74.84,2,Fabian Salomon,Cameron Yoe,71.4,217.72,129.27,217.72,564.72,Single-ply,SBD,M,
Boys,74.84,3,Hayden Braswell,Fairfield,73.75,195.04,131.54,217.72,544.31,Single-ply,SBD,M,
Boys,74.84,4,Miguel Ochoa,Taylor,68.13,215.46,120.2,199.58,535.24,Single-ply,SBD,M,
Boys,74.84,5,Ricardo Martinez #2,Hillsboro,73.57,195.04,115.67,204.12,514.83,Single-ply,SBD,M,
Boys,74.84,6,John Hill,Rogers,70.76,192.78,120.2,197.31,510.29,Single-ply,SBD,M,
Boys,74.84,7,Marc Flores,Blanco,70.31,204.12,136.08,167.83,508.02,Single-ply,SBD,M,
Boys,74.84,8,Jacob Simpkins,Grandview,73.39,181.44,122.47,181.44,485.34,Single-ply,SBD,M,
Boys,74.84,9,Alex Ansay,Alvarado,69.85,176.9,117.93,181.44,476.27,Single-ply,SBD,M,
Boys,74.84,10,Brice Lechler,McGregor,73.57,170.1,129.27,165.56,464.93,Single-ply,SBD,M,
Boys,74.84,DQ,William Bradley,Little River Academy,70.85,147.42,120.2,,,Single-ply,SBD,M,
Boys,74.84,DQ,Gabe Leal,Venus,69.76,,,,,Single-ply,SBD,M,
Boys,82.1,1,Emmanuel Abdallah,China Spring,80.38,242.67,140.61,238.14,621.42,Single-ply,SBD,M,
Boys,82.1,2,Jarvis Haynes,Anderson-Shiro,81.28,242.67,136.08,222.26,601.01,Single-ply,SBD,M,
Boys,82.1,3,Jace Carr,Troy,81.1,233.6,149.69,204.12,587.4,Single-ply,SBD,M,
Boys,82.1,4,Case Brister,Lampasas,79.74,226.8,120.2,226.8,573.79,Single-ply,SBD,M,
Boys,82.1,5,Landon Gilstrap,Troy,79.83,208.65,136.08,219.99,564.72,Single-ply,SBD,M,
Boys,82.1,6,Hector Granados #2,Giddings,81.1,215.46,133.81,195.04,544.31,Single-ply,SBD,M,
Boys,82.1,7,Cooper Carroll,Salado,77.11,210.92,104.33,217.72,532.97,Single-ply,SBD,M,
Boys,82.1,8,Marcus Gonzales,Hillsboro,76.66,176.9,117.93,210.92,505.76,Single-ply,SBD,M,
Boys,82.1,9,Grant Steele,Hillsboro,79.56,204.12,102.06,195.04,501.22,Single-ply,SBD,M,
Boys,82.1,10,Darrick Willis,Ferris,77.66,204.12,106.59,183.7,494.42,Single-ply,SBD,M,
Boys,82.1,11,Isaiah Tarr,Brady,78.38,192.78,113.4,183.7,489.88,Single-ply,SBD,M,
Boys,82.1,DQ,Jackson Cress,Blanco,80.47,199.58,117.93,,,Single-ply,SBD,M,
Boys,82.1,DQ,Patrick Brazzell,Madisonville,79.56,,,,,Single-ply,SBD,M,
Boys,89.81,1,Weston Reid,Lampasas,85.09,272.16,154.22,260.82,687.19,Single-ply,SBD,M,
Boys,89.81,2,Lawson Kendrick,West,86.18,240.4,149.69,244.94,635.03,Single-ply,SBD,M,
Boys,89.81,3,Gabriel Ramos,Giddings,88.09,244.94,151.95,226.8,623.69,Single-ply,SBD,M,
Boys,89.81,4,Dawson Exline,China Spring,89.27,242.67,142.88,215.46,601.01,Single-ply,SBD,M,
Boys,89.81,5,Jaydon Lang,Waco La Vega,88.72,217.72,124.74,231.33,573.79,Single-ply,SBD,M,
Boys,89.81,6,Cullen Dees,Giddings,84.73,226.8,136.08,195.04,557.92,Single-ply,SBD,M,
Boys,89.81,7,AJ Zamora,Whitney,89.45,204.12,131.54,204.12,539.77,Single-ply,SBD,M,
Boys,89.81,8,Jaylen Trotter,China Spring,87.45,179.17,151.95,204.12,535.24,Single-ply,SBD,M,
Boys,89.81,9,Sammy DeLuna,Fredericksburg,85.5,215.46,115.67,199.58,530.7,Single-ply,SBD,M,
Boys,89.81,10,Duncan Benton,Anderson-Shiro,86.36,204.12,120.2,190.51,514.83,Single-ply,SBD,M,
Boys,89.81,NS,Bobby Washington,Franklin,,,,,,Single-ply,SBD,M,
Boys,89.81,DQ,Aden Rascoe,Lampasas,87.27,197.31,136.08,,,Single-ply,SBD,M,
Boys,89.81,DQ,Josh Carter,Lampasas,89.54,,,,,Single-ply,SBD,M,
Boys,99.79,1,Jerry Montgomery,Rice,94.53,265.35,154.22,226.8,646.37,Single-ply,SBD,M,
Boys,99.79,2,Aiden Wilson,Salado,94.44,254.01,140.61,226.8,621.42,Single-ply,SBD,M,
Boys,99.79,3,Michael Flores #7,Hillsboro,93.35,249.48,151.95,199.58,601.01,Single-ply,SBD,M,
Boys,99.79,4,Mason Davis,Rogers,94.35,215.46,149.69,226.8,591.94,Single-ply,SBD,M,
Boys,99.79,5,Aiden King,McGregor,90.45,217.72,145.15,226.8,589.67,Single-ply,SBD,M,
Boys,99.79,6,Vinny Blount,Troy,99.7,215.46,158.76,215.46,589.67,Single-ply,SBD,M,
Boys,99.79,7,Daniel Hernandez,Brady,99.7,226.8,131.54,226.8,585.13,Single-ply,SBD,M,
Boys,99.79,8,Blake Volk,Salado,90.36,219.99,138.35,219.99,578.33,Single-ply,SBD,M,
Boys,99.79,9,Oliver Jenkins,McGregor,95.35,213.19,142.88,215.46,571.53,Single-ply,SBD,M,
Boys,99.79,10,Youri Estrada,Fredericksburg,92.26,208.65,145.15,199.58,553.38,Single-ply,SBD,M,
Boys,99.79,11,Jesse Taylor,Maypearl,91.9,190.51,124.74,217.72,532.97,Single-ply,SBD,M,
Boys,99.79,12,Joseph Pendleton,West,93.44,213.19,120.2,197.31,530.7,Single-ply,SBD,M,
Boys,99.79,13,Marco Mendoza,Navasota,98.25,204.12,117.93,204.12,526.17,Single-ply,SBD,M,
Boys,109.77,1,Eduardo Gil,Cameron Yoe,107.23,272.16,185.97,233.6,691.73,Single-ply,SBD,M,
Boys,109.77,2,Colby Franks,McGregor,102.97,274.42,142.88,226.8,644.1,Single-ply,SBD,M,
Boys,109.77,3,Jesus Garcia #11,Waco La Vega,106.14,238.14,176.9,226.8,641.83,Single-ply,SBD,M,
Boys,109.77,4,Clayton Schroeder,Giddings,104.33,249.48,151.95,235.87,637.3,Single-ply,SBD,M,
Boys,109.77,5,Gavin Aguilar,Rockdale,106.14,256.28,167.83,213.19,637.3,Single-ply,SBD,M,
Boys,109.77,6,David Mirafuentes,Blooming Grove,104.05,258.55,147.42,213.19,619.15,Single-ply,SBD,M,
Boys,109.77,7,Johnathan Baker,Burnet,104.69,235.87,142.88,233.6,612.35,Single-ply,SBD,M,
Boys,109.77,8,Wyatt Jones,Lorena,105.51,254.01,131.54,226.8,612.35,Single-ply,SBD,M,
Boys,109.77,9,Mario Sedillo,Robinson,107.32,233.6,145.15,231.33,610.08,Single-ply,SBD,M,
Boys,109.77,10,Mason Rosser,Giddings,104.51,233.6,151.95,213.19,598.74,Single-ply,SBD,M,
Boys,109.77,11,Andrew Rodriguez,Giddings,104.69,231.33,145.15,217.72,594.21,Single-ply,SBD,M,
Boys,109.77,12,Eduardo Chavez,Robinson,104.24,204.12,136.08,240.4,580.6,Single-ply,SBD,M,
Boys,124.74,1,Ryan Smiley,Gatesville,119.29,322.05,183.7,238.14,743.89,Single-ply,SBD,M,
Boys,124.74,2,Angel Banda,Rice,119.39,272.16,185.97,244.94,703.07,Single-ply,SBD,M,
Boys,124.74,3,Wyatt Gardner,Little River Academy,119.48,249.48,170.1,263.08,682.66,Single-ply,SBD,M,
Boys,124.74,4,Avery Womack,Salado,119.2,249.48,176.9,231.33,657.71,Single-ply,SBD,M,
Boys,124.74,5,Gavyn Keyser,Salado,121.38,249.48,176.9,222.26,648.64,Single-ply,SBD,M,
Boys,124.74,6,Cesar Reyes,Alvarado,123.92,263.08,158.76,199.58,621.42,Single-ply,SBD,M,
Boys,124.74,7,Sean Kirkpatrick,Maypearl,111.95,238.14,142.88,226.8,607.81,Single-ply,SBD,M,
Boys,124.74,8,Andrew Elmore,Franklin,116.48,249.48,158.76,195.04,603.28,Single-ply,SBD,M,
Boys,124.74,9,Challen Maileoi,Lake Belton,122.56,254.01,140.61,188.24,582.87,Single-ply,SBD,M,
Boys,124.74,10,Robbie Gregg,Smithville,119.29,226.8,136.08,190.51,553.38,Single-ply,SBD,M,
Boys,124.74,DQ,Carlos Quijano,Venus,116.94,,,,,Single-ply,SBD,M,
Boys,124.74,DQ,Juan Leon,Brady,120.38,235.87,,,,Single-ply,SBD,M,
Boys,139.71,1,Jacob Bayer,Grandview,135.71,340.19,197.31,258.55,796.05,Single-ply,SBD,M,
Boys,139.71,2,Jusiah Sampleton,Giddings,132.27,288.03,167.83,269.89,725.75,Single-ply,SBD,M,
Boys,139.71,3,John Long,Lampasas,137.08,272.16,213.19,240.4,725.75,Single-ply,SBD,M,
Boys,139.71,4,Quinton Wright,Maypearl,135.44,263.08,179.17,269.89,712.14,Single-ply,SBD,M,
Boys,139.71,5,Asa Henson,Buffalo,132.09,247.21,151.95,238.14,637.3,Single-ply,SBD,M,
Boys,139.71,6,Caedmon Garner,Lorena,128.37,249.48,183.7,190.51,623.69,Single-ply,SBD,M,
Boys,139.71,7,Zach Wubbolding,Fredericksburg,129.73,226.8,158.76,235.87,621.42,Single-ply,SBD,M,
Boys,139.71,8,Martin Hernandez #5,Comfort,126.46,238.14,131.54,226.8,596.47,Single-ply,SBD,M,
Boys,139.71,9,Hayden Hopkins,China Spring,133.36,208.65,149.69,226.8,585.13,Single-ply,SBD,M,
Boys,139.71,10,Brayden Bittick,Smithville,133.36,249.48,120.2,213.19,582.87,Single-ply,SBD,M,
Boys,139.71,DQ,Jose Lopez,Navasota,125.01,,,,,Single-ply,SBD,M,
Boys,139.71,DQ,Garrett Tittle,Caldwell,126.01,219.99,151.95,,,Single-ply,SBD,M,
Boys,139.71+,1,Devin Smith,Waco La Vega,144.33,328.85,188.24,238.14,755.23,Single-ply,SBD,M,
Boys,139.71+,2,Trent Tidwell,Hillsboro,140.25,258.55,183.7,242.67,684.92,Single-ply,SBD,M,
Boys,139.71+,3,Bosque Monico,Fairfield,152.86,294.84,158.76,190.51,644.1,Single-ply,SBD,M,
Boys,139.71+,4,Traydan Johnson,Fairfield,163.84,294.84,142.88,204.12,641.83,Single-ply,SBD,M,
Boys,139.71+,5,Oscar Martinez,Alvarado,143.43,254.01,140.61,208.65,603.28,Single-ply,SBD,M,
Boys,139.71+,6,Preston Cooper,Riesel,146.96,265.35,124.74,188.24,578.33,Single-ply,SBD,M,
Boys,139.71+,7,Caden Thrift,Lampasas,149.87,201.85,158.76,206.38,566.99,Single-ply,SBD,M,
Boys,139.71+,8,Adam Walden,Lake Belton,160.57,204.12,124.74,192.78,521.63,Single-ply,SBD,M,
Boys,139.71+,9,Hillard Morning,Madisonville,191.87,215.46,117.93,181.44,514.83,Single-ply,SBD,M,
Boys,139.71+,10,Delvin Morris,Caldwell,140.61,183.7,111.13,210.92,505.76,Single-ply,SBD,M,
Boys,139.71+,11,Jacob Adams,Mexia,141.97,174.63,117.93,174.63,467.2,Single-ply,SBD,M,
Boys,139.71+,DQ,Logan Walker,Fairfield,168.92,,,,,Single-ply,SBD,M,
