Division,WeightClassKg,Place,Name,Team,BodyweightKg,Best3SquatKg,Best3BenchKg,Best3DeadliftKg,TotalKg,Equipment,Event,Sex
Boys,55.79,1,Jose Rodriguez,Athens,51.8,165.56,83.91,138.35,387.82,Single-ply,SBD,M
Boys,55.79,1,Ricardo Rodriguez,Athens,54.61,122.47,90.72,154.22,367.41,Single-ply,SBD,M
Boys,55.79,2,Colby Green,Bullard,54.25,163.29,68.04,127.01,358.34,Single-ply,SBD,M
Boys,59.87,3,Ruben Esquivel,Corsicana,56.02,129.27,72.57,140.61,342.46,Single-ply,SBD,M
Boys,55.79,4,Garrian McCallister,Malakoff,54.34,129.27,65.77,127.01,322.05,Single-ply,SBD,M
Boys,67.13,1,Walker Shelton,Tolar,60.1,181.44,86.18,176.9,444.52,Single-ply,SBD,M
Boys,59.87,2,Luis Camacho,Athens,58.24,145.15,95.25,158.76,399.16,Single-ply,SBD,M
Boys,59.87,3,Tyson Eno,Belton,59.87,138.35,102.06,158.76,399.16,Single-ply,SBD,M
Boys,59.87,4,Brooks Conlee,Bullard,59.15,149.69,63.5,163.29,376.48,Single-ply,SBD,M
Boys,59.87,5,Devin Eggins,Fairfield,59.78,147.42,79.38,147.42,374.21,Single-ply,SBD,M
Boys,67.13,6,Reamond Martinez,Belton,60.1,120.2,86.18,167.83,374.21,Single-ply,SBD,M
Boys,67.13,1,David Calixtro,Teague,66.5,215.46,108.86,206.38,530.7,Single-ply,SBD,M
Boys,67.13,2,Michael Murray #3,Palestine Westwood,64.41,199.58,92.99,192.78,485.34,Single-ply,SBD,M
Boys,67.13,3,Robert Martinez,Belton,67.13,167.83,95.25,215.46,478.54,Single-ply,SBD,M
Boys,67.13,4,Speedy Gonzales,Ennis,66.86,165.56,99.79,190.51,455.86,Single-ply,SBD,M
Boys,67.13,5,Jeremy Bennett,Rusk,66.59,163.29,86.18,185.97,435.45,Single-ply,SBD,M
Boys,67.13,6,Daniel Salazar,Athens,66.86,151.95,106.59,170.1,428.64,Single-ply,SBD,M
Boys,67.13,DQ,Dustin Bendall,Brownsboro,66.32,,,,,Single-ply,SBD,M
Boys,67.13,DQ,Karson Street,Malakoff,65.68,161.03,99.79,,,Single-ply,SBD,M
Boys,74.84,1,Houston Alexander,Bullard,74.66,199.58,131.54,199.58,530.7,Single-ply,SBD,M
Boys,74.84,2,Coy Jorden,Teague,74.48,183.7,122.47,204.12,510.29,Single-ply,SBD,M
Boys,74.84,3,Cshamari Reed,Ennis,74.21,181.44,106.59,192.78,480.81,Single-ply,SBD,M
Boys,82.1,4,Cesar Garcia,Malakoff,74.93,195.04,95.25,181.44,471.74,Single-ply,SBD,M
Boys,74.84,5,Devin Hall,Athens,72.39,174.63,106.59,179.17,460.4,Single-ply,SBD,M
Boys,74.84,6,Jason Washburn,Ennis,68.4,170.1,92.99,181.44,444.52,Single-ply,SBD,M
Boys,82.1,7,Sergio Rios,Mexia,75.07,154.22,92.99,181.44,428.64,Single-ply,SBD,M
Boys,82.1,1,Tyraiel Hart,Tyler Chapel Hill,81.37,244.94,120.2,229.06,594.21,Single-ply,SBD,M
Boys,82.1,2,Zack Holladay,Bullard,81.01,240.4,122.47,222.26,585.13,Single-ply,SBD,M
Boys,89.81,3,David Overstreet,Rusk,82.19,195.04,90.72,242.67,528.44,Single-ply,SBD,M
Boys,82.1,4,Ray Rosales,Rusk,80.29,192.78,124.74,206.38,523.9,Single-ply,SBD,M
Boys,82.1,5,Joseph Clark,Tyler Chapel Hill,77.2,195.04,127.01,199.58,521.63,Single-ply,SBD,M
Boys,82.1,6,Landon Emmert,Ennis,79.2,201.85,111.13,208.65,521.63,Single-ply,SBD,M
Boys,82.1,7,Devin Patterson,Belton,81.65,185.97,122.47,213.19,521.63,Single-ply,SBD,M
Boys,82.1,8,Cameron Washington,Corsicana,80.29,195.04,127.01,197.31,519.36,Single-ply,SBD,M
Boys,82.1,9,Ben Parrish,Groesbeck,80.2,208.65,115.67,192.78,517.1,Single-ply,SBD,M
Boys,82.1,10,Ds Uumby,Athens,78.93,206.38,102.06,192.78,501.22,Single-ply,SBD,M
Boys,82.1,11,Eric Montemayor,Ennis,79.2,192.78,111.13,197.31,501.22,Single-ply,SBD,M
Boys,89.81,12,Alberto Martinez,Athens,82.28,156.49,106.59,172.37,435.45,Single-ply,SBD,M
Boys,89.81,1,Martin Balderas,Groesbeck,86.82,235.87,142.88,244.94,623.69,Single-ply,SBD,M
Boys,89.81,2,Dequan Raindle,Corsicana,85.46,244.94,120.2,249.48,614.62,Single-ply,SBD,M
Boys,89.81,3,Brandoyn Bell,Tyler Chapel Hill,88.18,244.94,136.08,222.26,603.28,Single-ply,SBD,M
Boys,99.79,4,Nicoli Morgan,Palestine Westwood,89.99,233.6,108.86,240.4,582.87,Single-ply,SBD,M
Boys,89.81,5,Chase Emerson,Rusk,84.46,244.94,127.01,204.12,576.06,Single-ply,SBD,M
Boys,89.81,6,Zayne Gumler,Tolar,89.81,226.8,99.79,233.6,560.19,Single-ply,SBD,M
Boys,89.81,7,Dalton Barker,Fairfield,89.72,226.8,124.74,206.38,557.92,Single-ply,SBD,M
Boys,89.81,8,Robert Robinson,Mexia,88.81,235.87,104.33,215.46,555.65,Single-ply,SBD,M
Boys,89.81,9,Jawwan Martin,Athens,88.81,185.97,145.15,206.38,537.51,Single-ply,SBD,M
Boys,89.81,10,Snoop Harvey,Ennis,87.63,195.04,129.27,204.12,528.44,Single-ply,SBD,M
Boys,89.81,DQ,Tate Taylor,Malakoff,85.82,,,,,Single-ply,SBD,M
Boys,99.79,1,Kelton Henderson,Teague,99.7,294.84,147.42,240.4,682.66,Single-ply,SBD,M
Boys,99.79,2,Ryan Stinson,Belton,98.88,240.4,158.76,226.8,625.96,Single-ply,SBD,M
Boys,99.79,3,Cody Sell,Fairfield,98.97,249.48,149.69,213.19,612.35,Single-ply,SBD,M
Boys,99.79,4,Ty Tunstall,Teague,94.89,199.58,113.4,213.19,526.17,Single-ply,SBD,M
Boys,109.77,1,Dillen Kilpatrick,Fairfield,108.14,278.96,172.37,213.19,664.51,Single-ply,SBD,M
Boys,109.77,2,Keiundas Wade,Tyler Chapel Hill,100.52,215.46,147.42,233.6,596.47,Single-ply,SBD,M
Boys,109.77,3,Diontre Oliver,Mexia,100.7,235.87,117.93,235.87,589.67,Single-ply,SBD,M
Boys,109.77,4,Michael Raymond,Fairfield,108.86,256.28,108.86,219.99,585.13,Single-ply,SBD,M
Boys,109.77,5,Keven Garcia,Tyler Chapel Hill,101.7,213.19,151.95,217.72,582.87,Single-ply,SBD,M
Boys,109.77,6,James Lockhart,Ennis,103.69,213.19,133.81,213.19,560.19,Single-ply,SBD,M
Boys,109.77,7,Brady Burleson,Brownsboro,109.77,238.14,120.2,181.44,539.77,Single-ply,SBD,M
Boys,109.77,8,Stevie Morrow,Ennis,107.77,226.8,113.4,188.24,528.44,Single-ply,SBD,M
Boys,109.77,9,Ben Long,Teague,107.41,219.99,113.4,188.24,521.63,Single-ply,SBD,M
Boys,124.74,1,Dominic Kelly,Corsicana,111.13,249.48,147.42,240.4,637.3,Single-ply,SBD,M
Boys,124.74,2,Jose Diaz #3,Teague,112.31,256.28,129.27,240.4,625.96,Single-ply,SBD,M
Boys,124.74,3,Anthony Barraza,Groesbeck,113.67,251.74,127.01,222.26,601.01,Single-ply,SBD,M
Boys,124.74,4,Koby Williams,Belton,110.31,226.8,108.86,206.38,542.04,Single-ply,SBD,M
Boys,124.74,5,Bruce Tekell,Ennis,122.11,213.19,124.74,185.97,523.9,Single-ply,SBD,M
Boys,124.74,6,Dean Fletes,Corsicana,114.03,192.78,108.86,156.49,458.13,Single-ply,SBD,M
Boys,124.74+,1,Montrel Newson,Ennis,164.47,260.82,136.08,238.14,635.03,Single-ply,SBD,M
Boys,124.74+,2,Thomas Acol,Malakoff,131.72,235.87,124.74,226.8,587.4,Single-ply,SBD,M
Boys,124.74+,3,Joseph Baird,Ennis,157.03,215.46,129.27,233.6,578.33,Single-ply,SBD,M
Boys,124.74+,DQ,Juan Gomez,Brownsboro,125.01,235.87,120.2,,,Single-ply,SBD,M
Boys,124.74+,DQ,Josh Hamilton,Tyler Chapel Hill,130.54,272.16,172.37,249.48,,Single-ply,SBD,M
