Place,Name,Division,BirthDate,Age,Sex,Equipment,WeightClassKg,BodyweightKg,Country,Squat1Kg,Squat2Kg,Squat3Kg,Best3SquatKg,Squat4Kg,Bench1Kg,Bench2Kg,Bench3Kg,Best3BenchKg,Bench4Kg,Deadlift1Kg,Deadlift2Kg,Deadlift3Kg,Best3DeadliftKg,Deadlift4Kg,TotalKg,Event
DQ,Aliona Nelogova,Juniors 20-23,1997-09-01,21,F,Raw,44,38.8,Russia,-35,-35,-35,,,,,,,,,,,,,,SBD
1,Ekaterina Panarina,Open,2000-04-18,18,F,Raw,48,48,Russia,70,75,-77.5,75,,47.5,50,52.5,52.5,,-100,100,-105,100,,227.5,SBD
1,Mariša Golob,Open,1990-05-15,28,F,Raw,56,55.5,Slovenia,-135,135,140,140,,85,90,-92.5,90,,155,165,172.5,172.5,,402.5,SBD
2,Iyliya Abramova,Open,1982-06-29,36,F,Raw,56,55.8,Russia,85,92.5,95,95,,40,45,-47.5,45,,122.5,132.5,-140,132.5,,272.5,SBD
3,Elena Grishkova,Open,1989-04-05,29,F,Raw,56,52.3,Russia,65,67.5,70,70,,37.5,40,42.5,42.5,,-70,70,75,75,,187.5,SBD
1,Elena Bondarchuk,Open,1980-06-18,38,F,Raw,60,58.9,Russia,87.5,-95,97.5,97.5,,47.5,52.5,55,55,,105,-112.5,-112.5,105,,257.5,SBD
1,Carol Smolsky,Masters 55-59,1959-07-09,59,F,Raw,60,57.8,USA,85,-90,90,90,,42.5,45,-47.5,45,,100,105,107.5,107.5,,242.5,SBD
1,Darya Dogadina,Juniors 15-19,2001-03-20,17,F,Raw,67.5,62.7,Russia,115,120,125,125,,60,-65,-65,60,,117.5,125,130,130,,315,SBD
1,Nina Kondrashyova,Open,1960-01-02,58,F,Raw,67.5,67.5,Russia,-130,130,137.5,137.5,,85,87.5,-90,87.5,,140,150,160,160,,385,SBD
2,Mariya Petryakova,Open,1984-08-26,34,F,Raw,67.5,67.3,Russia,80,-87.5,-90,80,,45,47.5,50,50,,107.5,-117.5,120,120,,250,SBD
1,Antonina Sboynova,Masters 40-44,1974-08-01,44,F,Raw,67.5,66.1,Russia,65,75,82.5,82.5,,-45,45,-52.5,45,,90,105,120,120,,247.5,SBD
1,Anna Stepanova,Masters 60-64,1957-02-15,61,F,Raw,67.5,61.7,Russia,65,67.5,75,75,,40,42.5,-45,42.5,,100,105,-107.5,105,,222.5,SBD
1,Inga Abramova,Juniors 15-19,2002-09-30,16,F,Raw,75,74.3,Russia,95,-97.5,-97.5,95,,65,67.5,-70,67.5,,110,115,-120,115,,277.5,SBD
1,Kassandra Kappelin,Open,1986-10-02,32,F,Raw,75,70,USA,130,137.5,142.5,142.5,,67.5,72.5,77.5,77.5,,170,182.5,190,190,,410,SBD
2,Elina Chernina,Open,1987-06-10,31,F,Raw,75,74.8,Russia,135,-145,-145,135,,85,-90,-90,85,,-155,160,-170,160,,380,SBD
1,Valeriya Sivakova,Open,1988-11-04,30,F,Raw,82.5,79.4,Russia,130,137.5,145,145,,62.5,67.5,72.5,72.5,,140,150,155,155,,372.5,SBD
1,Oleg Dvoynikov,Masters 55-59,1960-10-08,58,M,Raw,60,59.5,Russia,115,125,-130,125,,85,-90,-90,85,,155,165,-170,165,,375,SBD
1,Aleksandr Korolev,Open,1992-10-18,26,M,Raw,67.5,67,Russia,125,130,132.5,132.5,,-130,-130,130,130,,150,160,180,180,,442.5,SBD
1,Andrey Roykhka,Juniors 15-19,2001-06-22,17,M,Raw,75,75,Russia,120,125,-130,125,,77.5,80,-82.5,80,,150,160,170,170,,375,SBD
1,Dmitriy Sidorkin,Open,1993-02-04,25,M,Raw,75,74.2,Russia,200,210,220,220,,160,-170,-170,160,,-225,-235,235,235,,615,SBD
2,Dalgat Gadghiakhmedov,Open,1987-06-18,31,M,Raw,75,74.1,Russia,165,172.5,-180,172.5,,125,-132.5,-132.5,125,,205,-220,-220,205,,502.5,SBD
1,Erni Gregorčič,Masters 40-44,1976-06-04,42,M,Raw,75,73.6,Slovenia,200,205,-210,205,,140,145,-150,145,,-240,240,251,251,-261,601,SBD
1,Aleksey Nikulin,Open,1982-11-01,36,M,Raw,82.5,79.9,Russia,332.5,-347.5,-347.5,332.5,,170,-175,,170,,-300,300,315,315,,817.5,SBD
2,Sergey Avgut',Open,1992-10-11,26,M,Raw,82.5,82.4,Russia,230,-245,-245,230,,140,150,,150,,260,275,285,285,,665,SBD
3,Grigoriy Arbatov,Open,1987-02-12,31,M,Raw,82.5,81.3,Russia,-215,215,230,230,,150,157.5,-162.5,157.5,,240,255,267.5,267.5,,655,SBD
4,Aleksandr Talerov,Open,1983-06-08,35,M,Raw,82.5,80.3,Russia,210,220,230,230,,122.5,130,-135,130,,-240,-250,250,250,,610,SBD
1,Aleksandr Mikhaylov,Masters 55-59,1958-12-09,59,M,Raw,82.5,81.2,Russia,100,107.5,115,115,,80,85,90,90,,115,122.5,-127.5,122.5,,327.5,SBD
1,Kirill Pokryshka,Juniors 20-23,1996-03-09,22,M,Raw,90,88,Russia,210,-220,-220,210,,155,-160,,155,,230,235,,235,,600,SBD
1,Aleksandr Makarov,Open,1983-10-08,35,M,Raw,90,89.7,Russia,255,267.5,277.5,277.5,,175,185,190,190,,267.5,282.5,295,295,,762.5,SBD
2,Dmitriy Timofeev,Open,1987-02-21,31,M,Raw,90,87.8,Russia,-235,235,250,250,,170,180,185,185,,310,320,-330,320,,755,SBD
3,Sergey Maksimov,Open,1989-07-26,29,M,Raw,90,88.7,Russia,250,265,272.5,272.5,,172.5,182.5,-187.5,182.5,,280,295,-305,295,,750,SBD
4,Aleksandr Cherednichenko,Open,1991-02-04,27,M,Raw,90,88.9,Russia,245,255,262.5,262.5,,-175,175,180,180,,285,295,305,305,,747.5,SBD
5,Aleksey Zavadskiy,Open,1990-08-30,28,M,Raw,90,89.4,Belarus,240,250,-260,250,,180,185,-190,185,,290,-300,300,300,,735,SBD
6,Ilya Titov,Open,1989-07-22,29,M,Raw,90,88.8,Russia,210,217.5,220,220,,160,165,-170,165,,235,-252.5,252.5,252.5,,637.5,SBD
7,Sergey Borovkov,Open,1991-03-05,27,M,Raw,90,90,Russia,-210,-210,210,210,,-160,160,167.5,167.5,,260,-275,-275,260,,637.5,SBD
8,Vladimir Zykov,Open,1982-10-28,36,M,Raw,90,89,Russia,180,200,,200,,145,-155,-155,145,,225,-235,-240,225,,570,SBD
1,Roman Malyshev,Masters 40-44,1978-08-20,40,M,Raw,90,89.5,Russia,-210,215,-230,215,,175,182.5,-185,182.5,,240,255,265,265,,662.5,SBD
DQ,Sergey Kholyapin,Masters 40-44,1975-02-14,43,M,Raw,90,89.7,Russia,-200,-200,-200,,,,,,,,,,,,,,SBD
1,Vladimir Karandashev,Masters 45-49,1972-03-12,46,M,Raw,90,88,Russia,150,,,150,,125,135,145,145,,160,180,200,200,,495,SBD
1,Igor Zavalniuk,Masters 50-54,1964-03-21,54,M,Raw,90,89.9,Russia,180,190,-200,190,,125,-135,-135,125,,190,210,-215,210,,525,SBD
1,Vladimir Pleshkov,Masters 70-74,1944-08-29,74,M,Raw,90,86.2,Russia,130,140,-150,140,,110,117.5,120,120,,150,165,170,170,,430,SBD
1,Yaroslav Chayka,Open,1973-05-29,45,M,Raw,100,99.1,Russia,290,317.5,-333,317.5,,185,195,-200,195,,290,-317.5,320,320,,832.5,SBD
2,Anton Rusalenko,Open,1987-10-22,31,M,Raw,100,98.8,Russia,220,232.5,245,245,,162.5,172.5,177.5,177.5,,265,285,295,295,,717.5,SBD
3,Iyriy Sakharov,Open,1986-12-07,31,M,Raw,100,98.5,Russia,260,270,280,280,,155,165,-170,165,,270,-290,,270,,715,SBD
DQ,Andrey Karmishin,Open,1984-03-13,34,M,Raw,100,96.5,Russia,230,-240,-250,230,,155,162.5,-167.5,162.5,,-230,,,,,,SBD
1,Andrey Chernyshov,Masters 40-44,1975-10-06,43,M,Raw,100,98.2,Russia,220,235,-245,235,,-150,160,170,170,,250,267.5,-285,267.5,,672.5,SBD
2,Oleg Aliushinskiy,Masters 40-44,1977-04-28,41,M,Raw,100,98.6,Russia,195,-205,210,210,,150,160,165,165,,220,235,250,250,,625,SBD
1,Yaroslav Chayka,Masters 45-49,1973-05-29,45,M,Raw,100,99.1,Russia,290,317.5,-333,317.5,,185,195,-200,195,,290,-317.5,320,320,,832.5,SBD
2,Roman Scherbakov,Masters 45-49,1970-12-19,47,M,Raw,100,98.7,Russia,185,195,-210,195,,130,140,-145,140,,205,215,220,220,,555,SBD
1,Guseyn Guseynov,Masters 50-54,1966-01-04,52,M,Raw,100,100,Russia,200,210,220,220,,170,180,190,190,,220,235,245,245,,655,SBD
1,Kirill Kovalenko,Open,1992-05-11,26,M,Raw,110,109,Russia,290,302.5,310,310,,200,207.5,-212.5,207.5,,310,330,-347.5,330,,847.5,SBD
2,Denis Degtyar,Open,1981-06-24,37,M,Raw,110,109.4,Russia,275,-295,300,300,316,175,-190,-190,175,,305,325,340,340,,815,SBD
3,Umar Iniev,Open,1985-12-25,32,M,Raw,110,105.9,Russia,292.5,-302.5,302.5,302.5,,185,195,-205,195,,290,305,-315,305,,802.5,SBD
4,Aleksandr Sharov,Open,1983-09-03,35,M,Raw,110,110,Russia,270,280,-285,280,,200,-210,210,210,,295,310,-317.5,310,,800,SBD
5,Denis Astakhov,Open,1984-05-21,34,M,Raw,110,109.5,Russia,290,-302.5,305,305,,160,-167.5,,160,,290,302.5,-310,302.5,,767.5,SBD
6,Andrey Paskal,Open,1990-10-30,28,M,Raw,110,104.1,Russia,250,260,-270,260,,-170,180,185,185,,260,270,280,280,,725,SBD
DQ,Vadim Loghechkin,Open,1984-07-12,34,M,Raw,110,106.7,Belarus,-280,-290,-290,,,,,,,,,,,,,,SBD
1,Aleksandr Stepanov,Masters 40-44,1975-05-09,43,M,Raw,110,103,Russia,185,-195,195,195,,150,160,,160,,210,225,,225,,580,SBD
2,Aleksandr Fomichev #2,Masters 40-44,1976-03-24,42,M,Raw,110,108.2,Russia,-180,190,200,200,,160,165,-167.5,165,,185,200,-220,200,,565,SBD
1,Dmitriy Pys,Open,1986-05-04,32,M,Raw,125,122.4,Russia,310,-330,,310,,-210,210,,210,,300,310,315,315,,835,SBD
2,Roman Demin,Open,1980-04-24,38,M,Raw,125,114.6,Russia,260,270,285,285,,190,200,-210,200,,320,340,-350,340,,825,SBD
3,Anatoliy Milioshkin,Open,1977-08-21,41,M,Raw,125,117.5,Kazakhstan,270,-280,-280,270,,160,170,-180,170,,240,255,265,265,,705,SBD
DQ,Roman Kuznetsov #1,Open,1981-07-15,37,M,Raw,125,118.7,Russia,-240,240,-250,240,,-170,,,,,,,,,,,SBD
1,Anatoliy Milioshkin,Masters 40-44,1977-08-21,41,M,Raw,125,117.5,Kazakhstan,270,-280,-280,270,,160,170,-180,170,,240,255,265,265,,705,SBD
1,Igor Sharapov,Masters 45-49,1971-10-30,47,M,Raw,125,123.6,Russia,250,265,-273,265,,185,-195,-195,185,,260,275,-280,275,,725,SBD
1,Aleksey Kotov,Open,1980-01-24,38,M,Raw,140,136.7,Russia,300,320,-330,320,,205,215,-222.5,215,,270,300,310,310,,845,SBD
2,Maksim Bezinskikh,Open,1986-05-18,32,M,Raw,140,132.3,Russia,240,255,262.5,262.5,,187.5,-197.5,-197.5,187.5,,245,260,-265,260,,710,SBD
1,Mariya Mokrinskaya,Juniors 20-23,1995-11-19,23,F,Wraps,60,59.6,Russia,-160,-160,160,160,,85,92.5,-97.5,92.5,,140,150,155,155,,407.5,SBD
1,Anastasiya Kushnir,Open,1993-11-05,25,F,Wraps,60,59.6,Russia,100,110,-120,110,,60,67.5,72.5,72.5,,90,100,107.5,107.5,,290,SBD
1,Tatyana Mazar,Juniors 20-23,1996-01-23,22,F,Wraps,67.5,64.7,Russia,170,185,-200,185,,105,-110,-110,105,,-175,-175,175,175,,465,SBD
2,Darya Chernyak,Juniors 20-23,1996-01-09,22,F,Wraps,67.5,65,Russia,170,-185,185,185,,95,100,-105,100,,160,-172.5,-172.5,160,,445,SBD
1,Olga Ignatovich,Open,1989-04-14,29,F,Wraps,67.5,64.7,Russia,100,110,-117.5,110,,77.5,85,-90,85,,120,132.5,-140,132.5,,327.5,SBD
1,Lynette Ritchie,Open,1964-11-24,54,F,Wraps,90+,118.3,USA,-185,-185,185,185,,95,102.5,105,105,,200,-215,-215,200,,490,SBD
1,Lynette Ritchie,Masters 50-54,1964-11-24,54,F,Wraps,90+,118.3,USA,-185,-185,185,185,,95,102.5,105,105,,200,-215,-215,200,,490,SBD
1,Igor Kuznetsov #1,Open,1989-08-17,29,M,Wraps,67.5,67.2,Russia,225,-240,-240,225,,150,155,-160,155,,260,275,-287.5,275,,655,SBD
2,Andrey Kim #1,Open,1986-06-27,32,M,Wraps,67.5,64.3,Kazakhstan,-220,230,-240,230,,150,-160,-160,150,,240,-262.5,-262.5,240,,620,SBD
1,Vladimir Zhadenov,Open,1987-06-01,31,M,Wraps,75,72.9,Russia,260,-280,-280,260,,150,-170,170,170,,220,240,250,250,,680,SBD
2,Aleksandr Vasilev,Open,1988-01-08,30,M,Wraps,75,71,Russia,160,170,-175,170,,100,-107.5,,100,,170,182.5,-190,182.5,,452.5,SBD
1,Chakhar Tumurbaatar,Masters 40-44,1974-03-07,44,M,Wraps,75,73.3,Mongolia,-180,-180,180,180,,140,-152.5,-160,140,,160,200,-210,200,,520,SBD
1,Sergey Smirnov,Open,1988-06-29,30,M,Wraps,82.5,82.5,Russia,290,-300,,290,,180,-185,,180,,290,-300,-300,290,,760,SBD
2,Ivan Arapov,Open,1992-08-09,26,M,Wraps,82.5,81.7,Russia,240,255,-262.5,255,,140,150,-157.5,150,,-250,-260,260,260,,665,SBD
3,Andrey Smetaniuk,Open,1981-08-15,37,M,Wraps,82.5,79.6,Russia,-195,-195,195,195,,120,125,130,130,,232.5,-242.5,-245,232.5,,557.5,SBD
DQ,Aleksey Maslenkov,Open,1987-05-12,31,M,Wraps,82.5,82,Russia,-175,-175,-175,,,,,,,,,,,,,,SBD
1,Nikolay Altunin,Masters 40-44,1977-07-24,41,M,Wraps,82.5,78.2,Russia,210,215,220,220,,140,145,-150,145,,240,250,255,255,,620,SBD
1,Oleksandr Shevchenko #1,Open,1990-12-23,27,M,Wraps,90,90,Ukraine,350,-372.5,-375,350,,180,-190,-190,180,,-310,-310,310,310,,840,SBD
2,Ivan Klippenshteyn,Open,1986-08-04,32,M,Wraps,90,89.7,Russia,-285,285,295,295,,185,-190,,185,,280,-290,,280,,760,SBD
3,Dmitriy Mikhaylov,Open,1984-05-23,34,M,Wraps,90,89.6,Russia,-250,250,265,265,,140,147.5,-152.5,147.5,,255,265,-275,265,,677.5,SBD
4,Denis Ilichiov,Open,1987-12-01,31,M,Wraps,90,86.3,Russia,215,-217.5,225,225,,160,175,-180,175,,220,240,-252.5,240,,640,SBD
1,Anupam Goel,Masters 40-44,1974-12-06,44,M,Wraps,90,86,India,-120,-120,120,120,,120,125,-130,125,,120,-140,-140,120,,365,SBD
2,Anupam Goel,Masters 40-44,1974-12-06,44,M,Wraps,90,86,India,-120,-120,120,120,,120,125,-130,125,,120,-140,-140,120,,365,SBD
DQ,Aleksandr Vorms,Masters 40-44,1975-09-28,43,M,Wraps,90,88.3,Russia,-220,-220,-220,,,,,,,,,,,,,,SBD
1,Konstantin Dremenkov,Masters 50-54,1966-07-21,52,M,Wraps,90,86.8,Belarus,230,-250,-250,230,,150,157.5,-160,157.5,,-260,-260,260,260,,647.5,SBD
1,Vladimir Sidorenko,Masters 55-59,1961-10-27,57,M,Wraps,90,84.1,Russia,155,,,155,,120,130,,130,,125,155,-185,155,,440,SBD
1,Ramazan Shikhgasanov,Juniors 20-23,1995-02-23,23,M,Wraps,100,96.9,Russia,320,330,340,340,,215,222.5,227.5,227.5,,290,-300,-300,290,,857.5,SBD
2,Denis Goncharov,Juniors 20-23,1996-11-19,22,M,Wraps,100,97.2,Russia,270,285,-295,285,,150,160,170,170,,265,275,285,285,,740,SBD
3,Pavel Zalov,Juniors 20-23,1996-09-13,22,M,Wraps,100,98.1,Russia,210,230,-240,230,,130,145,-152.5,145,,210,230,240,240,,615,SBD
DQ,Sergey Kostrulev,Juniors 20-23,1996-11-09,22,M,Wraps,100,99.2,Russia,300,-320,-320,300,,,,,,,,,,,,,SBD
1,Ramazan Shikhgasanov,Open,1995-02-23,23,M,Wraps,100,96.9,Russia,320,330,340,340,,215,222.5,227.5,227.5,,290,-300,-300,290,,857.5,SBD
2,Vladimir Grigorev,Open,1986-07-21,32,M,Wraps,100,97.8,Russia,280,-295,305,305,,172.5,180,-185,180,,290,305,312.5,312.5,,797.5,SBD
3,Ilya Ershov,Open,1988-10-20,30,M,Wraps,100,99.9,Russia,240,255,-262.5,255,,165,177.5,-185,177.5,,240,255,262.5,262.5,,695,SBD
4,Maksim Pyatygin,Open,1989-08-20,29,M,Wraps,100,98.2,Russia,240,260,-270,260,,150,155,160,160,,260,270,-280,270,,690,SBD
5,Igor Goryaev,Open,1991-02-17,27,M,Wraps,100,97.3,Russia,245,-255,255,255,,150,157.5,-162.5,157.5,,250,260,275,275,,687.5,SBD
6,Vladimir Safonov,Open,1987-03-21,31,M,Wraps,100,99.2,Russia,255,-262.5,,255,,165,170,-175,170,,245,-252.5,252.5,252.5,,677.5,SBD
7,Evgeniy Drobotov,Open,1987-08-16,31,M,Wraps,100,91.2,Russia,240,260,267.5,267.5,,155,160,,160,,240,-260,,240,,667.5,SBD
8,Timur Klimenko,Open,1988-01-15,30,M,Wraps,100,99.3,Ukraine,230,-245,-245,230,,140,150,155,155,,-270,270,-272.5,270,,655,SBD
9,Dmitriy Ghukov,Open,1976-12-06,42,M,Wraps,100,93.7,Russia,230,240,252.5,252.5,,152.5,160,-165,160,,215,230,-240,230,,642.5,SBD
10,Sergey Zolotov,Open,1991-11-13,27,M,Wraps,100,97.9,Russia,-240,-240,240,240,,140,-150,-150,140,,240,250,-255,250,,630,SBD
DQ,Sergey Kostrulev,Open,1996-11-09,22,M,Wraps,100,99.2,Russia,300,-320,-320,300,,,,,,,,,,,,,SBD
1,Dmitriy Ghukov,Masters 40-44,1976-12-06,42,M,Wraps,100,93.7,Russia,230,240,252.5,252.5,,152.5,160,-165,160,,215,230,-240,230,,642.5,SBD
2,Viktor Suvernev,Masters 40-44,1977-02-25,41,M,Wraps,100,99.5,Russia,-220,220,235,235,,-120,120,-127.5,120,,205,220,-235,220,,575,SBD
1,Andrey Ivanov,Masters 45-49,1971-01-14,47,M,Wraps,100,95.5,Russia,-220,220,240,240,,130,-135,-135,130,,-210,-210,210,210,,580,SBD
1,Aleksandr Tsvetkov,Masters 60-64,1957-04-10,61,M,Wraps,100,97.8,Russia,200,-220,225,225,,110,115,,115,,210,225,,225,,565,SBD
1,Rustam Ramazanov,Open,1983-09-20,35,M,Wraps,110,105,Russia,270,-280,280,280,,175,180,-185,180,,250,260,270,270,,730,SBD
1,Aleksandr Shishkin,Masters 40-44,1975-10-27,43,M,Wraps,110,103.4,Russia,-265,265,-280,265,,150,160,-170,160,,245,250,-255,250,,675,SBD
2,Bahram Kazemizadeh,Masters 40-44,1978-04-26,40,M,Wraps,110,110,Iran,-160,160,200,200,,140,160,170,170,,170,200,230,230,,600,SBD
1,Igor Kuzmenko #1,Masters 50-54,1967-08-09,51,M,Wraps,110,109.2,Russia,-180,-180,180,180,,110,120,130,130,,160,190,,190,,500,SBD
1,Vladimir Rghankov,Masters 55-59,1962-05-03,56,M,Wraps,110,102.9,Russia,-220,230,-240,230,,130,145,155,155,,230,-250,-250,230,,615,SBD
1,Nikita Nikitin,Juniors 20-23,1995-10-14,23,M,Wraps,125,122.7,Russia,300,320,340,340,,190,205,-212.5,205,,-290,295,305,305,,850,SBD
2,Oleg Portnov,Juniors 20-23,1996-12-23,21,M,Wraps,125,120.9,Russia,280,300,-310,300,,172.5,182.5,190,190,,335,-342.5,,335,,825,SBD
1,Aleksandr Klychev,Open,1986-06-25,32,M,Wraps,125,124.4,Russia,300,320,330,330,,200,215,220,220,,-300,300,-312.5,300,,850,SBD
2,Dmitriy Verbitskiy #1,Open,1986-03-26,32,M,Wraps,125,115.3,Russia,290,-300,-300,290,,200,212.5,-220,212.5,,300,310,312.5,312.5,,815,SBD
3,Aleksandr Komkov,Open,1983-11-26,35,M,Wraps,125,119,Russia,285,305,325,325,,-200,-205,205,205,,285,-292.5,-292.5,285,,815,SBD
4,Dmitriy Ivanov #30,Open,1989-02-08,29,M,Wraps,125,120.6,Russia,290,-305,-315,290,,190,-200,-200,190,,280,290,-300,290,,770,SBD
1,Ruslan Isabekov,Masters 40-44,1978-11-15,40,M,Wraps,125,117.5,Russia,220,-240,-260,220,,150,160,-170,160,,220,240,-260,240,,620,SBD
1,Mohamed Bouafia,Open,1976-12-15,41,M,Wraps,140,133,Algeria,380,400,420,420,,210,220,-225,220,,-330,330,-360,330,,970,SBD
2,Ivan Ryabenkov,Open,1996-01-14,22,M,Wraps,140,139.7,Russia,380,400,-410,400,,190,-200,-200,190,,370,-385,-385,370,,960,SBD
3,Ilya Dalishnev,Open,1993-08-19,25,M,Wraps,140,129.7,Russia,260,-267.5,-275,260,,180,-190,,180,,270,290,-300,290,,730,SBD
1,Mohamed Bouafia,Masters 40-44,1976-12-15,41,M,Wraps,140,133,Algeria,380,400,420,420,,210,220,-225,220,,-330,330,-360,330,,970,SBD
1,Andrey Malanichev,Open,1977-01-10,41,M,Wraps,140+,156.1,Russia,410,440,-460,440,,220,240,-250,240,,350,370,380,380,,1060,SBD
DQ,Roman Abidghba,Open,1988-04-27,30,M,Wraps,140+,151.5,Russia,340,-360,,340,,,,,,,,,,,,,SBD
1,Sabina Akhmetova,Open,1994-04-22,24,F,Single-ply,60,56.6,Russia,-195,195,-202.5,195,,90,95,-100,95,,165,-180,180,180,,470,SBD
1,Mikhail Voskresenskiy,Open,1983-09-01,35,M,Single-ply,67.5,65.9,Russia,260,-267.5,-267.5,260,,150,155,160,160,,240,255,-260,255,,675,SBD
1,Oleg Khaustov,Juniors 20-23,1996-05-22,22,M,Single-ply,100,97.3,Russia,215,225,235,235,,130,140,-147.5,140,,200,207.5,215,215,,590,SBD
1,Aleksey Bastrykin,Open,1991-05-03,27,M,Single-ply,100,94.8,Russia,-310,310,-320,310,,230,-240,-240,230,,275,287.5,,287.5,,827.5,SBD
2,Artur Beltsov,Open,1982-03-04,36,M,Single-ply,100,97.2,Russia,200,220,235,235,,150,165,-180,165,,-150,150,-200,150,,550,SBD
1,Aleksandr Muratkin,Open,1985-08-29,33,M,Single-ply,110,108.7,Russia,315,325,-332.5,325,,-235,235,-245,235,,340,355,-365,355,,915,SBD
1,Nikolay Emtsev,Masters 50-54,1967-05-23,51,M,Single-ply,110,102.1,Russia,-230,-235,235,235,,160,165,,165,,230,240,250,250,,650,SBD
1,Evgeniy Tiutyaev,Open,1987-07-25,31,M,Single-ply,125,123.5,Russia,290,-310,310,310,,-230,230,240,240,,255,265,-270,265,,815,SBD
1,Mark Menslage,Masters 50-54,1965-02-08,53,M,Single-ply,125,113.4,USA,230,250,-272.5,250,,122.5,-137.5,,122.5,,230,250,272.5,272.5,,645,SBD
1,Saka El,Open,1976-05-08,42,M,Single-ply,140+,141.3,Lebanon,-400,402.5,412.5,412.5,,-260,270,287.5,287.5,,285,307.5,317.5,317.5,,1017.5,SBD
1,Saka El,Masters 40-44,1976-05-08,42,M,Single-ply,140+,141.3,Lebanon,-400,402.5,412.5,412.5,,-260,270,287.5,287.5,,285,307.5,317.5,317.5,,1017.5,SBD
1,Dmitriy Kochevatkin,Open,1976-02-18,42,M,Multi-ply,90,88.7,Russia,285,-295,-300,285,,-215,-215,215,215,,210,220,230,230,,730,SBD
1,Dmitriy Kochevatkin,Masters 40-44,1976-02-18,42,M,Multi-ply,90,88.7,Russia,285,-295,-300,285,,-215,-215,215,215,,210,220,230,230,,730,SBD
1,Aliona Nelogova,Juniors 20-23,1997-09-01,21,F,Raw,44,38.8,Russia,,,,,,20,-25,-25,20,,-35,-35,35,35,,55,BD
1,Mariša Golob,Open,1990-05-15,28,F,Raw,56,55.5,Slovenia,,,,,,85,90,-92.5,90,,155,165,172.5,172.5,,262.5,BD
2,Elena Grishkova,Open,1989-04-05,29,F,Raw,56,52.3,Russia,,,,,,37.5,40,42.5,42.5,,-70,70,75,75,,117.5,BD
1,Anastasiya Lavrova,Open,1991-01-04,27,F,Raw,60,58.6,Russia,,,,,,45,50,-52.5,50,,-90,90,95,95,,145,BD
1,Ekaterina Lavrova,Open,1994-02-15,24,F,Raw,67.5,65.1,Russia,,,,,,55,60,-62.5,60,,90,95,100,100,,160,BD
1,Elena Pimenova,Open,1984-08-13,34,F,Raw,75,74,Russia,,,,,,80,85,-90,85,,165,170,-175,170,,255,BD
1,Lynette Ritchie,Masters 50-54,1964-11-24,54,F,Raw,90+,118.3,USA,,,,,,95,102.5,105,105,,200,-215,-215,200,,305,BD
1,Erni Gregorčič,Open,1976-06-04,42,M,Raw,75,73.6,Slovenia,,,,,,140,145,-150,145,,-240,240,251,251,-261,396,BD
2,Dalgat Gadghiakhmedov,Open,1987-06-18,31,M,Raw,75,74.1,Russia,,,,,,125,-132.5,-132.5,125,,205,-220,-220,205,,330,BD
1,Erni Gregorčič,Masters 40-44,1976-06-04,42,M,Raw,75,73.6,Slovenia,,,,,,140,145,-150,145,,-240,240,251,251,-261,396,BD
1,Sergey Avgut',Open,1992-10-11,26,M,Raw,82.5,82.4,Russia,,,,,,140,150,,150,,260,275,285,285,,435,BD
1,Andrey Tuchin,Masters 40-44,1974-02-05,44,M,Raw,82.5,81,Russia,,,,,,120,130,-135,130,,180,190,195,195,,325,BD
1,Oleg Osipov,Open,1986-11-12,32,M,Raw,90,88.9,Russia,,,,,,170,180,-190,180,,310,320,-325,320,,500,BD
2,Aleksey Zavadskiy,Open,1990-08-30,28,M,Raw,90,89.4,Belarus,,,,,,180,185,-190,185,,290,-300,300,300,,485,BD
1,Anupam Goel,Masters 40-44,1974-12-06,44,M,Raw,90,86,India,,,,,,120,125,-130,125,,120,-140,-140,120,,245,BD
1,Vladimir Sidorenko,Masters 55-59,1961-10-27,57,M,Raw,90,84.1,Russia,,,,,,120,130,,130,,125,155,-185,155,,285,BD
1,Yaroslav Chayka,Open,1973-05-29,45,M,Raw,100,99.1,Russia,,,,,,185,195,-200,195,,290,-317.5,320,320,,515,BD
2,Vladimir Grigorev,Open,1986-07-21,32,M,Raw,100,97.8,Russia,,,,,,172.5,180,-185,180,,290,305,312.5,312.5,,492.5,BD
3,Maksim Eremeev,Open,1991-06-15,27,M,Raw,100,97.6,Russia,,,,,,-150,155,-160,155,,230,240,-245,240,,395,BD
1,Denis Podvighnoy,Masters 40-44,1977-06-29,41,M,Raw,100,97.2,Russia,,,,,,155,165,-170,165,,240,-255,-255,240,,405,BD
1,Yaroslav Chayka,Masters 45-49,1973-05-29,45,M,Raw,100,99.1,Russia,,,,,,185,195,-200,195,,290,-317.5,320,320,,515,BD
1,Guseyn Guseynov,Masters 50-54,1966-01-04,52,M,Raw,100,100,Russia,,,,,,170,180,190,190,,220,235,245,245,,435,BD
1,Nizami Tagiev,Open,1991-04-05,27,M,Raw,125,116.1,Russia,,,,,,200,210,220,220,,310,320,330,330,,550,BD
1,Ruslan Isabekov,Masters 40-44,1978-11-15,40,M,Raw,125,117.5,Russia,,,,,,150,160,-170,160,,220,240,-260,240,,400,BD
1,Mohamed Bouafia,Open,1976-12-15,41,M,Raw,140,133,Algeria,,,,,,210,220,-225,220,,-330,330,-360,330,,550,BD
1,Andrey Malanichev,Open,1977-01-10,41,M,Raw,140+,156.1,Russia,,,,,,220,240,-250,240,,350,370,380,380,,620,BD
1,Anna Vitkalova,Open,1992-04-27,26,F,Raw,52,51.7,Russia,,,,,,72.5,-75,-75,72.5,,,,,,,72.5,B
2,Viktoriya Ivanova,Open,1983-06-30,35,F,Raw,52,50.8,Russia,,,,,,-40,40,-42.5,40,,,,,,,40,B
1,Mariša Golob,Open,1990-05-15,28,F,Raw,56,55.5,Slovenia,,,,,,85,90,-92.5,90,,,,,,,90,B
1,Anastasiya Gribanova,Open,1992-09-27,26,F,Raw,60,58.3,Russia,,,,,,-50,50,-52.5,50,,,,,,,50,B
1,Natalya Samarina,Open,1984-06-27,34,F,Raw,67.5,67,Russia,,,,,,135,140,-145.5,140,,,,,,,140,B
2,Tatyana Efimova,Open,1977-09-10,41,F,Raw,67.5,63.7,Russia,,,,,,100,110,115,115,,,,,,,115,B
3,Elena Vinogradova,Open,1986-02-03,32,F,Raw,67.5,67,Russia,,,,,,-100,100,-107.5,100,,,,,,,100,B
DQ,Inga Galich,Open,1970-01-18,48,F,Raw,67.5,66.9,Russia,,,,,,-107.5,-107.5,-107.5,,,,,,,,,B
1,Tatyana Efimova,Masters 40-44,1977-09-10,41,F,Raw,67.5,63.7,Russia,,,,,,100,110,115,115,,,,,,,115,B
2,Galina Kolybelina,Masters 40-44,1976-01-30,42,F,Raw,67.5,66,Russia,,,,,,50,55,-57.5,55,,,,,,,55,B
1,Alevtina Ivanova,Masters 45-49,1971-10-03,47,F,Raw,67.5,66.5,Russia,,,,,,107.5,-112.5,112.5,112.5,,,,,,,112.5,B
DQ,Inga Galich,Masters 45-49,1970-01-18,48,F,Raw,67.5,66.9,Russia,,,,,,-107.5,-107.5,-107.5,,,,,,,,,B
1,Nadeghda Vlasova,Open,1982-01-24,36,F,Raw,75,69.2,Russia,,,,,,125,130,-132.5,130,,,,,,,130,B
2,Anna Pardghiani,Open,1996-11-06,22,F,Raw,75,74.7,Russia,,,,,,110,-117.5,-117.5,110,,,,,,,110,B
3,Nataliya Dyatel,Open,1988-03-20,30,F,Raw,75,67.7,Russia,,,,,,87.5,-92.5,-92.5,87.5,,,,,,,87.5,B
DQ,Samira Rahmani,Open,1986-12-11,31,F,Raw,75,75,Iran,,,,,,-45,-45,-50,,,,,,,,,B
1,Elena Gamolina,Masters 55-59,1961-01-17,57,F,Raw,75,70.2,Russia,,,,,,75,82.5,-87.5,82.5,,,,,,,82.5,B
1,Aleksandra Antipova,Open,1993-10-26,25,F,Raw,82.5,75.8,Russia,,,,,,-137.5,140,-150,140,,,,,,,140,B
1,Lynette Ritchie,Masters 50-54,1964-11-24,54,F,Raw,90+,118.3,USA,,,,,,95,102.5,105,105,,,,,,,105,B
1,Vadim Rasschepiy,Juniors 13-15,2003-05-13,15,M,Raw,56,52.9,Russia,,,,,,-55,55,60,60,,,,,,,60,B
2,Daniil Chghan,Juniors 13-15,2003-12-08,14,M,Raw,56,53.6,Russia,,,,,,57.5,60,-62.5,60,,,,,,,60,B
1,Roman Belousov,Open,1991-10-19,27,M,Raw,56,54.7,Russia,,,,,,165,170,-172.5,170,,,,,,,170,B
1,Ivan Luchenkov,Open,1991-03-30,27,M,Raw,67.5,66.7,Russia,,,,,,137.5,142.5,-147.5,142.5,,,,,,,142.5,B
2,Aleksandr Korolev,Open,1992-10-18,26,M,Raw,67.5,67,Russia,,,,,,-130,-130,130,130,,,,,,,130,B
3,Andrey Davydov,Open,1989-10-30,29,M,Raw,67.5,67.1,Russia,,,,,,110,120,-127.5,120,,,,,,,120,B
4,Evgeniy Kuklin,Open,1981-12-16,36,M,Raw,67.5,67,Russia,,,,,,117.5,-125,-125,117.5,,,,,,,117.5,B
1,Anatoliy Vilchitskiy,Masters 60-64,1955-08-24,63,M,Raw,67.5,66.5,Russia,,,,,,95,100,105,105,,,,,,,105,B
1,Sergey Sychiov,Open,1978-07-18,40,M,Raw,75,74.9,Russia,,,,,,200,207.5,-212.5,207.5,,,,,,,207.5,B
2,Sergey Agapov,Open,1988-11-17,30,M,Raw,75,74.9,Russia,,,,,,170,180,190,190,,,,,,,190,B
3,Aleksandr Antropov,Open,1969-03-14,49,M,Raw,75,73,Russia,,,,,,170,175,177.5,177.5,,,,,,,177.5,B
4,Pavel Grisheev,Open,1982-06-28,36,M,Raw,75,73.9,Russia,,,,,,150,160,165,165,,,,,,,165,B
5,Lenar Dghamilev,Open,1993-09-17,25,M,Raw,75,74.7,Russia,,,,,,135,-145,145,145,,,,,,,145,B
1,Sergey Sychiov,Masters 40-44,1978-07-18,40,M,Raw,75,74.9,Russia,,,,,,200,207.5,-212.5,207.5,,,,,,,207.5,B
2,Chakhar Tumurbaatar,Masters 40-44,1974-03-07,44,M,Raw,75,73.3,Mongolia,,,,,,140,-152.5,-160,140,,,,,,,140,B
1,Aleksandr Antropov,Masters 45-49,1969-03-14,49,M,Raw,75,73,Russia,,,,,,170,175,177.5,177.5,,,,,,,177.5,B
DQ,Rais Yakhin,Masters 50-54,1967-04-22,51,M,Raw,75,71.7,Russia,,,,,,-130,-130,-130,,,,,,,,,B
1,Viktor Kutuzov,Masters 80+,1937-12-17,80,M,Raw,75,72.4,Russia,,,,,,85,87.5,-90,87.5,,,,,,,87.5,B
1,Mikhail Sherlin,Juniors 15-19,2000-02-23,18,M,Raw,82.5,80.3,Russia,,,,,,-135,-135,135,135,,,,,,,135,B
1,Artur Andreev,Juniors 20-23,1995-05-30,23,M,Raw,82.5,79,Russia,,,,,,155,-160,-160,155,,,,,,,155,B
1,Alexandr Rabinovich,Open,1967-02-13,51,M,Raw,82.5,81.5,Israel,,,,,,-170,-170,170,170,,,,,,,170,B
2,Ruslan Zaynullin,Open,1993-11-19,25,M,Raw,82.5,82.1,Russia,,,,,,155,165,170,170,,,,,,,170,B
3,Mikhail Tokman,Open,1971-10-14,47,M,Raw,82.5,82.2,Russia,,,,,,-162.5,162.5,165,165,,,,,,,165,B
4,Oleg Khvan,Open,1991-01-16,27,M,Raw,82.5,81.7,Russia,,,,,,155,160,162.5,162.5,,,,,,,162.5,B
5,Aleksandr Liubar,Open,1989-09-23,29,M,Raw,82.5,81.6,Russia,,,,,,137.5,145,152.5,152.5,,,,,,,152.5,B
6,Dmitriy Konopelko,Open,1987-10-15,31,M,Raw,82.5,78.8,Russia,,,,,,137.5,142.5,147.5,147.5,,,,,,,147.5,B
7,Ilya Agafonov,Open,1988-03-12,30,M,Raw,82.5,81.3,Russia,,,,,,142.5,-150,,142.5,,,,,,,142.5,B
1,Mikhail Cherimov,Masters 40-44,1978-09-05,40,M,Raw,82.5,82.1,Russia,,,,,,180,185,192.5,192.5,,,,,,,192.5,B
1,Mikhail Tokman,Masters 45-49,1971-10-14,47,M,Raw,82.5,82.2,Russia,,,,,,-162.5,162.5,165,165,,,,,,,165,B
2,Aleksey Sutugin,Masters 45-49,1971-01-31,47,M,Raw,82.5,81.3,Russia,,,,,,150,-155,-155,150,,,,,,,150,B
1,Alexandr Rabinovich,Masters 50-54,1967-02-13,51,M,Raw,82.5,81.5,Israel,,,,,,-170,-170,170,170,,,,,,,170,B
1,Eduard Machanovskiy,Masters 55-59,1962-09-13,56,M,Raw,82.5,77.9,Russia,,,,,,140,145,150,150,,,,,,,150,B
1,Igor Popov,Masters 60-64,1957-04-11,61,M,Raw,82.5,80.4,Russia,,,,,,110,120,-127.5,120,,,,,,,120,B
1,Aleksandr Papir,Masters 70-74,1945-04-11,73,M,Raw,82.5,80.9,Israel,,,,,,107.5,-112.5,-112.5,107.5,,,,,,,107.5,B
1,Daniel Koshelev,Juniors 15-19,1999-04-09,19,M,Raw,90,90,Russia,,,,,,120,,,120,,,,,,,120,B
1,Oleg Filimonov,Open,1987-03-12,31,M,Raw,90,88.8,Russia,,,,,,245.5,-255,-255,245.5,,,,,,,245.5,B
2,Aleksandr Aleksandrov #1,Open,1979-07-19,39,M,Raw,90,87.4,Russia,,,,,,210,-217.5,217.5,217.5,,,,,,,217.5,B
3,Aleksandr Makarov,Open,1983-10-08,35,M,Raw,90,89.7,Russia,,,,,,175,185,190,190,,,,,,,190,B
4,Dmitriy Gharov,Open,1987-10-07,31,M,Raw,90,88.1,Russia,,,,,,-177.5,177.5,182.5,182.5,,,,,,,182.5,B
5,Zamir Yarakhmedov,Open,1989-08-27,29,M,Raw,90,88.6,Russia,,,,,,182.5,-192.5,,182.5,,,,,,,182.5,B
6,Aleksey Shestov,Open,1986-07-03,32,M,Raw,90,89.2,Russia,,,,,,-170,175,182.5,182.5,,,,,,,182.5,B
7,Denis Ilichiov,Open,1987-12-01,31,M,Raw,90,86.3,Russia,,,,,,160,175,-180,175,,,,,,,175,B
8,Konstantin Kostiuchenkov,Open,1986-07-08,32,M,Raw,90,89.7,Russia,,,,,,175,-180,-185,175,,,,,,,175,B
9,Nikita Kulpin,Open,1993-10-11,25,M,Raw,90,88.4,Russia,,,,,,170,-175,-175,170,,,,,,,170,B
10,Sergey Kuznetsov #20,Open,1990-11-28,28,M,Raw,90,86.9,Russia,,,,,,160,-167.5,-175,160,,,,,,,160,B
11,Artem Kormilchenko,Open,1983-05-21,35,M,Raw,90,89.5,Russia,,,,,,152.5,-157.5,157.5,157.5,,,,,,,157.5,B
12,Esmaeil Kaeid,Open,1983-09-18,35,M,Raw,90,86.8,Iran,,,,,,125,-132.5,140,140,,,,,,,140,B
13,Reza Asgarian,Open,1988-09-05,30,M,Raw,90,88.3,Iran,,,,,,120,130,137.5,137.5,,,,,,,137.5,B
1,Bogdan Lugovoy,Masters 40-44,1975-11-26,43,M,Raw,90,89.1,Russia,,,,,,-155,155,160,160,,,,,,,160,B
2,Anupam Goel,Masters 40-44,1974-12-06,44,M,Raw,90,86,India,,,,,,120,125,-130,125,,,,,,,125,B
1,Sergey Rogozin,Masters 45-49,1971-02-02,47,M,Raw,90,89.6,Russia,,,,,,192.5,197.5,202.5,202.5,,,,,,,202.5,B
2,Sergey Kulpin,Masters 45-49,1973-01-11,45,M,Raw,90,89.9,Russia,,,,,,130,135,-140,135,,,,,,,135,B
1,Konstantin Dremenkov,Masters 50-54,1966-07-21,52,M,Raw,90,86.8,Belarus,,,,,,150,157.5,-160,157.5,,,,,,,157.5,B
2,Pavel Devyatov,Masters 50-54,1964-05-10,54,M,Raw,90,89.2,Russia,,,,,,130,135,140,140,,,,,,,140,B
3,Nikolay Ryakhin,Masters 50-54,1965-01-25,53,M,Raw,90,86.3,Russia,,,,,,125,130,132.5,132.5,,,,,,,132.5,B
1,Vladimir Sidorenko,Masters 55-59,1961-10-27,57,M,Raw,90,84.1,Russia,,,,,,120,130,,130,,,,,,,130,B
1,Vladimir Pleshkov,Masters 70-74,1944-08-29,74,M,Raw,90,86.2,Russia,,,,,,110,117.5,120,120,,,,,,,120,B
1,Dmitriy Fedorov,Juniors 20-23,1995-10-24,23,M,Raw,100,96.7,Russia,,,,,,130,135,142.5,142.5,,,,,,,142.5,B
2,Ali Shafei,Juniors 20-23,1996-02-11,22,M,Raw,100,96.7,Iran,,,,,,-130,130,-140,130,,,,,,,130,B
1,Roman Semenov,Open,1979-11-12,39,M,Raw,100,97.6,Russia,,,,,,207.5,-215,,207.5,,,,,,,207.5,B
2,Dmitriy Polunin,Open,1991-12-10,26,M,Raw,100,100,Ukraine,,,,,,202.5,-207.5,-210,202.5,,,,,,,202.5,B
3,Valeriy Bespalikov,Open,1981-04-07,37,M,Raw,100,97.5,Russia,,,,,,180,185,190,190,,,,,,,190,B
4,Roman Yakovlev,Open,1984-03-15,34,M,Raw,100,99.7,Russia,,,,,,180,185,-190,185,,,,,,,185,B
5,Vladimir Grigorev,Open,1986-07-21,32,M,Raw,100,97.8,Russia,,,,,,172.5,180,-185,180,,,,,,,180,B
DQ,Stanislav Kandaurov,Open,1990-05-26,28,M,Raw,100,94.3,Russia,,,,,,-200,-200,-200,,,,,,,,,B
DQ,Ivan Solntsev,Open,1974-03-25,44,M,Raw,100,98.2,Russia,,,,,,-195,-195,-195,,,,,,,,,B
DQ,Mohammadsadegh Aghelimajd,Open,1990-02-15,28,M,Raw,100,99.9,Iran,,,,,,-180,-180,-190,,,,,,,,,B
1,Dghalil Akhunghanov,Masters 40-44,1976-03-20,42,M,Raw,100,95.6,Russia,,,,,,-185,-185,185,185,,,,,,,185,B
2,Aleksandr Melyanovskiy,Masters 40-44,1978-04-05,40,M,Raw,100,93.7,Russia,,,,,,155,165,170,170,,,,,,,170,B
DQ,Ivan Solntsev,Masters 40-44,1974-03-25,44,M,Raw,100,98.2,Russia,,,,,,-195,-195,-195,,,,,,,,,B
1,Yaroslav Chayka,Masters 45-49,1973-05-29,45,M,Raw,100,99.1,Russia,,,,,,185,195,-200,195,,,,,,,195,B
1,Guseyn Guseynov,Masters 50-54,1966-01-04,52,M,Raw,100,100,Russia,,,,,,170,180,190,190,,,,,,,190,B
1,Aleksandr Lagutin,Masters 55-59,1961-04-09,57,M,Raw,100,90.4,Russia,,,,,,120,130,-135,130,,,,,,,130,B
1,Vasiliy Franchuk,Masters 60-64,1955-08-27,63,M,Raw,100,98.6,Russia,,,,,,130,-140,140,140,,,,,,,140,B
2,Vladimir Larionov,Masters 60-64,1958-08-07,60,M,Raw,100,100,Russia,,,,,,120,130,,130,,,,,,,130,B
1,Damir Kuzeev,Masters 65-69,1952-05-14,66,M,Raw,100,94.2,Russia,,,,,,160,,,160,,,,,,,160,B
1,Andrey Apalkov,Open,1979-06-21,39,M,Raw,110,107.9,Russia,,,,,,215,222.5,,222.5,,,,,,,222.5,B
2,Vasiliy Markitantov,Open,1980-02-21,38,M,Raw,110,104,Russia,,,,,,-210,210,212.5,212.5,,,,,,,212.5,B
3,Denis Deryagin,Open,1980-02-28,38,M,Raw,110,109.6,Russia,,,,,,200,212.5,-215,212.5,,,,,,,212.5,B
4,Artem Markov,Open,1986-08-03,32,M,Raw,110,103.6,Russia,,,,,,210,-222.5,-222.5,210,,,,,,,210,B
5,Pavel Veresov,Open,1981-12-05,37,M,Raw,110,109.5,Russia,,,,,,200,-205,-205,200,,,,,,,200,B
6,Mikhail Golub,Open,1987-03-03,31,M,Raw,110,109,Russia,,,,,,192.5,-200,-200,192.5,,,,,,,192.5,B
7,Hossein Ghaffari,Open,1979-04-04,39,M,Raw,110,105.7,Iran,,,,,,150,185,-190,185,,,,,,,185,B
8,Evgeniy Gontsov,Open,1989-06-23,29,M,Raw,110,101.7,Russia,,,,,,170,175,-180,175,,,,,,,175,B
DQ,Dmitriy Pryalnikov,Open,1990-09-02,28,M,Raw,110,104.4,Russia,,,,,,-187.5,-192.5,-192.5,,,,,,,,,B
DQ,Vladimir Ivanov,Open,1979-05-27,39,M,Raw,110,106.7,Russia,,,,,,-192.5,-192.5,-195,,,,,,,,,B
1,Vasiliy Kolybelin,Masters 40-44,1976-12-27,41,M,Raw,110,108.4,Russia,,,,,,200,-207.5,-207.5,200,,,,,,,200,B
1,Sergey Bondarenko,Masters 45-49,1973-04-21,45,M,Raw,110,107.6,Russia,,,,,,180,185,-197.5,185,,,,,,,185,B
1,Igor Rakhtaler,Masters 50-54,1963-12-17,54,M,Raw,110,106.3,Russia,,,,,,190,195,-200,195,,,,,,,195,B
2,Alireza Yasavoli-Sharahi,Masters 50-54,1967-10-26,51,M,Raw,110,102.4,Iran,,,,,,-130,130,145,145,,,,,,,145,B
1,Nikolay Berdnikov,Masters 55-59,1961-12-20,56,M,Raw,110,109,Russia,,,,,,-105,105,115,115,,,,,,,115,B
1,Viktor Vasilev,Masters 60-64,1954-02-09,64,M,Raw,110,107.7,Russia,,,,,,135,145,-150,145,,,,,,,145,B
1,Valeriy Kulakov,Masters 65-69,1951-02-26,67,M,Raw,110,108.4,Russia,,,,,,-110,110,120,120,,,,,,,120,B
1,Dmitriy Ghemarkin,Juniors 20-23,1997-01-29,21,M,Raw,125,118.2,Russia,,,,,,200,205,,205,,,,,,,205,B
2,Tahmoores Karimi,Juniors 20-23,1997-09-21,21,M,Raw,125,119.2,Iran,,,,,,165,-180,-180,165,,,,,,,165,B
1,Anatoliy Serbin,Open,1990-07-26,28,M,Raw,125,122.8,Russia,,,,,,285,293,,293,,,,,,,293,B
2,Evgeniy Zorin,Open,1979-10-28,39,M,Raw,125,116.8,Russia,,,,,,210,220,-230,220,,,,,,,220,B
3,Ilya Kalininskiy,Open,1989-04-11,29,M,Raw,125,117.4,Russia,,,,,,205,212.5,-220,212.5,,,,,,,212.5,B
DQ,Gansukh Batmagnai,Open,1988-06-19,30,M,Raw,125,116.5,Mongolia,,,,,,-215,-225,-225,,,,,,,,,B
DQ,Andrey Kapustin,Open,1977-02-18,41,M,Raw,125,117.4,Russia,,,,,,-205,-205,,,,,,,,,,B
DQ,Foad Zareei-Lemir,Open,1987-05-05,31,M,Raw,125,117.9,Iran,,,,,,-200,-200,-200,,,,,,,,,B
1,Mikhail Lvov,Masters 40-44,1977-05-25,41,M,Raw,125,115.5,Russia,,,,,,190,-202.5,-202.5,190,,,,,,,190,B
2,Ruslan Isabekov,Masters 40-44,1978-11-15,40,M,Raw,125,117.5,Russia,,,,,,150,160,-170,160,,,,,,,160,B
3,Mohammadhossein Shahani,Masters 40-44,1977-12-12,40,M,Raw,125,118.4,Iran,,,,,,150,160,,160,,,,,,,160,B
DQ,Andrey Kapustin,Masters 40-44,1977-02-18,41,M,Raw,125,117.4,Russia,,,,,,-205,-205,,,,,,,,,,B
1,Aleksandr Khmelev,Masters 45-49,1971-09-19,47,M,Raw,125,118,Russia,,,,,,202.5,207.5,-210,207.5,,,,,,,207.5,B
2,Leonid Palshin,Masters 45-49,1970-03-22,48,M,Raw,125,115.7,Russia,,,,,,190,-205,,190,,,,,,,190,B
1,Andrey Peshkov,Masters 55-59,1963-11-05,55,M,Raw,125,124.2,Russia,,,,,,190,-195,195,195,,,,,,,195,B
2,Igor Kurotchenko,Masters 55-59,1962-03-20,56,M,Raw,125,111.5,Russia,,,,,,130,,,130,,,,,,,130,B
1,Aleksandr Efimenkov,Masters 60-64,1958-09-09,60,M,Raw,125,113.9,Russia,,,,,,170,-180,-190,170,,,,,,,170,B
1,Bogdan Kozak,Open,1984-04-05,34,M,Raw,140,134.3,Russia,,,,,,255,260,,260,,,,,,,260,B
2,Sten Haugas,Open,1990-02-07,28,M,Raw,140,137.4,Estonia,,,,,,-240,240,-250,240,,,,,,,240,B
3,Mohamed Bouafia,Open,1976-12-15,41,M,Raw,140,133,Algeria,,,,,,210,220,-225,220,,,,,,,220,B
1,Andrey Malanichev,Open,1977-01-10,41,M,Raw,140+,156.1,Russia,,,,,,220,240,-250,240,,,,,,,240,B
1,Sergey Avgut',Open,1992-10-11,26,M,Single-ply,82.5,82.4,Russia,,,,,,190,205,-220,205,,,,,,,205,B
2,Ilya Kokorev,Open,1973-01-19,45,M,Single-ply,82.5,78.8,Russia,,,,,,-185,185,-205,185,,,,,,,185,B
1,Ilya Kokorev,Masters 45-49,1973-01-19,45,M,Single-ply,82.5,78.8,Russia,,,,,,-185,185,-205,185,,,,,,,185,B
1,Pavel Silushin,Open,1989-09-17,29,M,Single-ply,90,86.7,Russia,,,,,,245,260,,260,,,,,,,260,B
2,Iyriy Belenkiy,Open,1990-03-23,28,M,Single-ply,90,85.9,Russia,,,,,,205,-212.5,-212.5,205,,,,,,,205,B
1,Ivan Solntsev,Open,1974-03-25,44,M,Single-ply,100,98.2,Russia,,,,,,245,-255,-255,245,,,,,,,245,B
2,Aleksandr Borschev,Open,1986-03-24,32,M,Single-ply,100,100,Russia,,,,,,225,-235,,225,,,,,,,225,B
1,Ivan Solntsev,Masters 40-44,1974-03-25,44,M,Single-ply,100,98.2,Russia,,,,,,245,-255,-255,245,,,,,,,245,B
1,Sergey Belikov,Masters 50-54,1964-09-30,54,M,Single-ply,100,99.2,Russia,,,,,,250,-255,-255,250,,,,,,,250,B
1,Ilya Fedorov #1,Open,1984-01-12,34,M,Single-ply,110,105.8,Russia,,,,,,250,260,270,270,,,,,,,270,B
2,Dmitriy Patiupin,Open,1991-11-28,27,M,Single-ply,110,100.9,Russia,,,,,,225,240,-250,240,,,,,,,240,B
3,Eduard Abdiushev,Open,1955-03-02,63,M,Single-ply,110,107.5,Russia,,,,,,215,225,232.5,232.5,,,,,,,232.5,B
DQ,El Samir,Open,1993-09-10,25,M,Single-ply,110,110,Lebanon,,,,,,-192.5,-192.5,-192.5,,,,,,,,,B
1,Alireza Yasavoli-Sharahi,Masters 50-54,1967-10-26,51,M,Single-ply,110,102.4,Iran,,,,,,157.5,165,175,175,,,,,,,175,B
1,Eduard Abdiushev,Masters 60-64,1955-03-02,63,M,Single-ply,110,107.5,Russia,,,,,,215,225,232.5,232.5,,,,,,,232.5,B
1,Andrey Bashkov,Open,1981-09-23,37,M,Single-ply,125,116.2,Russia,,,,,,-300,-300,300,300,,,,,,,300,B
2,Samed Ghoreishi,Open,1982-08-22,36,M,Single-ply,125,124.2,Iran,,,,,,220,230,240,240,,,,,,,240,B
3,Isak Apelgren,Open,1981-09-20,37,M,Single-ply,125,116.6,Sweden,,,,,,202.5,-210,-210,202.5,,,,,,,202.5,B
DQ,Saeid Khakpor,Masters 40-44,1977-07-03,41,M,Single-ply,140+,148.4,Iran,,,,,,-190,-190,-190,,,,,,,,,B
1,Tuvshinzaya Batkhuu,Open,1984-03-13,34,M,Multi-ply,100,94.8,Mongolia,,,,,,130,-145,-155,130,,,,,,,130,B
1,Dmitriy Sukhov,Open,1975-06-09,43,M,Multi-ply,110,108.8,Russia,,,,,,-240,-240,240,240,,,,,,,240,B
1,Dmitriy Sukhov,Masters 40-44,1975-06-09,43,M,Multi-ply,110,108.8,Russia,,,,,,-240,-240,240,240,,,,,,,240,B
1,Pavel Guzev,Open,1966-05-29,52,M,Multi-ply,125,124.1,Russia,,,,,,-270,-270,270,270,,,,,,,270,B
1,Pavel Guzev,Masters 50-54,1966-05-29,52,M,Multi-ply,125,124.1,Russia,,,,,,-270,-270,270,270,,,,,,,270,B
1,Tommy Rundqvist,Open,1977-11-10,41,M,Multi-ply,140+,143.8,Sweden,,,,,,-270,-270,270,270,,,,,,,270,B
1,Tommy Rundqvist,Masters 40-44,1977-11-10,41,M,Multi-ply,140+,143.8,Sweden,,,,,,-270,-270,270,270,,,,,,,270,B
1,Oksana Balabatko,Juniors 13-15,2005-01-24,13,F,Raw,56,52.6,Russia,,,,,,,,,,,60,67.5,72.5,72.5,,72.5,D
1,Mariša Golob,Open,1990-05-15,28,F,Raw,56,55.5,Slovenia,,,,,,,,,,,155,165,172.5,172.5,,172.5,D
2,Margarita Galaktionova,Open,1991-03-01,27,F,Raw,56,55.4,Russia,,,,,,,,,,,160,-167.5,167.5,167.5,172.5,167.5,D
1,Olga Fedorenko,Open,1986-06-30,32,F,Raw,60,59.4,Russia,,,,,,,,,,,-125,125,-132.5,125,,125,D
2,Zinaida Rudenko,Open,1975-09-07,43,F,Raw,60,58.2,Russia,,,,,,,,,,,85,90,97.5,97.5,,97.5,D
1,Zinaida Rudenko,Masters 40-44,1975-09-07,43,F,Raw,60,58.2,Russia,,,,,,,,,,,85,90,97.5,97.5,,97.5,D
1,Anastasiya Avdeeva,Open,1978-09-18,40,F,Raw,67.5,62.7,Russia,,,,,,,,,,,85,95,100,100,,100,D
1,Antonina Sboynova,Masters 40-44,1974-08-01,44,F,Raw,67.5,66.1,Russia,,,,,,,,,,,90,105,120,120,,120,D
2,Anastasiya Avdeeva,Masters 40-44,1978-09-18,40,F,Raw,67.5,62.7,Russia,,,,,,,,,,,85,95,100,100,,100,D
1,Samira Rahmani,Open,1986-12-11,31,F,Raw,75,74.9,Iran,,,,,,,,,,,100,115,120,120,,120,D
1,Lynette Ritchie,Masters 50-54,1964-11-24,54,F,Raw,90+,118.3,USA,,,,,,,,,,,200,-215,-215,200,,200,D
1,Pavel Balážik,Open,1979-08-23,39,M,Raw,56,53.8,Slovakia,,,,,,,,,,,137.5,145,152.5,152.5,,152.5,D
1,Oleg Dvoynikov,Masters 55-59,1960-10-08,58,M,Raw,60,59.5,Russia,,,,,,,,,,,155,165,-170,165,,165,D
1,Igor Kuznetsov #1,Open,1989-08-17,29,M,Raw,67.5,67.2,Russia,,,,,,,,,,,260,275,-287.5,275,,275,D
2,Andrey Kim #1,Open,1986-06-27,32,M,Raw,67.5,64.3,Kazakhstan,,,,,,,,,,,240,-262.5,-262.5,240,,240,D
3,Andrey Sokolov,Open,1994-02-20,24,M,Raw,67.5,63.3,Russia,,,,,,,,,,,190,205,-215,205,,205,D
1,Aleksandr Dambinov,Masters 80+,1936-03-12,82,M,Raw,67.5,60.3,Russia,,,,,,,,,,,130,138,-142.5,138,,138,D
1,Andrey Chernov,Open,1981-12-06,37,M,Raw,75,72.1,Russia,,,,,,,,,,,240,252.5,,252.5,,252.5,D
2,Dalgat Gadghiakhmedov,Open,1987-06-18,31,M,Raw,75,74.1,Russia,,,,,,,,,,,210,-220,-220,210,,210,D
3,Anton Kalinov,Open,1991-09-22,27,M,Raw,75,73.2,Russia,,,,,,,,,,,170,180,-200,180,,180,D
1,Erni Gregorčič,Masters 40-44,1976-06-04,42,M,Raw,75,73.6,Slovenia,,,,,,,,,,,-240,240,251,251,-261,251,D
1,Aleksey Nikulin,Open,1982-11-01,36,M,Raw,82.5,79.9,Russia,,,,,,,,,,,-300,300,315,315,,315,D
2,Mikhail Kiselev,Open,1992-12-20,25,M,Raw,82.5,82.4,Russia,,,,,,,,,,,265,285,292.5,292.5,-300,292.5,D
3,Anton Sidin,Open,1988-04-24,30,M,Raw,82.5,79.5,Russia,,,,,,,,,,,230,250,260,260,,260,D
4,Sergey Gurkovskiy,Open,1990-08-17,28,M,Raw,82.5,82.5,Russia,,,,,,,,,,,220,230,-240,230,,230,D
DQ,Sergey Mik,Open,1987-01-22,31,M,Raw,82.5,81.9,Russia,,,,,,,,,,,-270,-270,-270,,,,D
1,Vyacheslav Baryshev,Masters 55-59,1961-09-14,57,M,Raw,82.5,80.9,Russia,,,,,,,,,,,-200,200,210,210,,210,D
1,Danila Sichko,Juniors 15-19,1999-04-05,19,M,Raw,90,87.3,Russia,,,,,,,,,,,200,-215,-215,200,,200,D
1,Oleg Osipov,Open,1986-11-12,32,M,Raw,90,88.9,Russia,,,,,,,,,,,310,320,-325,320,,320,D
2,Aleksandr Cherednichenko,Open,1991-02-04,27,M,Raw,90,88.9,Russia,,,,,,,,,,,285,295,305,305,,305,D
1,Anupam Goel,Masters 40-44,1974-12-06,44,M,Raw,90,86,India,,,,,,,,,,,120,-140,-140,120,,120,D
1,Eduard Pushkarev,Masters 45-49,1968-12-08,49,M,Raw,90,88.8,Russia,,,,,,,,,,,250,260,272.5,272.5,,272.5,D
2,Vladimir Karandashev,Masters 45-49,1972-03-12,46,M,Raw,90,88,Russia,,,,,,,,,,,160,180,200,200,,200,D
1,Georgiy Taranukhin,Masters 50-54,1968-01-19,50,M,Raw,90,89.2,Russia,,,,,,,,,,,250,262.5,-273,262.5,,262.5,D
1,Vadim Zaytsev,Masters 55-59,1960-08-26,58,M,Raw,90,89.1,Russia,,,,,,,,,,,240,250,260,260,,260,D
2,Iyliy Grakhov,Masters 55-59,1963-08-17,55,M,Raw,90,88.7,Russia,,,,,,,,,,,150,160,,160,,160,D
1,Aleksandr Nemchinov,Masters 65-69,1951-11-10,67,M,Raw,90,87.9,Russia,,,,,,,,,,,220,235,-240,235,,235,D
1,Vladimir Pleshkov,Masters 70-74,1944-08-29,74,M,Raw,90,86.2,Russia,,,,,,,,,,,150,165,170,170,,170,D
1,Vladimir Grigorev,Open,1986-07-21,32,M,Raw,100,97.8,Russia,,,,,,,,,,,290,305,312.5,312.5,,312.5,D
2,Anton Rusalenko,Open,1987-10-22,31,M,Raw,100,98.8,Russia,,,,,,,,,,,265,285,295,295,,295,D
3,Anton Bakhmetev,Open,1992-12-03,26,M,Raw,100,93,Russia,,,,,,,,,,,240,-260,-272.5,240,,240,D
1,Denis Podvighnoy,Masters 40-44,1977-06-29,41,M,Raw,100,97.2,Russia,,,,,,,,,,,240,-255,-255,240,,240,D
2,Aleksandr Melyanovskiy,Masters 40-44,1978-04-05,40,M,Raw,100,93.7,Russia,,,,,,,,,,,180,200,210,210,,210,D
1,Yaroslav Chayka,Masters 45-49,1973-05-29,45,M,Raw,100,99.1,Russia,,,,,,,,,,,290,-317.5,320,320,,320,D
1,Guseyn Guseynov,Masters 50-54,1966-01-04,52,M,Raw,100,100,Russia,,,,,,,,,,,220,235,245,245,,245,D
2,Vyacheslav Gorbunov #1,Masters 50-54,1967-12-20,50,M,Raw,100,97.2,Russia,,,,,,,,,,,210,225,-230,225,,225,D
1,Vitaliy Gnatko,Masters 55-59,1961-07-30,57,M,Raw,100,95.3,Russia,,,,,,,,,,,240,250,255,255,,255,D
1,Aleksandr Tsvetkov,Masters 60-64,1957-04-10,61,M,Raw,100,97.8,Russia,,,,,,,,,,,210,225,,225,,225,D
1,Mahdi Fadaei,Juniors 20-23,1998-07-27,20,M,Raw,110,104.4,Iran,,,,,,,,,,,170,200,215,215,,215,D
1,Denis Degtyar,Open,1981-06-24,37,M,Raw,110,109.4,Russia,,,,,,,,,,,305,325,340,340,,340,D
2,Nikolay Suslov,Open,1979-06-12,39,M,Raw,110,109.9,Russia,,,,,,,,,,,310,330,,330,,330,D
1,Aleksandr Malikov,Masters 45-49,1972-12-21,45,M,Raw,110,102.4,Russia,,,,,,,,,,,277.5,287.5,-292.5,287.5,,287.5,D
1,Alireza Shafaghi,Masters 55-59,1963-03-25,55,M,Raw,110,103.1,Iran,,,,,,,,,,,175,200,210,210,,210,D
1,Tahmoores Karimi,Juniors 20-23,1997-09-21,21,M,Raw,125,119.2,Iran,,,,,,,,,,,180,200,212.5,212.5,,212.5,D
1,Valeriy Yakovlev,Open,1980-12-26,37,M,Raw,125,110.6,Russia,,,,,,,,,,,275,-287.5,-287.5,275,,275,D
DQ,Ilya Lovtsov,Open,1994-08-02,24,M,Raw,125,114.8,Russia,,,,,,,,,,,-280,-280,-290,,,,D
DQ,Roman Kuznetsov #1,Open,1981-07-15,37,M,Raw,125,118.7,Russia,,,,,,,,,,,-280,,,,,,D
1,Ruslan Isabekov,Masters 40-44,1978-11-15,40,M,Raw,125,117.5,Russia,,,,,,,,,,,220,240,-260,240,,240,D
1,Aleksey Kostylev,Masters 45-49,1973-09-04,45,M,Raw,125,112.2,Russia,,,,,,,,,,,270,280,290,290,,290,D
1,Aleksandr Alekseev,Open,1980-06-27,38,M,Raw,140,125.5,Latvia,,,,,,,,,,,320,350,360,360,,360,D
2,Mohamed Bouafia,Open,1976-12-15,41,M,Raw,140,133,Algeria,,,,,,,,,,,-330,330,-360,330,,330,D
3,Dmitriy Samsonov,Open,1993-02-11,25,M,Raw,140,128.9,Russia,,,,,,,,,,,280,-297.5,-297.5,280,,280,D
1,Andrey Malanichev,Open,1977-01-10,41,M,Raw,140+,156.1,Russia,,,,,,,,,,,350,370,380,380,,380,D
1,Elena Pecherskaya,Open,1991-02-08,27,F,Single-ply,75,72.7,Russia,,,,,,,,,,,190,200,-205,200,,200,D
1,Sergey Koryakin,Open,1976-07-01,42,M,Single-ply,82.5,81.5,Russia,,,,,,,,,,,275,-280,-280,275,,275,D
1,Sergey Koryakin,Masters 40-44,1976-07-01,42,M,Single-ply,82.5,81.5,Russia,,,,,,,,,,,275,-280,-280,275,,275,D
1,Evgeniy Tagirov,Open,1994-10-20,24,M,Single-ply,90,86,Russia,,,,,,,,,,,240,250,255,255,,255,D
2,Aleksey Surenskiy,Open,1986-03-27,32,M,Single-ply,90,88.7,Russia,,,,,,,,,,,225,242.5,-255,242.5,,242.5,D
1,Aleksandr Muratkin,Open,1985-08-29,33,M,Single-ply,110,108.7,Russia,,,,,,,,,,,340,355,-365,355,,355,D
1,Alireza Yasavoli-Sharahi,Masters 50-54,1967-10-26,51,M,Single-ply,110,102.4,Iran,,,,,,,,,,,-230,230,-255,230,,230,D
1,Isak Apelgren,Open,1981-09-20,37,M,Single-ply,125,116.6,Sweden,,,,,,,,,,,280,305,-322.5,305,,305,D
2,Valeriy Bezborodov,Open,1976-01-27,42,M,Single-ply,125,118.8,Russia,,,,,,,,,,,265,-282.5,282.5,282.5,,282.5,D
1,Valeriy Bezborodov,Masters 40-44,1976-01-27,42,M,Single-ply,125,118.8,Russia,,,,,,,,,,,265,-282.5,282.5,282.5,,282.5,D
